higher.vcd
$timescale 1 us $end
$scope module Homey $end
$var wire 1 ! Recording $end
$upscope $end
$enddefinitions $end
#0
1!
#179
0!
#189
1!
#348
0!
#412
1!
#634
0!
#654
1!
#903
0!
#1031
1!
#1251
0!
#1303
1!
#1456
0!
#1466
1!
#1614
0!
#1686
1!
#1832
0!
#1842
1!
#1842
0!
#2316
1!
#3361
0!
#3747
1!
#4851
0!
#5231
1!
#5593
0!
#6705
1!
#7069
0!
#8183
1!
#8563
0!
#9659
1!
#10041
0!
#11145
1!
#12263
0!
#12625
1!
#12993
0!
#14103
1!
#15219
0!
#15585
1!
#15953
0!
#17067
1!
#17441
0!
#18547
1!
#19661
0!
#20027
1!
#21145
0!
#21505
1!
#21877
0!
#22989
1!
#23363
0!
#24463
1!
#24843
0!
#25943
1!
#26321
0!
#27427
1!
#28539
0!
#28907
1!
#30023
0!
#30387
1!
#30759
0!
#31871
1!
#32985
0!
#33353
1!
#34459
0!
#34827
1!
#35943
0!
#36313
1!
#37421
0!
#37791
1!
#38165
0!
#48627
1!
#48679
0!
#48867
1!
#48877
0!
#48919
1!
#48981
0!
#49617
1!
#50712
0!
#51094
1!
#52192
0!
#52574
1!
#52938
0!
#54042
1!
#54416
0!
#55532
1!
#55900
0!
#57006
1!
#57380
0!
#58486
1!
#59606
0!
#59966
1!
#60346
0!
#61446
1!
#62566
0!
#62930
1!
#63304
0!
#64410
1!
#64780
0!
#65886
1!
#67004
0!
#67376
1!
#68488
0!
#68852
1!
#69230
0!
#70334
1!
#70708
0!
#71814
1!
#72184
0!
#73296
1!
#73666
0!
#74776
1!
#75884
0!
#76256
1!
#77366
0!
#77730
1!
#78108
0!
#79218
1!
#80326
0!
#80700
1!
#81816
0!
#82176
1!
#83290
0!
#83664
1!
#84772
0!
#85136
1!
#85508
0!
#93572
1!
#93592
0!
#94140
1!
#94172
0!
#94720
1!
#94742
0!
#94764
1!
#94846
0!
#95534
1!
#95574
0!
#95636
1!
#95636
0!
#95802
1!
#95812
0!
#95812
1!
#95822
0!
#95874
1!
#95874
0!
#96008
1!
#96234
0!
#96360
1!
#97765
0!
#98147
1!
#99241
0!
#99623
1!
#99983
0!
#101097
1!
#101467
0!
#102579
1!
#102943
0!
#104059
1!
#104433
0!
#105035
1!
#109953
0!
#109965
1!
#115567
0!
#115609
1!
#120947
0!
#121821
1!
#122941
0!
#123301
1!
#124423
0!
#124781
1!
#125159
0!
#126265
1!
#127377
0!
#127741
1!
#128861
0!
#129225
1!
#130337
0!
#130703
1!
#131819
0!
#132189
1!
#132569
0!
#141373
1!
#141385
0!
#141659
1!
#141691
0!
#141903
1!
#141903
0!
#141945
1!
#141945
0!
#141987
1!
#142167
0!
#142409
1!
#142429
0!
#142827
1!
#142849
0!
#142859
1!
#143379
0!
#143419
1!
#143709
0!
#143749
1!
#144834
0!
#145222
1!
#146318
0!
#146700
1!
#147060
0!
#148178
1!
#148544
0!
#149664
1!
#150024
0!
#151136
1!
#151512
0!
#152612
1!
#153728
0!
#154092
1!
#154472
0!
#155572
1!
#156690
0!
#157060
1!
#157434
0!
#158536
1!
#158912
0!
#160020
1!
#161136
0!
#161500
1!
#162616
0!
#162980
1!
#163356
0!
#164460
1!
#164834
0!
#165942
1!
#166314
0!
#167426
1!
#167792
0!
#168900
1!
#170012
0!
#170386
1!
#171502
0!
#171864
1!
#172238
0!
#173348
1!
#174460
0!
#174832
1!
#175936
0!
#176310
1!
#177420
0!
#177792
1!
#178906
0!
#179274
1!
#179642
0!
#188310
1!
#188332
0!
#188720
1!
#188742
0!
#188854
1!
#188886
0!
#189374
1!
#189500
0!
#189790
1!
#189884
0!
#190008
1!
#190082
0!
#190166
1!
#190260
0!
#190292
1!
#190334
0!
#190374
1!
#190404
0!
#190506
1!
#191577
0!
#191977
1!
#193063
0!
#193445
1!
#193807
0!
#194923
1!
#195297
0!
#196403
1!
#196777
0!
#197885
1!
#198255
0!
#199363
1!
#200475
0!
#200843
1!
#201223
0!
#202317
1!
#203441
0!
#203801
1!
#204181
0!
#205287
1!
#205657
0!
#206763
1!
#207885
0!
#208245
1!
#209361
0!
#209729
1!
#210103
0!
#211207
1!
#211587
0!
#212689
1!
#213059
0!
#214165
1!
#214539
0!
#215655
1!
#216769
0!
#217123
1!
#218249
0!
#218611
1!
#218985
0!
#220087
1!
#221201
0!
#221577
1!
#222681
0!
#223051
1!
#224163
0!
#224537
1!
#225645
0!
#226015
1!
#226389
0!
#237851
1!
#238965
0!
#239355
1!
#240445
0!
#240825
1!
#241187
0!
#242299
1!
#242671
0!
#243777
1!
#244159
0!
#245267
1!
#245637
0!
#246745
1!
#247851
0!
#248223
1!
#248591
0!
#249699
1!
#250821
0!
#251181
1!
#251559
0!
#252667
1!
#253039
0!
#254147
1!
#265675
0!
#265789
1!
#268789
0!
#268789
1!
#271545
0!
#271915
1!
#273029
0!
#273393
1!
#273765
0!
#284873
1!
#284905
0!
#285223
1!
#286343
0!
#286735
1!
#287829
0!
#288207
1!
#288565
0!
#289683
1!
#290055
0!
#291157
1!
#291535
0!
#292643
1!
#293015
0!
#294125
1!
#295241
0!
#295605
1!
#295979
0!
#297081
1!
#298197
0!
#298567
1!
#298939
0!
#300051
1!
#300417
0!
#301527
1!
#302641
0!
#303009
1!
#304125
0!
#304485
1!
#304867
0!
#305969
1!
#306339
0!
#307455
1!
#307823
0!
#308931
1!
#309301
0!
#310409
1!
#311529
0!
#311893
1!
#313011
0!
#313371
1!
#313745
0!
#314851
1!
#315965
0!
#316335
1!
#317453
0!
#317819
1!
#318929
0!
#319301
1!
#320413
0!
#320783
1!
#321153
0!
#332603
1!
#333727
0!
#334111
1!
#335215
0!
#335585
1!
#335957
0!
#337069
1!
#337433
0!
#338549
1!
#338919
0!
#340023
1!
#340401
0!
#341507
1!
#342619
0!
#342987
1!
#343357
0!
#344469
1!
#345581
0!
#345955
1!
#346323
0!
#347429
1!
#347801
0!
#348915
1!
#350025
0!
#350397
1!
#351501
0!
#351873
1!
#352245
0!
#353355
1!
#353723
0!
#354833
1!
#355205
0!
#356319
1!
#356681
0!
#357791
1!
#358909
0!
#359283
1!
#360391
0!
#360763
1!
#361129
0!
#362243
1!
#363349
0!
#363717
1!
#364829
0!
#365201
1!
#366313
0!
#366677
1!
#367791
0!
#368163
1!
#368531
0!
#379995
1!
#381113
0!
#381495
1!
#382595
0!
#382971
1!
#383339
0!
#384451
1!
#384825
0!
#385931
1!
#386301
0!
#387405
1!
#387779
0!
#388893
1!
#390001
0!
#390375
1!
#390747
0!
#391851
1!
#392967
0!
#393335
1!
#393703
0!
#394817
1!
#395187
0!
#396299
1!
#397407
0!
#397781
1!
#398889
0!
#399263
1!
#399625
0!
#400733
1!
#401111
0!
#402223
1!
#402593
0!
#403705
1!
#404073
0!
#405183
1!
#406343
0!
#406437
1!
#406583
0!
#406593
1!
#407795
0!
#407817
1!
#407827
0!
#407827
1!
#407951
0!
#408055
1!
#408107
0!
#408119
1!
#408591
0!
#408631
1!
#408671
0!
#408703
1!
#408797
0!
#408891
1!
#408911
0!
#408975
1!
#409005
0!
#409089
1!
#409099
0!
#409131
1!
#409131
0!
#409151
1!
#410787
0!
#410871
1!
#410933
0!
#411059
1!
#412239
0!
#412301
1!
#412311
0!
#412383
1!
#412499
0!
#412529
1!
#413723
0!
#413733
1!
#413765
0!
#414027
1!
#415189
0!
#415199
1!
#415251
0!
#415261
1!
#415377
0!
#415429
1!
#415491
0!
#415501
1!
#415501
0!
#416119
1!
#416151
0!
#416181
1!
#416243
0!
#416265
1!
#416265
0!
#416285
1!
#416369
0!
#416441
1!
#416545
0!
#416577
1!
#416661
0!
#416671
1!
#416713
0!
#416837
1!
#422141
0!
#427327
1!
#428449
0!
#428825
1!
#429921
0!
#430311
1!
#430665
0!
#431779
1!
#432151
0!
#433263
1!
#433643
0!
#434747
1!
#435121
0!
#436219
1!
#437333
0!
#437701
1!
#438073
0!
#439187
1!
#440297
0!
#440665
1!
#441041
0!
#442151
1!
#442523
0!
#443629
1!
#444741
0!
#445107
1!
#446225
0!
#446587
1!
#446967
0!
#448071
1!
#448439
0!
#449549
1!
#449929
0!
#451033
1!
#451401
0!
#452513
1!
#453631
0!
#453991
1!
#455105
0!
#455475
1!
#455849
0!
#456951
1!
#458071
0!
#458439
1!
#459551
0!
#459921
1!
#461027
0!
#461397
1!
#462513
0!
#462879
1!
#463253
0!
#474713
1!
#475827
0!
#476219
1!
#477313
0!
#477685
1!
#478055
0!
#479169
1!
#479537
0!
#480653
1!
#481023
0!
#482125
1!
#482499
0!
#483613
1!
#484723
0!
#485091
1!
#485465
0!
#486571
1!
#487683
0!
#488057
1!
#488425
0!
#489531
1!
#489903
0!
#491009
1!
#492125
0!
#492497
1!
#493613
0!
#493983
1!
#494345
0!
#495461
1!
#495835
0!
#496937
1!
#497311
0!
#498419
1!
#498789
0!
#499899
1!
#501011
0!
#501383
1!
#502495
0!
#502863
1!
#503231
0!
#504345
1!
#505449
0!
#505823
1!
#506937
0!
#507303
1!
#508421
0!
#508781
1!
#509901
0!
#510269
1!
#510635
0!
#522093
1!
#523221
0!
#523597
1!
#524697
0!
#525077
1!
#525439
0!
#526553
1!
#526929
0!
#528039
1!
#528409
0!
#529513
1!
#529887
0!
#530997
1!
#532119
0!
#532473
1!
#532855
0!
#533957
1!
#535069
0!
#535443
1!
#535811
0!
#536915
1!
#537297
0!
#538395
1!
#539519
0!
#539879
1!
#540995
0!
#541363
1!
#541735
0!
#542841
1!
#543217
0!
#544329
1!
#544703
0!
#545805
1!
#546179
0!
#547285
1!
#548401
0!
#548763
1!
#549881
0!
#550251
1!
#550623
0!
#551725
1!
#552841
0!
#553211
1!
#554323
0!
#554691
1!
#555809
0!
#556171
1!
#570611
0!
#570983
1!
#572113
0!
#572445
1!
#572847
0!
#573097
1!
#573129
0!
#573161
1!
#573203
0!
#573947
1!
#574319
0!
#575421
1!
#575799
0!
#576905
1!
#577277
0!
#578383
1!
#579495
0!
#579863
1!
#580239
0!
#581343
1!
#582455
0!
#582835
1!
#583201
0!
#584307
1!
#584681
0!
#585793
1!
#586907
0!
#587271
1!
#588389
0!
#588751
1!
#589123
0!
#590231
1!
#590607
0!
#591711
1!
#592087
0!
#593189
1!
#593571
0!
#594679
1!
#595785
0!
#596153
1!
#597273
0!
#597641
1!
#598007
0!
#599115
1!
#600229
0!
#600597
1!
#601719
0!
#602079
1!
#603193
0!
#603559
1!
#604673
0!
#605045
1!
#605419
0!
#612099
1!
#612129
0!
#613297
1!
#613317
0!
#616707
1!
#616791
0!
#616855
1!
#617995
0!
#618379
1!
#619481
0!
#619853
1!
#620227
0!
#621331
1!
#621705
0!
#622815
1!
#623191
0!
#624295
1!
#624667
0!
#625779
1!
#626883
0!
#627253
1!
#627631
0!
#628739
1!
#629853
0!
#630219
1!
#630599
0!
#631697
1!
#632077
0!
#633179
1!
#634293
0!
#634661
1!
#635777
0!
#636147
1!
#636517
0!
#637623
1!
#637997
0!
#639099
1!
#639477
0!
#640581
1!
#640961
0!
#642061
1!
#643183
0!
#643547
1!
#644661
0!
#645027
1!
#645403
0!
#646509
1!
#647627
0!
#647985
1!
#649105
0!
#649475
1!
#650591
0!
#650953
1!
#652071
0!
#652433
1!
#652803
0!
#664271
1!
#665387
0!
#665769
1!
#666869
0!
#667249
1!
#667613
0!
#668721
1!
#669093
0!
#670199
1!
#670583
0!
#671681
1!
#672065
0!
#673167
1!
#674281
0!
#674649
1!
#675023
0!
#676125
1!
#677245
0!
#677605
1!
#677979
0!
#679085
1!
#679459
0!
#680567
1!
#681681
0!
#682055
1!
#683163
0!
#683533
1!
#683907
0!
#685013
1!
#685393
0!
#686495
1!
#686873
0!
#687973
1!
#688353
0!
#689457
1!
#690577
0!
#690943
1!
#692055
0!
#692417
1!
#692797
0!
#693899
1!
#695017
0!
#695385
1!
#696491
0!
#696861
1!
#697973
0!
#698341
1!
#699459
0!
#699831
1!
#700203
0!
#708353
1!
#712795
0!
#713151
1!
#714281
0!
#714621
1!
#715021
0!
#715129
1!
#715139
0!
#715181
1!
#715243
0!
#715307
1!
#715349
0!
#715453
1!
#715495
0!
#715557
1!
#715629
0!
#715693
1!
#715951
0!
#715951
1!
#718821
0!
#718843
1!
#718905
0!
#719001
1!
#721945
0!
#721957
1!
#722627
0!
#722637
1!
#722909
0!
#722929
1!
#724635
0!
#724999
1!
#725369
0!
#726485
1!
#726853
0!
#727965
1!
#729075
0!
#729443
1!
#730561
0!
#730925
1!
#731297
0!
#732407
1!
#732777
0!
#733891
1!
#734257
0!
#735367
1!
#735737
0!
#736853
1!
#737959
0!
#738331
1!
#739443
0!
#739815
1!
#740185
0!
#741287
1!
#742407
0!
#742781
1!
#743885
0!
#744255
1!
#745367
0!
#745735
1!
#746853
0!
#747215
1!
#747585
0!
#759057
1!
#760173
0!
#760553
1!
#761649
0!
#762033
1!
#762395
0!
#763507
1!
#763877
0!
#764989
1!
#765357
0!
#766465
1!
#766845
0!
#767951
1!
#769065
0!
#769435
1!
#769807
0!
#770907
1!
#772023
0!
#772393
1!
#772763
0!
#773877
1!
#774245
0!
#775361
1!
#776475
0!
#776835
1!
#777947
0!
#778315
1!
#778693
0!
#779801
1!
#780171
0!
#781281
1!
#781661
0!
#782767
1!
#783137
0!
#784239
1!
#785357
0!
#785723
1!
#786841
0!
#787213
1!
#787583
0!
#788685
1!
#789797
0!
#790165
1!
#791287
0!
#791651
1!
#792765
0!
#793131
1!
#794243
0!
#794615
1!
#794985
0!
#806447
1!
#807567
0!
#807945
1!
#809055
0!
#809431
1!
#809791
0!
#810905
1!
#811275
0!
#812387
1!
#812755
0!
#813865
1!
#814237
0!
#815351
1!
#816461
0!
#816833
1!
#817195
0!
#818309
1!
#819427
0!
#819791
1!
#820165
0!
#821271
1!
#821645
0!
#822749
1!
#823867
0!
#824237
1!
#825347
0!
#825713
1!
#826089
0!
#827199
1!
#827569
0!
#828671
1!
#829053
0!
#830147
1!
#830527
0!
#831641
1!
#832753
0!
#833121
1!
#834231
0!
#834601
1!
#834971
0!
#836081
1!
#837201
0!
#837561
1!
#838675
0!
#839049
1!
#840155
0!
#840527
1!
#841637
0!
#842005
1!
#842383
0!
#853843
1!
#854967
0!
#855341
1!
#856443
0!
#856825
1!
#857185
0!
#858301
1!
#858671
0!
#859491
1!
#865273
0!
#865283
1!
#869981
0!
#870087
1!
#875375
0!
#876067
1!
#876441
0!
#877553
1!
#877925
0!
#879035
1!
#880147
0!
#880519
1!
#881633
0!
#881993
1!
#882363
0!
#883477
1!
#884593
0!
#884957
1!
#886073
0!
#886445
1!
#887557
0!
#887921
1!
#889037
0!
#889401
1!
#889773
0!
#901235
1!
#902355
0!
#902737
1!
#903839
0!
#904219
1!
#904583
0!
#905697
1!
#906067
0!
#907175
1!
#907553
0!
#908661
1!
#909033
0!
#910133
1!
#911245
0!
#911621
1!
#911989
0!
#913099
1!
#914213
0!
#914583
1!
#914957
0!
#916061
1!
#916433
0!
#917547
1!
#918651
0!
#919019
1!
#920133
0!
#920505
1!
#920879
0!
#921989
1!
#922359
0!
#923469
1!
#923837
0!
#924943
1!
#925321
0!
#926433
1!
#927541
0!
#927915
1!
#929025
0!
#929395
1!
#929769
0!
#930871
1!
#931989
0!
#932351
1!
#933467
0!
#933831
1!
#934953
0!
#935313
1!
#936427
0!
#936801
1!
#937171
0!
#948637
1!
#949759
0!
#950133
1!
#951243
0!
#951615
1!
#951977
0!
#953085
1!
#953467
0!
#954569
1!
#954939
0!
#956055
1!
#956427
0!
#957537
1!
#958647
0!
#959017
1!
#959389
0!
#960499
1!
#961611
0!
#961973
1!
#962347
0!
#963457
1!
#963831
0!
#964935
1!
#966053
0!
#966417
1!
#967533
0!
#967897
1!
#968277
0!
#969379
1!
#969759
0!
#970867
1!
#971237
0!
#972339
1!
#972723
0!
#973825
1!
#974937
0!
#975303
1!
#976425
0!
#976787
1!
#977161
0!
#978271
1!
#979385
0!
#979751
1!
#980869
0!
#981233
1!
#982347
0!
#982721
1!
#983825
0!
#984197
1!
#984573
0!
#996031
1!
#997145
0!
#997535
1!
#998637
0!
#999011
1!
#999379
0!
#1000491
1!
#1000859
0!
#1001971
1!
#1002343
0!
#1003451
1!
#1003823
0!
#1004933
1!
#1006047
0!
#1006413
1!
#1006787
0!
#1007895
1!
#1009011
0!
#1009379
1!
#1009753
0!
#1010477
1!
#1016201
0!
#1016223
1!
#1021067
0!
#1021181
1!
#1022599
0!
#1022609
1!
#1024867
0!
#1024879
1!
#1026779
0!
#1027155
1!
#1028265
0!
#1028629
1!
#1029741
0!
#1030117
1!
#1031227
0!
#1031599
1!
#1031969
0!
#1043421
1!
#1044553
0!
#1044933
1!
#1046031
0!
#1046407
1!
#1046775
0!
#1047881
1!
#1048263
0!
#1049369
1!
#1049743
0!
#1050845
1!
#1051219
0!
#1052327
1!
#1053439
0!
#1053813
1!
#1054179
0!
#1055295
1!
#1056405
0!
#1056773
1!
#1057147
0!
#1058249
1!
#1058631
0!
#1059739
1!
#1060851
0!
#1061217
1!
#1062335
0!
#1062697
1!
#1063067
0!
#1064177
1!
#1064557
0!
#1065661
1!
#1066041
0!
#1067145
1!
#1067517
0!
#1068623
1!
#1069743
0!
#1070103
1!
#1071219
0!
#1071591
1!
#1071961
0!
#1073069
1!
#1074183
0!
#1074553
1!
#1075661
0!
#1076033
1!
#1077139
0!
#1077517
1!
#1078629
0!
#1078993
1!
#1079367
0!
#1090823
1!
#1091953
0!
#1092327
1!
#1093435
0!
#1093805
1!
#1094175
0!
#1095287
1!
#1095663
0!
#1096765
1!
#1097135
0!
#1098243
1!
#1098625
0!
#1099725
1!
#1100841
0!
#1101213
1!
#1101587
0!
#1102691
1!
#1103807
0!
#1104179
1!
#1104549
0!
#1105651
1!
#1106029
0!
#1107133
1!
#1108249
0!
#1108617
1!
#1109733
0!
#1110103
1!
#1110467
0!
#1111581
1!
#1111951
0!
#1113063
1!
#1113437
0!
#1114547
1!
#1114917
0!
#1116021
1!
#1117133
0!
#1117505
1!
#1118615
0!
#1118985
1!
#1119359
0!
#1120467
1!
#1121585
0!
#1121945
1!
#1123061
0!
#1123431
1!
#1124541
0!
#1124909
1!
#1126027
0!
#1126399
1!
#1126771
0!
#1138235
1!
#1139345
0!
#1139737
1!
#1140835
0!
#1141207
1!
#1141579
0!
#1142689
1!
#1143057
0!
#1144167
1!
#1144541
0!
#1145651
1!
#1146019
0!
#1147135
1!
#1148247
0!
#1148613
1!
#1148987
0!
#1150097
1!
#1151211
0!
#1151575
1!
#1151947
0!
#1153051
1!
#1153431
0!
#1154531
1!
#1155655
0!
#1156021
1!
#1157131
0!
#1157499
1!
#1157867
0!
#1158981
1!
#1159353
0!
#1160459
1!
#1160831
0!
#1161661
1!
#1162385
0!
#1162407
1!
#1162437
0!
#1162489
1!
#1162511
0!
#1162583
1!
#1162595
0!
#1162647
1!
#1162677
0!
#1162729
1!
#1163177
0!
#1163199
1!
#1166117
0!
#1166127
1!
#1166137
0!
#1166137
1!
#1172143
0!
#1172257
1!
#1172257
0!
#1173673
1!
#1177545
0!
#1185619
1!
#1186741
0!
#1187125
1!
#1188229
0!
#1188601
1!
#1188963
0!
#1190075
1!
#1190449
0!
#1191561
1!
#1191929
0!
#1193045
1!
#1193413
0!
#1194527
1!
#1195639
0!
#1196001
1!
#1196371
0!
#1197485
1!
#1198597
0!
#1198969
1!
#1199339
0!
#1200445
1!
#1200821
0!
#1201923
1!
#1203041
0!
#1203413
1!
#1204519
0!
#1204897
1!
#1205259
0!
#1206373
1!
#1206747
0!
#1207855
1!
#1208229
0!
#1209331
1!
#1209707
0!
#1210811
1!
#1211923
0!
#1212299
1!
#1213405
0!
#1213777
1!
#1214149
0!
#1215263
1!
#1216373
0!
#1216747
1!
#1217861
0!
#1218227
1!
#1219339
0!
#1219709
1!
#1220821
0!
#1221191
1!
#1221561
0!
#1233027
1!
#1234145
0!
#1234527
1!
#1235629
0!
#1236003
1!
#1236369
0!
#1237483
1!
#1237855
0!
#1238957
1!
#1239331
0!
#1240445
1!
#1240823
0!
#1241921
1!
#1243033
0!
#1243403
1!
#1243779
0!
#1244889
1!
#1246005
0!
#1246371
1!
#1246745
0!
#1247847
1!
#1248225
0!
#1249329
1!
#1250445
0!
#1250809
1!
#1251925
0!
#1252297
1!
#1252661
0!
#1253777
1!
#1254149
0!
#1255253
1!
#1255629
0!
#1256731
1!
#1257113
0!
#1258215
1!
#1259331
0!
#1259695
1!
#1260813
0!
#1261187
1!
#1261559
0!
#1262659
1!
#1263773
0!
#1264147
1!
#1265257
0!
#1265627
1!
#1266735
0!
#1267105
1!
#1268221
0!
#1268589
1!
#1268961
0!
#1280359
1!
#1280379
0!
#1280411
1!
#1281545
0!
#1281925
1!
#1283029
0!
#1283407
1!
#1283769
0!
#1284883
1!
#1285257
0!
#1286363
1!
#1286733
0!
#1287849
1!
#1288213
0!
#1289329
1!
#1290439
0!
#1290805
1!
#1291181
0!
#1292287
1!
#1293399
0!
#1293771
1!
#1294147
0!
#1295251
1!
#1295621
0!
#1296735
1!
#1297849
0!
#1298213
1!
#1299327
0!
#1299693
1!
#1300067
0!
#1301181
1!
#1301549
0!
#1302657
1!
#1303035
0!
#1304139
1!
#1304517
0!
#1305625
1!
#1306741
0!
#1307107
1!
#1308211
0!
#1308583
1!
#1308955
0!
#1310065
1!
#1311181
0!
#1311545
1!
#1312661
0!
#1312751
1!
#1317639
0!
#1317733
1!
#1318895
0!
#1318905
1!
#1328949
0!
#1329327
1!
#1330429
0!
#1330805
1!
#1331179
0!
#1332281
1!
#1332663
0!
#1333767
1!
#1334137
0!
#1335247
1!
#1335625
0!
#1336727
1!
#1337845
0!
#1338209
1!
#1338585
0!
#1339691
1!
#1340807
0!
#1341169
1!
#1341551
0!
#1342659
1!
#1343029
0!
#1344139
1!
#1345251
0!
#1345621
1!
#1346733
0!
#1347099
1!
#1347475
0!
#1348585
1!
#1348957
0!
#1350063
1!
#1350433
0!
#1351549
1!
#1351913
0!
#1353023
1!
#1354141
0!
#1354509
1!
#1355623
0!
#1355997
1!
#1356359
0!
#1357471
1!
#1358583
0!
#1358957
1!
#1360065
0!
#1360435
1!
#1361543
0!
#1361921
1!
#1363031
0!
#1363393
1!
#1363769
0!
#1375239
1!
#1376355
0!
#1376737
1!
#1377839
0!
#1378211
1!
#1378581
0!
#1379693
1!
#1380059
0!
#1381175
1!
#1381549
0!
#1382651
1!
#1383033
0!
#1384135
1!
#1385245
0!
#1385619
1!
#1385989
0!
#1387093
1!
#1388213
0!
#1388583
1!
#1388955
0!
#1390059
1!
#1390429
0!
#1391541
1!
#1392653
0!
#1393029
1!
#1394137
0!
#1394511
1!
#1394877
0!
#1395989
1!
#1396359
0!
#1397463
1!
#1397841
0!
#1398949
1!
#1399321
0!
#1400433
1!
#1401547
0!
#1401919
1!
#1403031
0!
#1403397
1!
#1403765
0!
#1404877
1!
#1405989
0!
#1406357
1!
#1407467
0!
#1407839
1!
#1408957
0!
#1409319
1!
#1410437
0!
#1410799
1!
#1411175
0!
#1422631
1!
#1423761
0!
#1424147
1!
#1425243
0!
#1425615
1!
#1425987
0!
#1427103
1!
#1427475
0!
#1428581
1!
#1428955
0!
#1430057
1!
#1430431
0!
#1431545
1!
#1432657
0!
#1433019
1!
#1433393
0!
#1434499
1!
#1435619
0!
#1435991
1!
#1436361
0!
#1437469
1!
#1437843
0!
#1438947
1!
#1440061
0!
#1440435
1!
#1441547
0!
#1441907
1!
#1442287
0!
#1443389
1!
#1443773
0!
#1444875
1!
#1445247
0!
#1446357
1!
#1446731
0!
#1447833
1!
#1448953
0!
#1449325
1!
#1450437
0!
#1450803
1!
#1450803
0!
#1451179
1!
#1452305
0!
#1452669
1!
#1453785
0!
#1454147
1!
#1455263
0!
#1455635
1!
#1456739
0!
#1457117
1!
#1457489
0!
#1462635
1!
#1470079
0!
#1470449
1!
#1471569
0!
#1471909
1!
#1472317
0!
#1472473
1!
#1472483
0!
#1472483
1!
#1472493
0!
#1472565
1!
#1472597
0!
#1472649
1!
#1472753
0!
#1472941
1!
#1472941
0!
#1473211
1!
#1478865
0!
#1479227
1!
#1479605
0!
#1480705
1!
#1481821
0!
#1482193
1!
#1482567
0!
#1483677
1!
#1484053
0!
#1485151
1!
#1486271
0!
#1486633
1!
#1487755
0!
#1488121
1!
#1488497
0!
#1489599
1!
#1489977
0!
#1491083
1!
#1491455
0!
#1492561
1!
#1492939
0!
#1494039
1!
#1495155
0!
#1495531
1!
#1496643
0!
#1497013
1!
#1497381
0!
#1498491
1!
#1499603
0!
#1499977
1!
#1501083
0!
#1501455
1!
#1502571
0!
#1502937
1!
#1504047
0!
#1504419
1!
#1504791
0!
#1516253
1!
#1517377
0!
#1517751
1!
#1518855
0!
#1519237
1!
#1519599
0!
#1520713
1!
#1521085
0!
#1522193
1!
#1522563
0!
#1523677
1!
#1524051
0!
#1525153
1!
#1526269
0!
#1526637
1!
#1527011
0!
#1528117
1!
#1529235
0!
#1529597
1!
#1529977
0!
#1531079
1!
#1531459
0!
#1532563
1!
#1533675
0!
#1534047
1!
#1535155
0!
#1535525
1!
#1535901
0!
#1537013
1!
#1537379
0!
#1538489
1!
#1538859
0!
#1539973
1!
#1540345
0!
#1541453
1!
#1542565
0!
#1542933
1!
#1544053
0!
#1544423
1!
#1544791
0!
#1545893
1!
#1547011
0!
#1547383
1!
#1548493
0!
#1548863
1!
#1549979
0!
#1550343
1!
#1551459
0!
#1551821
1!
#1552195
0!
#1563657
1!
#1564787
0!
#1565167
1!
#1566261
0!
#1566639
1!
#1567011
0!
#1568127
1!
#1568497
0!
#1569601
1!
#1569973
0!
#1571089
1!
#1571453
0!
#1572567
1!
#1573677
0!
#1574041
1!
#1574417
0!
#1575523
1!
#1576645
0!
#1577007
1!
#1577377
0!
#1578491
1!
#1578867
0!
#1579971
1!
#1581089
0!
#1581453
1!
#1582567
0!
#1582931
1!
#1583303
0!
#1584415
1!
#1584791
0!
#1585901
1!
#1586269
0!
#1587375
1!
#1587759
0!
#1588855
1!
#1589973
0!
#1590341
1!
#1591453
0!
#1591823
1!
#1592193
0!
#1593305
1!
#1594421
0!
#1594793
1!
#1595897
0!
#1596271
1!
#1597385
0!
#1597751
1!
#1598869
0!
#1599231
1!
#1599601
0!
#1611065
1!
#1612193
0!
#1612575
1!
#1613679
0!
#1613959
1!
#1614011
0!
#1614033
1!
#1614503
0!
#1614513
1!
#1614597
0!
#1614681
1!
#1614713
0!
#1614817
1!
#1614859
0!
#1614869
1!
#1614963
0!
#1614983
1!
#1615025
0!
#1615077
1!
#1615129
0!
#1615223
1!
#1615253
0!
#1615265
1!
#1615959
0!
#1615979
1!
#1615989
0!
#1615989
1!
#1616029
0!
#1616113
1!
#1616133
0!
#1616185
1!
#1616247
0!
#1616487
1!
#1616685
0!
#1616715
1!
#1616727
0!
#1616767
1!
#1616809
0!
#1616841
1!
#1616851
0!
#1616913
1!
#1617515
0!
#1617547
1!
#1617557
0!
#1617621
1!
#1617715
0!
#1617851
1!
#1617925
0!
#1618007
1!
#1618059
0!
#1618123
1!
#1618185
0!
#1618267
1!
#1618921
0!
#1618963
1!
#1618995
0!
#1619049
1!
#1619133
0!
#1619175
1!
#1619185
0!
#1619185
1!
#1619205
0!
#1619289
1!
#1619351
0!
#1619415
1!
#1619435
0!
#1619457
1!
#1619509
0!
#1619519
1!
#1619581
0!
#1619655
1!
#1619729
0!
#1619833
1!
#1619865
0!
#1619897
1!
#1621121
0!
#1621433
1!
#1621903
0!
#1621945
1!
#1621965
0!
#1621985
1!
#1622089
0!
#1622111
1!
#1622163
0!
#1622321
1!
#1622425
0!
#1622455
1!
#1622529
0!
#1622633
1!
#1622643
0!
#1622643
1!
#1622663
0!
#1622695
1!
#1624159
0!
#1624325
1!
#1624367
0!
#1624377
1!
#1624817
0!
#1624999
1!
#1625113
0!
#1625217
1!
#1625291
0!
#1625393
1!
#1625425
0!
#1625499
1!
#1625561
0!
#1625615
1!
#1625677
0!
#1625719
1!
#1626357
0!
#1626429
1!
#1626461
0!
#1626513
1!
#1626565
0!
#1626751
1!
#1626793
0!
#1626825
1!
#1626857
0!
#1626899
1!
#1626971
0!
#1627035
1!
#1627045
0!
#1627139
1!
#1627255
0!
#1627297
1!
#1628519
0!
#1628561
1!
#1628593
0!
#1628665
1!
#1628747
0!
#1628841
1!
#1629969
0!
#1630349
1!
#1630719
0!
#1631831
1!
#1632201
0!
#1633311
1!
#1633681
0!
#1634791
1!
#1635165
0!
#1636273
1!
#1637381
0!
#1637753
1!
#1638871
0!
#1639237
1!
#1639605
0!
#1640717
1!
#1641833
0!
#1642197
1!
#1643309
0!
#1643679
1!
#1644789
0!
#1645161
1!
#1646273
0!
#1646641
1!
#1647017
0!
#1658477
1!
#1659597
0!
#1659985
1!
#1661085
0!
#1661465
1!
#1661827
0!
#1662943
1!
#1663315
0!
#1664423
1!
#1664793
0!
#1665895
1!
#1666271
0!
#1667379
1!
#1668491
0!
#1668867
1!
#1669241
0!
#1670349
1!
#1671463
0!
#1671831
1!
#1672199
0!
#1673307
1!
#1673687
0!
#1674785
1!
#1675905
0!
#1676273
1!
#1677389
0!
#1677751
1!
#1678123
0!
#1679235
1!
#1679609
0!
#1680715
1!
#1681091
0!
#1682199
1!
#1682567
0!
#1683681
1!
#1684797
0!
#1685157
1!
#1686281
0!
#1686643
1!
#1687015
0!
#1688129
1!
#1689237
0!
#1689611
1!
#1690721
0!
#1691089
1!
#1692205
0!
#1692569
1!
#1693679
0!
#1694053
1!
#1694425
0!
#1705635
1!
#1705645
0!
#1705881
1!
#1707007
0!
#1707397
1!
#1708491
0!
#1708867
1!
#1709231
0!
#1710345
1!
#1710725
0!
#1711831
1!
