level2.vcd
$timescale 1 us $end
$scope module Homey $end
$var wire 1 ! Recording $end
$upscope $end
$enddefinitions $end
#0
1!
#15889
0!
#22131
1!
#22141
0!
#22961
1!
#22993
0!
#23551
1!
#23603
0!
#24631
1!
#24653
0!
#24879
1!
#24943
0!
#24995
1!
#25015
0!
#25489
1!
#25499
0!
#26107
1!
#26179
0!
#26803
1!
#26815
0!
#27423
1!
#27445
0!
#27569
1!
#27569
0!
#27589
1!
#27599
0!
#28623
1!
#28663
0!
#29429
1!
#29461
0!
#30829
1!
#30881
0!
#31597
1!
#31597
0!
#31629
1!
#31661
0!
#32495
1!
#32527
0!
#32917
1!
#32937
0!
#34143
1!
#50008
0!
#56164
1!
#56196
0!
#56240
1!
#56250
0!
#56250
1!
#56260
0!
#56302
1!
#56406
0!
#56502
1!
#56534
0!
#56804
1!
#56814
0!
#61388
1!
#61428
0!
#62654
1!
#62696
0!
#63198
1!
#63220
0!
#63242
1!
#63252
0!
#64126
1!
#64148
0!
#64578
1!
#64598
0!
#64652
1!
#64694
0!
#65484
1!
#65504
0!
#65814
1!
#65824
0!
#66092
1!
#66114
0!
#66598
1!
#66628
0!
#67024
1!
#67034
0!
#69876
1!
#69898
0!
#70964
1!
#70974
0!
#71452
1!
#71472
0!
#72166
1!
#72835
0!
#72885
1!
#73372
0!
#73414
1!
#73828
0!
#73860
1!
#89853
0!
#96713
1!
#96723
0!
#96723
1!
#96733
0!
#97411
1!
#97421
0!
#97837
1!
#97847
0!
#100289
1!
#100311
0!
#100545
1!
#100589
0!
#101125
1!
#101135
0!
#101135
1!
#101167
0!
#102125
1!
#102145
0!
#102913
1!
#102945
0!
#103461
1!
#103495
0!
#104271
1!
#104293
0!
#105031
1!
#105053
0!
#106999
1!
#122988
0!
#129720
1!
#129730
0!
#129730
1!
#129752
0!
#130306
1!
#130326
0!
#131014
1!
#131068
0!
#131414
1!
#131446
0!
#131754
1!
#131764
0!
#132048
1!
#132100
0!
#132910
1!
#132930
0!
#134274
1!
#134296
0!
#136166
1!
#136198
0!
#136590
1!
#136622
0!
#136822
1!
#136854
0!
#137360
1!
#137380
0!
#138218
1!
#138240
0!
#139044
1!
#139044
0!
#139086
1!
#139096
0!
#141552
1!
#141574
0!
#141760
1!
#157673
0!
#165301
1!
#165323
0!
#166647
1!
#166679
0!
#169483
1!
#169493
0!
#169567
1!
#169567
0!
#170571
1!
#170581
0!
#173411
1!
#173421
0!
#173421
1!
#173443
0!
#173681
1!
#173691
0!
#174287
1!
#190263
0!
#199193
1!
#199235
0!
#199805
1!
#199815
0!
#200095
1!
#200127
0!
#200375
1!
#200375
0!
#200775
1!
#200787
0!
#201605
1!
#201625
0!
#201767
1!
#201789
0!
#202501
1!
#202543
0!
#203467
1!
#203499
0!
#204305
1!
#204315
0!
#205033
1!
#205043
0!
#205043
1!
#205053
0!
#205129
1!
#205149
0!
#205891
1!
#205923
0!
#208621
1!
#224598
0!
#232716
1!
#232716
0!
#232778
1!
#232820
0!
#234984
1!
#235006
0!
#235912
1!
#235942
0!
#236006
1!
#236026
0!
#236216
1!
#236248
0!
#236334
1!
#236344
0!
#236514
1!
#236546
0!
#236630
1!
#236652
0!
#236768
1!
#237859
0!
#238253
1!
#239337
0!
#239723
1!
#240077
0!
#241195
1!
#241565
0!
#242675
1!
#243043
0!
#244155
1!
#244529
0!
#245631
1!
#246753
0!
#247115
1!
#247487
0!
#248599
1!
#249717
0!
#250081
1!
#250455
0!
#251561
1!
#251935
0!
#253045
1!
#254159
0!
#254523
1!
#255635
0!
#256005
1!
#256369
0!
#257485
1!
#257857
0!
#258957
1!
#259335
0!
#260441
1!
#260813
0!
#261923
1!
#263037
0!
#263405
1!
#264523
0!
#264887
1!
#265257
0!
#266369
1!
#266741
0!
#267851
1!
#268221
0!
#269325
1!
#270445
0!
#270809
1!
#271181
0!
#272291
1!
#272661
0!
#283077
1!
#283087
0!
#283491
1!
#283511
0!
#283553
1!
#283575
0!
#283851
1!
#283895
0!
#284063
1!
#284073
0!
#284115
1!
#285196
0!
#285582
1!
#286676
0!
#287060
1!
#287418
0!
#288530
1!
#288904
0!
#290018
1!
#290386
0!
#291494
1!
#291864
0!
#292976
1!
#294086
0!
#294458
1!
#294828
0!
#295932
1!
#297048
0!
#297412
1!
#297794
0!
#298900
1!
#299264
0!
#300372
1!
#301488
0!
#301854
1!
#302976
0!
#303338
1!
#303716
0!
#304814
1!
#305192
0!
#306296
1!
#306680
0!
#307784
1!
#308158
0!
#309264
1!
#310376
0!
#310740
1!
#311850
0!
#312218
1!
#312598
0!
#313704
1!
#314074
0!
#315186
1!
#315554
0!
#316666
1!
#317776
0!
#318140
1!
#318516
0!
#319624
1!
#320004
0!
#330822
1!
#330842
0!
#331070
1!
#331080
0!
#331454
1!
#332551
0!
#332911
1!
#334045
0!
#334087
1!
#334117
0!
#334157
1!
#334167
0!
#334209
1!
#334261
0!
#334355
1!
#335197
0!
#335219
1!
#336627
0!
#336711
1!
#336877
0!
#336887
1!
#342235
0!
#342309
1!
#347635
0!
#347709
1!
#348829
0!
#349193
1!
#350307
0!
#350669
1!
#351041
0!
#352153
1!
#352523
0!
#353637
1!
#354003
0!
#355109
1!
#355491
0!
#356593
1!
#357705
0!
#358079
1!
#359189
0!
#359559
1!
#359929
0!
#361039
1!
#361407
0!
#362521
1!
#362891
0!
#363997
1!
#365109
0!
#365477
1!
#365855
0!
#366961
1!
#367333
0!
#378423
1!
#378455
0!
#378729
1!
#378761
0!
#378771
1!
#379911
0!
#380293
1!
#381391
0!
#381771
1!
#382133
0!
#383249
1!
#383625
0!
#384723
1!
#385105
0!
#386211
1!
#386585
0!
#387691
1!
#388799
0!
#389171
1!
#389543
0!
#390647
1!
#391765
0!
#392129
1!
#392503
0!
#393615
1!
#393989
0!
#395091
1!
#396207
0!
#396571
1!
#397685
0!
#398059
1!
#398429
0!
#399531
1!
#399911
0!
#401019
1!
#401389
0!
#402495
1!
#402871
0!
#403975
1!
#405091
0!
#405459
1!
#406571
0!
#406943
1!
#407307
0!
#408423
1!
#408795
0!
#409899
1!
#410279
0!
#411379
1!
#412495
0!
#412859
1!
#413233
0!
#414345
1!
#414711
0!
#424331
1!
#424363
0!
#425027
1!
#425049
0!
#425261
1!
#425369
0!
#425431
1!
#425733
0!
#425763
1!
#425845
0!
#425877
1!
#426155
0!
#426165
1!
#427268
0!
#427646
1!
#428746
0!
#429132
1!
#429492
0!
#430598
1!
#430968
0!
#432088
1!
#432454
0!
#433560
1!
#433934
0!
#435046
1!
#436160
0!
#436522
1!
#436898
0!
#438008
1!
#439120
0!
#439488
1!
#439862
0!
#440966
1!
#441334
0!
#442444
1!
#443556
0!
#443928
1!
#445042
0!
#445404
1!
#445784
0!
#446884
1!
#447266
0!
#448370
1!
#448740
0!
#449850
1!
#450222
0!
#451336
1!
#452440
0!
#452814
1!
#453928
0!
#454292
1!
#454672
0!
#455770
1!
#456144
0!
#457258
1!
#457632
0!
#458734
1!
#459852
0!
#460218
1!
#460592
0!
#461692
1!
#462072
0!
#471120
1!
#471140
0!
#471202
1!
#471254
0!
#471316
1!
#471356
0!
#471470
1!
#471692
0!
#471860
1!
#471890
0!
#471994
1!
#472014
0!
#472064
1!
#472094
0!
#472322
1!
#472342
0!
#472616
1!
#472636
0!
#472804
1!
#472804
0!
#472846
1!
#472910
0!
#472972
1!
#474367
0!
#474761
1!
#475855
0!
#476229
1!
#476599
0!
#477711
1!
#478083
0!
#479189
1!
#479561
0!
#480665
1!
#481049
0!
#482153
1!
#487405
0!
#487489
1!
#493029
0!
#493071
1!
#498419
0!
#498439
1!
#499551
0!
#499923
1!
#501037
0!
#501397
1!
#501777
0!
#502879
1!
#503259
0!
#504363
1!
#504733
0!
#505847
1!
#506961
0!
#507325
1!
#507695
0!
#508809
1!
#509177
0!
#517157
1!
#517179
0!
#517705
1!
#517715
0!
#517971
1!
#517981
0!
#517981
1!
#518055
0!
#518213
1!
#518287
0!
#518707
1!
#518875
0!
#518959
1!
#519001
0!
#519283
1!
#519431
0!
#519473
1!
#519569
0!
#519623
1!
#519855
0!
#519885
1!
#519939
0!
#519973
1!
#520229
0!
#520357
1!
#521616
0!
#521998
1!
#523100
0!
#523468
1!
#523846
0!
#524952
1!
#525322
0!
#526438
1!
#526800
0!
#527912
1!
#528288
0!
#529394
1!
#530512
0!
#530876
1!
#531244
0!
#532352
1!
#533468
0!
#533832
1!
#534206
0!
#535318
1!
#535686
0!
#536800
1!
#537914
0!
#538276
1!
#539390
0!
#539754
1!
#540130
0!
#541234
1!
#541618
0!
#542720
1!
#543096
0!
#544200
1!
#544572
0!
#545674
1!
#546790
0!
#547160
1!
#548280
0!
#548642
1!
#549012
0!
#550128
1!
#550502
0!
#551606
1!
#551980
0!
#553088
1!
#554200
0!
#554564
1!
#554938
0!
#556044
1!
#556416
0!
#567162
1!
#567224
0!
#567872
1!
#568953
0!
#569341
1!
#570447
0!
#570821
1!
#571181
0!
#572297
1!
#572669
0!
#573781
1!
#574151
0!
#575253
1!
#575635
0!
#576741
1!
#577855
0!
#578221
1!
#578591
0!
#579695
1!
#580809
0!
#581179
1!
#581551
0!
#582663
1!
#583029
0!
#584147
1!
#585251
0!
#585627
1!
#586741
0!
#587105
1!
#587481
0!
#588589
1!
#588959
0!
#590061
1!
#590437
0!
#591549
1!
#591921
0!
#593031
1!
#594145
0!
#594507
1!
#595627
0!
#595985
1!
#596357
0!
#597471
1!
#597839
0!
#598953
1!
#599323
0!
#600431
1!
#601547
0!
#601917
1!
#602281
0!
#603389
1!
#603761
0!
#614259
1!
#614269
0!
#614269
1!
#614301
0!
#615039
1!
#615081
0!
#615123
1!
#615163
0!
#615215
1!
#616310
0!
#616690
1!
#617794
0!
#618166
1!
#618528
0!
#619642
1!
#620012
0!
#621124
1!
#621496
0!
#622600
1!
#622980
0!
#624084
1!
#625200
0!
#625560
1!
#625940
0!
#627044
1!
#628158
0!
#628526
1!
#628902
0!
#630006
1!
#630376
0!
#631488
1!
#632604
0!
#632966
1!
#638292
0!
#638344
1!
#643888
0!
#643940
1!
#649630
0!
#650736
1!
#651108
0!
#662558
1!
#663631
0!
#664027
1!
#665123
0!
#665495
1!
#665865
0!
#666971
1!
#667343
0!
#668455
1!
#668823
0!
#669933
1!
#670307
0!
#671411
1!
#672525
0!
#672899
1!
#673271
0!
#674381
1!
#675487
0!
#675863
1!
#676235
0!
#677339
1!
#677715
0!
#678819
1!
#679933
0!
#680307
1!
#681409
0!
#681779
1!
#682155
0!
#683267
1!
#683631
0!
#684741
1!
#685117
0!
#686229
1!
#686601
0!
#687703
1!
#688817
0!
#689191
1!
#690297
0!
#690667
1!
#691047
0!
#692147
1!
#692525
0!
#693623
1!
#694009
0!
#695111
1!
#696227
0!
#696589
1!
#696963
0!
#698073
1!
#698445
0!
#709899
1!
#710994
0!
#711376
1!
#712484
0!
#712850
1!
#713224
0!
#714328
1!
#714708
0!
#715820
1!
#716190
0!
#717294
1!
#717662
0!
#718774
1!
#719890
0!
#720254
1!
#720624
0!
#721738
1!
#722846
0!
#723220
1!
#723586
0!
#724696
1!
#725068
0!
#726178
1!
#727288
0!
#727658
1!
#728770
0!
#729138
1!
#729510
0!
#730620
1!
#730992
0!
#732100
1!
#732480
0!
#733580
1!
#733960
0!
#735066
1!
#736178
0!
#736550
1!
#737658
0!
#738028
1!
#738402
0!
#739502
1!
#739878
0!
#740990
1!
#741362
0!
#742464
1!
#743582
0!
#743954
1!
#744320
0!
#745432
1!
#745800
0!
#756114
1!
#756134
0!
#756872
1!
#756882
0!
#757256
1!
#758341
0!
#758731
1!
#759825
0!
#760197
1!
#760567
0!
#761681
1!
#762049
0!
#763161
1!
#763531
0!
#764641
1!
#765019
0!
#766121
1!
#767231
0!
#767607
1!
#767977
0!
#769077
1!
#770203
0!
#770565
1!
#770935
0!
#772047
1!
#772415
0!
#773529
1!
#774639
0!
#775005
1!
#776123
0!
#776485
1!
#776863
0!
#777963
1!
#778347
0!
#779453
1!
#779823
0!
#780935
1!
#781305
0!
#782411
1!
#783529
0!
#783893
1!
#789291
0!
#789291
1!
#789291
0!
#800257
1!
#801381
0!
#801753
1!
#802863
0!
#803231
1!
#803607
0!
#804719
1!
#805083
0!
#806199
1!
#806571
0!
#807675
1!
#808049
0!
#809159
1!
#810267
0!
#810641
1!
#811013
0!
#812117
1!
#813235
0!
#813595
1!
#813979
0!
#815081
1!
#815455
0!
#816563
1!
#817679
0!
#818041
1!
#819157
0!
#819523
1!
#819897
0!
#821001
1!
#821381
0!
#822487
1!
#822861
0!
#823971
1!
#824341
0!
#825443
1!
#826557
0!
#826929
1!
#828037
0!
#828411
1!
#828787
0!
#829885
1!
#830267
0!
#831373
1!
#831745
0!
#832853
1!
#833963
0!
#834335
1!
#834707
0!
#835813
1!
#836185
0!
#846769
1!
#846791
0!
#847639
1!
#848725
0!
#849115
1!
#850217
0!
#850585
1!
#850957
0!
#852071
1!
#852439
0!
#853545
1!
#853915
0!
#855027
1!
#855405
0!
#856505
1!
#857621
0!
#857987
1!
#858369
0!
#859473
1!
#860585
0!
#860947
1!
#861321
0!
#862437
1!
#862803
0!
#863909
1!
#865029
0!
#865391
1!
#866507
0!
#866879
1!
#867249
0!
#868359
1!
#868727
0!
#869835
1!
#870211
0!
#871317
1!
#871689
0!
#872801
1!
#873917
0!
#874279
1!
#875393
0!
#875767
1!
#876135
0!
#877249
1!
#877619
0!
#878721
1!
#879097
0!
#880205
1!
#881315
0!
#881683
1!
#882059
0!
#883163
1!
#883537
0!
#892433
1!
#892455
0!
#894321
1!
#894343
0!
#894995
1!
#896084
0!
#896482
1!
#897576
0!
#897948
1!
#898318
0!
#899428
1!
#899808
0!
#900914
1!
#901274
0!
#902384
1!
#902768
0!
#903872
1!
#904984
0!
#905356
1!
#905728
0!
#906838
1!
#907946
0!
#908320
1!
#908692
0!
#909800
1!
#910170
0!
#911276
1!
#912394
0!
#912756
1!
#913866
0!
#914242
1!
#914612
0!
#915724
1!
#916094
0!
#917194
1!
#917574
0!
#918680
1!
#919062
0!
#920166
1!
#921274
0!
#921638
1!
#922756
0!
#923120
1!
#923498
0!
#924604
1!
#924978
0!
#926088
1!
#926460
0!
#927570
1!
#928680
0!
#929054
1!
#929426
0!
#930528
1!
#930910
0!
#930962
1!
#947192
0!
#948304
1!
#948672
0!
#949778
1!
#950162
0!
#951260
1!
#952376
0!
#952748
1!
#953118
0!
#954222
1!
#955338
0!
#955712
1!
#956078
0!
#957184
1!
#957556
0!
#958666
1!
#959784
0!
#960148
1!
#961266
0!
#961636
1!
#962008
0!
#963112
1!
#963482
0!
#964594
1!
#964964
0!
#966072
1!
#966444
0!
#967556
1!
#968666
0!
#969038
1!
#970150
0!
#970514
1!
#970892
0!
#971998
1!
#972370
0!
#973478
1!
#973854
0!
#974966
1!
#976074
0!
#976448
1!
#976810
0!
#977920
1!
#978300
0!
#989758
1!
#990857
0!
#991243
1!
#992335
0!
#992717
1!
#993079
0!
#994185
1!
#994567
0!
#995671
1!
#996045
0!
#997153
1!
#997525
0!
#998641
1!
#999747
0!
#1000121
1!
#1000491
0!
#1001601
1!
#1002709
0!
#1003079
1!
#1003449
0!
#1004561
1!
#1004939
0!
#1006037
1!
#1007159
0!
#1007523
1!
#1008635
0!
#1009007
1!
#1009379
0!
#1010485
1!
#1010855
0!
#1011969
1!
#1012345
0!
#1013445
1!
#1013825
0!
#1014929
1!
#1016039
0!
#1016409
1!
#1017527
0!
#1017893
1!
#1018259
0!
#1019373
1!
#1019745
0!
#1020855
1!
#1021223
0!
#1022335
1!
#1023449
0!
#1023815
1!
#1024185
0!
#1025293
1!
#1025667
0!
#1036441
1!
#1036461
0!
#1036979
1!
#1037001
0!
#1037119
1!
#1037308
0!
#1037338
1!
#1038196
0!
#1038598
1!
#1038700
0!
#1038732
1!
#1039684
0!
#1040074
1!
#1040424
0!
#1041552
1!
#1041912
0!
#1043028
1!
#1043392
0!
#1044510
1!
#1044882
0!
#1045990
1!
#1047108
0!
#1047464
1!
#1047848
0!
#1048950
1!
#1050064
0!
#1050434
1!
#1050804
0!
#1051908
1!
#1052284
0!
#1053386
1!
#1054512
0!
#1054878
1!
#1055986
0!
#1056358
1!
#1056726
0!
#1057836
1!
#1058208
0!
#1059320
1!
#1059688
0!
#1060796
1!
#1061180
0!
#1062280
1!
#1063396
0!
#1063758
1!
#1064874
0!
#1065248
1!
#1065616
0!
#1066720
1!
#1067094
0!
#1068206
1!
#1068580
0!
#1069682
1!
#1070798
0!
#1071170
1!
#1071540
0!
#1072652
1!
#1073018
0!
#1082000
1!
#1092526
0!
#1092600
1!
#1098200
0!
#1099306
1!
#1099684
0!
#1100786
1!
#1101900
0!
#1102272
1!
#1103382
0!
#1103752
1!
#1104120
0!
#1105232
1!
#1105606
0!
#1106710
1!
#1107086
0!
#1108194
1!
#1108570
0!
#1109680
1!
#1110788
0!
#1111154
1!
#1112276
0!
#1112640
1!
#1113012
0!
#1114122
1!
#1114494
0!
#1115604
1!
#1115972
0!
#1117080
1!
#1118196
0!
#1118564
1!
#1118942
0!
#1120042
1!
#1120416
0!
#1131636
1!
#1131656
0!
#1131874
1!
#1132967
0!
#1133345
1!
#1134451
0!
#1134823
1!
#1135191
0!
#1136301
1!
#1136675
0!
#1137781
1!
#1138155
0!
#1139265
1!
#1139637
0!
#1140741
1!
#1141857
0!
#1142219
1!
#1142599
0!
#1143703
1!
#1144823
0!
#1145183
1!
#1145563
0!
#1146669
1!
#1147039
0!
#1148153
1!
#1149265
0!
#1149627
1!
#1150747
0!
#1151107
1!
#1151487
0!
#1152599
1!
#1152963
0!
#1154071
1!
#1154443
0!
#1155557
1!
#1155931
0!
#1157035
1!
#1158151
0!
#1158513
1!
#1159631
0!
#1160003
1!
#1160377
0!
#1161481
1!
#1161855
0!
#1162963
1!
#1163333
0!
#1164437
1!
#1165557
0!
#1165921
1!
#1166301
0!
#1167407
1!
#1167783
0!
#1177939
1!
#1177981
0!
#1178469
1!
#1178491
0!
#1179243
1!
#1180302
0!
#1180690
1!
#1181784
0!
#1182164
1!
#1182536
0!
#1183640
1!
#1184012
0!
#1185126
1!
#1185498
0!
#1186606
1!
#1186982
0!
#1188084
1!
#1189206
0!
#1189572
1!
#1189944
0!
#1191046
1!
#1192168
0!
#1192532
1!
#1192900
0!
#1194014
1!
#1194386
0!
#1195490
1!
#1196604
0!
#1196978
1!
#1198088
0!
#1198456
1!
#1198824
0!
#1199938
1!
#1200312
0!
#1201416
1!
#1201786
0!
#1202902
1!
#1203270
0!
#1204382
1!
#1205498
0!
#1205862
1!
#1206974
0!
#1207338
1!
#1207716
0!
#1208820
1!
#1209194
0!
#1210304
1!
#1210684
0!
#1211790
1!
#1212902
0!
#1213272
1!
#1213640
0!
#1214750
1!
#1215122
0!
#1225798
1!
#1225838
0!
#1226486
1!
#1226508
0!
#1226580
1!
#1227667
0!
#1228057
1!
#1229151
0!
#1229533
1!
#1229893
0!
#1231003
1!
#1231377
0!
#1232495
1!
#1232857
0!
#1232979
1!
#1249151
0!
#1250265
1!
#1250635
0!
#1251741
1!
#1252857
0!
#1253231
1!
#1254345
0!
#1254705
1!
#1255075
0!
#1256185
1!
#1256565
0!
#1257667
1!
#1258043
0!
#1259147
1!
#1260263
0!
#1260631
1!
#1261013
0!
#1262109
1!
#1262485
0!
#1272685
1!
#1272727
0!
#1273511
1!
#1273521
0!
#1273945
1!
#1275048
0!
#1275428
1!
#1276530
0!
#1276906
1!
#1277276
0!
#1278388
1!
#1278746
0!
#1279864
1!
#1280232
0!
#1281346
1!
#1281722
0!
#1282826
1!
#1283936
0!
#1284300
1!
#1284682
0!
#1285786
1!
#1286906
0!
#1287266
1!
#1287640
0!
#1288752
1!
#1289126
0!
#1290226
1!
#1291350
0!
#1291716
1!
#1292832
0!
#1293196
1!
#1293574
0!
#1294672
1!
#1295044
0!
#1296160
1!
#1296534
0!
#1297640
1!
#1298012
0!
#1299118
1!
#1300238
0!
#1300606
1!
#1301714
0!
#1302088
1!
#1302460
0!
#1303562
1!
#1303942
0!
#1305048
1!
#1305418
0!
#1306520
1!
#1307636
0!
#1308008
1!
#1308380
0!
#1309488
1!
#1309860
0!
#1321184
1!
#1321216
0!
#1321310
1!
#1322381
0!
#1322759
1!
#1323865
0!
#1324237
1!
#1324611
0!
#1325723
1!
#1326083
0!
#1327197
1!
#1327571
0!
#1328679
1!
#1329053
0!
#1330165
1!
#1331279
0!
#1331645
1!
#1332017
0!
#1333121
1!
#1334243
0!
#1334609
1!
#1334977
0!
#1336087
1!
#1336459
0!
#1337563
1!
#1338677
0!
#1339051
1!
#1340167
0!
#1340527
1!
#1340905
0!
#1342011
1!
#1342385
0!
#1343489
1!
#1343871
0!
#1344981
1!
#1345351
0!
#1346455
1!
#1347569
0!
#1347937
1!
#1349055
0!
#1349425
1!
#1349795
0!
#1350895
1!
#1351273
0!
#1352385
1!
#1352761
0!
#1353859
1!
#1354973
0!
#1355343
1!
#1355713
0!
#1356827
1!
#1357201
0!
#1366919
1!
#1366939
0!
#1367429
1!
#1367461
0!
#1367781
1!
#1367823
0!
#1368457
1!
#1368479
0!
#1368657
1!
#1369732
0!
#1370122
1!
#1371226
0!
#1371592
1!
#1371962
0!
#1373076
1!
#1373450
0!
#1374554
1!
#1374928
0!
#1376036
1!
#1376408
0!
#1377520
1!
#1378634
0!
#1379002
1!
#1379370
0!
#1380486
1!
#1381598
0!
#1381960
1!
#1382334
0!
#1383444
1!
#1383828
0!
#1383838
1!
#1400108
0!
#1401220
1!
#1402334
0!
#1402702
1!
#1403074
0!
#1404190
1!
#1404554
0!
#1414658
1!
#1414680
0!
#1415094
1!
#1415116
0!
#1415156
1!
#1415198
0!
#1416014
1!
#1417077
0!
#1417461
1!
#1418563
0!
#1418935
1!
#1419299
0!
#1420419
1!
#1420789
0!
#1421891
1!
#1422267
0!
#1423373
1!
#1423755
0!
#1424855
1!
#1425975
0!
#1426339
1!
#1426709
0!
#1427821
1!
#1428931
0!
#1429307
1!
#1429679
0!
#1430779
1!
#1431159
0!
#1432263
1!
#1433383
0!
#1433741
1!
#1434861
0!
#1435233
1!
#1435607
0!
#1436715
1!
#1437085
0!
#1438195
1!
#1438561
0!
#1439673
1!
#1440043
0!
#1441157
1!
#1442273
0!
#1442635
1!
#1443747
0!
#1444113
1!
#1444493
0!
#1445595
1!
#1445973
0!
#1447075
1!
#1447449
0!
#1448563
1!
#1449679
0!
#1450041
1!
#1450419
0!
#1451521
1!
#1451901
0!
#1461637
1!
#1461647
0!
#1461647
1!
#1461667
0!
#1461975
1!
#1461997
0!
#1462569
1!
#1462579
0!
#1463065
1!
#1463085
0!
#1463349
1!
#1464422
0!
#1464810
1!
#1465914
0!
#1466284
1!
#1466658
0!
#1467770
1!
#1468142
0!
#1469248
1!
#1469624
0!
#1470728
1!
#1471100
0!
#1472210
1!
#1473326
0!
#1473696
1!
#1474062
0!
#1475170
1!
#1476288
0!
#1476652
1!
#1477034
0!
#1478136
1!
#1478516
0!
#1479622
1!
#1480736
0!
#1481102
1!
#1482212
0!
#1482582
1!
#1482954
0!
#1484062
1!
#1484436
0!
#1485542
1!
#1485918
0!
#1487024
1!
#1487396
0!
#1488512
1!
#1489624
0!
#1489988
1!
#1491104
0!
#1491474
1!
#1491848
0!
#1492952
1!
#1493328
0!
#1494432
1!
#1494806
0!
#1495912
1!
#1497034
0!
#1497398
1!
#1497768
0!
#1498876
1!
#1499252
0!
#1508108
1!
#1508108
0!
#1508128
1!
#1508138
0!
#1508264
1!
#1508314
0!
#1508722
1!
#1508762
0!
#1508866
1!
#1508998
0!
#1509112
1!
#1509144
0!
#1509290
1!
#1509330
0!
#1509372
1!
#1509412
0!
#1509486
1!
#1509682
0!
#1509714
1!
#1509938
0!
#1509990
1!
#1510000
0!
#1510000
1!
#1510270
0!
#1510322
1!
#1510386
0!
#1510458
1!
#1511653
0!
#1512037
1!
#1513133
0!
#1513513
1!
#1513881
0!
#1514987
1!
#1515357
0!
#1516469
1!
#1516841
0!
#1517953
1!
#1518325
0!
#1519429
1!
#1520549
0!
#1520911
1!
#1521285
0!
#1522399
1!
#1523515
0!
#1523879
1!
#1524251
0!
#1525361
1!
#1525737
0!
#1526835
1!
#1527959
0!
#1528325
1!
#1529437
0!
#1529807
1!
#1530179
0!
#1531283
1!
#1531659
0!
#1532767
1!
#1533139
0!
#1534247
1!
#1534625
0!
#1534667
1!
#1550631
0!
#1556729
1!
#1556739
0!
#1556741
1!
#1556741
0!
#1556867
1!
#1556911
0!
#1557039
1!
#1557059
0!
#1557081
1!
#1557121
0!
#1557247
1!
#1557289
0!
#1557427
1!
#1557437
0!
#1557437
1!
#1557459
0!
#1557501
1!
#1557531
0!
#1557617
1!
#1557647
0!
#1557701
1!
#1557755
0!
#1557827
1!
#1558879
0!
#1559269
1!
#1560373
0!
#1560745
1!
#1561107
0!
#1562231
1!
#1562599
0!
#1563701
1!
#1564081
0!
#1565185
1!
#1565555
0!
#1566667
1!
#1567777
0!
#1568149
1!
#1568521
0!
#1569631
1!
#1570741
0!
#1571109
1!
#1571487
0!
#1572591
1!
#1572961
0!
#1574077
1!
#1575187
0!
#1575557
1!
#1576669
0!
#1577037
1!
#1577411
0!
#1578517
1!
#1578897
0!
#1579995
1!
#1580381
0!
#1581479
1!
#1581851
0!
#1582961
1!
#1584085
0!
#1584445
1!
#1585563
0!
#1585927
1!
#1586303
0!
#1587409
1!
#1587791
0!
#1588889
1!
#1589261
0!
#1590371
1!
#1591491
0!
#1591851
1!
#1592235
0!
#1593335
1!
#1593715
0!
#1603579
1!
#1603621
0!
#1605157
1!
#1606246
0!
#1606626
1!
#1607730
0!
#1608102
1!
#1608476
0!
#1609582
1!
#1609952
0!
#1611058
1!
#1611436
0!
#1612542
1!
#1612918
0!
#1614020
1!
#1615140
0!
#1615508
1!
#1615876
0!
#1616984
1!
#1618104
0!
#1618466
1!
#1618840
0!
#1619952
1!
#1620324
0!
#1621430
1!
#1622544
0!
#1622916
1!
#1624034
0!
#1624396
1!
#1624776
0!
#1625876
1!
#1626258
0!
#1627356
1!
#1627730
0!
#1628842
1!
#1629212
0!
#1630328
1!
#1631434
0!
#1631802
1!
#1632924
0!
#1633288
1!
#1633662
0!
#1634766
1!
#1635136
0!
#1636248
1!
#1636628
0!
#1637736
1!
#1638850
0!
#1639208
1!
#1639586
0!
#1640694
1!
#1641076
0!
#1652186
1!
#1652238
0!
#1652496
1!
#1652506
0!
#1652506
1!
#1653595
0!
#1653977
1!
#1655079
0!
#1655453
1!
#1655819
0!
#1656939
1!
#1657299
0!
#1658411
1!
#1658785
0!
#1659891
1!
#1660275
0!
#1661373
1!
#1662491
0!
#1662855
1!
#1663237
0!
#1664345
1!
#1665451
0!
#1665823
1!
#1666195
0!
#1667299
1!
#1667675
0!
#1668787
1!
#1669899
0!
#1670267
1!
#1671377
0!
#1671749
1!
#1672121
0!
#1673227
1!
#1673599
0!
#1674705
1!
#1675079
0!
#1676193
1!
#1676565
0!
#1677673
1!
#1678787
0!
#1679159
1!
#1680275
0!
#1680637
1!
#1681009
0!
#1682115
1!
#1682497
0!
#1683597
1!
#1683979
0!
#1685081
1!
#1702483
0!
#1702867
1!
#1703237
0!
#1704341
1!
#1704713
0!
#1705823
1!
#1706201
0!
#1707305
1!
#1707681
0!
#1708791
1!
#1709901
0!
#1710271
1!
#1710643
0!
#1711749
1!
#1712863
0!
#1713237
1!
#1713603
0!
#1714709
1!
#1715087
0!
#1716197
1!
#1717315
0!
#1717675
1!
#1718797
0!
#1719159
1!
#1719531
0!
#1720641
1!
#1721013
0!
#1722123
1!
#1722499
0!
#1723609
1!
#1723981
0!
#1725083
1!
#1726203
0!
#1726565
1!
#1727681
0!
#1728055
1!
#1728423
0!
#1729535
1!
#1729905
0!
#1731017
1!
#1731383
0!
#1732491
1!
#1733603
0!
#1733979
1!
#1734353
0!
#1735459
1!
#1735827
0!
#1743327
1!
#1743349
0!
#1745301
1!
#1745323
0!
#1745553
1!
#1745575
0!
#1745585
1!
#1745629
0!
#1746169
1!
#1746179
0!
#1746295
1!
#1746339
0!
#1747293
1!
#1748382
0!
#1748774
1!
#1749866
0!
#1750244
1!
#1750604
0!
#1751722
1!
#1752090
0!
#1753210
1!
#1753570
0!
#1754686
1!
#1755058
0!
#1756170
1!
#1757280
0!
#1757652
1!
#1758026
0!
#1759132
1!
#1760244
0!
#1760608
1!
#1760984
0!
#1762096
1!
#1762468
0!
#1763574
1!
#1764690
0!
#1765060
1!
#1766170
0!
#1766538
1!
#1766916
0!
#1768018
1!
#1768392
0!
#1769496
1!
#1769880
0!
#1770980
1!
#1771352
0!
#1772468
1!
#1773582
0!
#1773950
1!
#1775062
0!
#1775426
1!
#1775806
0!
#1776910
1!
#1777286
0!
#1778390
1!
#1778770
0!
#1779876
1!
#1780988
0!
#1781356
1!
#1781734
0!
#1782836
1!
#1783208
0!
#1793202
1!
#1793242
0!
#1793334
1!
#1793366
0!
#1793498
1!
#1793540
0!
#1793560
1!
#1793592
0!
#1793736
1!
#1793746
0!
#1794646
1!
#1795699
0!
#1796073
1!
#1797177
0!
#1797545
1!
#1797919
0!
#1799033
1!
#1799405
0!
#1800515
1!
#1800887
0!
#1801997
1!
#1802363
0!
#1803471
1!
#1804595
0!
#1804959
1!
#1805335
0!
#1806435
1!
#1807549
0!
#1807925
1!
#1808295
0!
#1809405
1!
#1809777
0!
#1810885
1!
#1812001
0!
#1812369
1!
#1813479
0!
#1813853
1!
#1814221
0!
#1815335
1!
#1815709
0!
#1816807
1!
#1817183
0!
#1818291
1!
#1818673
0!
#1819779
1!
#1820887
0!
#1821261
1!
#1822369
0!
#1822741
1!
#1823115
0!
