level4.vcd
$timescale 1 us $end
$scope module Homey $end
$var wire 1 ! Recording $end
$upscope $end
$enddefinitions $end
#0
1!
#15904
0!
#22100
1!
#22132
0!
#23130
1!
#23152
0!
#23446
1!
#23488
0!
#24076
1!
#24088
0!
#24462
1!
#24472
0!
#25570
1!
#25602
0!
#26420
1!
#26452
0!
#26506
1!
#26550
0!
#27722
1!
#27732
0!
#27816
1!
#27826
0!
#28986
1!
#28998
0!
#29410
1!
#29440
0!
#29606
1!
#29616
0!
#31386
1!
#47293
0!
#53881
1!
#53891
0!
#54125
1!
#54157
0!
#54859
1!
#54901
0!
#55005
1!
#55025
0!
#58021
1!
#58053
0!
#58249
1!
#74284
0!
#80584
1!
#80730
0!
#80792
1!
#80862
0!
#80862
1!
#80862
0!
#81616
1!
#81626
0!
#81754
1!
#81764
0!
#82416
1!
#82436
0!
#82940
1!
#82950
0!
#83024
1!
#83056
0!
#84352
1!
#84374
0!
#84594
1!
#84616
0!
#85346
1!
#85368
0!
#85754
1!
#85764
0!
#85764
1!
#85776
0!
#87882
1!
#87902
0!
#88150
1!
#88172
0!
#88358
1!
#88368
0!
#89592
1!
#89644
0!
#89924
1!
#89934
0!
#91006
1!
#91026
0!
#91574
1!
#91584
0!
#91766
1!
#91788
0!
#92240
1!
#92260
0!
#92346
1!
#92378
0!
#92534
1!
#92556
0!
#92608
1!
#92652
0!
#93818
1!
#93840
0!
#95212
1!
#95222
0!
#95284
1!
#95328
0!
#95380
1!
#95402
0!
#95538
1!
#95580
0!
#95580
1!
#95612
0!
#96200
1!
#96210
0!
#96476
1!
#96528
0!
#97276
1!
#97920
0!
#97952
1!
#113943
0!
#121613
1!
#121645
0!
#122033
1!
#122055
0!
#122371
1!
#122415
0!
#122477
1!
#122509
0!
#123067
1!
#123077
0!
#123151
1!
#123195
0!
#123375
1!
#123397
0!
#123533
1!
#123543
0!
#123543
1!
#123565
0!
#123997
1!
#124059
0!
#124125
1!
#124145
0!
#124591
1!
#124611
0!
#125013
1!
#125023
0!
#125287
1!
#125319
0!
#125865
1!
#125885
0!
#125981
1!
#141972
0!
#148016
1!
#148038
0!
#148228
1!
#148364
0!
#148394
1!
#148446
0!
#148498
1!
#148590
0!
#148620
1!
#148642
0!
#148736
1!
#148746
0!
#148766
1!
#148952
0!
#148974
1!
#149004
0!
#149036
1!
#149098
0!
#149128
1!
#149180
0!
#149210
1!
#149302
0!
#149354
1!
#149426
0!
#149500
1!
#149572
0!
#149718
1!
#149728
0!
#149748
1!
#150004
0!
#150088
1!
#150128
0!
#150190
1!
#150240
0!
#150282
1!
#150346
0!
#150368
1!
#150442
0!
#150516
1!
#150526
0!
#150590
1!
#150610
0!
#150632
1!
#150736
0!
#150894
1!
#150904
0!
#151000
1!
#151042
0!
#151062
1!
#151094
0!
#151126
1!
#151178
0!
#151418
1!
#151482
0!
#151536
1!
#151578
0!
#151630
1!
#151672
0!
#151752
1!
#151792
0!
#152050
1!
#152082
0!
#152156
1!
#152336
0!
#152348
1!
#152474
0!
#152526
1!
#152632
0!
#152684
1!
#152716
0!
#152748
1!
#152812
0!
#152834
1!
#152866
0!
#152888
1!
#152920
0!
#153036
1!
#153066
0!
#153076
1!
#153192
0!
#153214
1!
#153298
0!
#153298
1!
#153776
0!
#153798
1!
#154020
0!
#154050
1!
#154134
0!
#154198
1!
#154238
0!
#154250
1!
#154290
0!
#154312
1!
#154384
0!
#154522
1!
#154594
0!
#154702
1!
#154804
0!
#154826
1!
#154962
0!
#154994
1!
#155068
0!
#155100
1!
#155923
0!
#155943
1!
#156584
0!
#156594
1!
#172487
0!
#179061
1!
#179081
0!
#179545
1!
#179567
0!
#180349
1!
#180379
0!
#180379
1!
#180411
0!
#182765
1!
#183861
0!
#184241
1!
#185345
0!
#185711
1!
#186081
0!
#187197
1!
#187567
0!
#188663
1!
#189047
0!
#190155
1!
#190533
0!
#191631
1!
#192749
0!
#193113
1!
#193487
0!
#194591
1!
#195707
0!
#196069
1!
#196447
0!
#197551
1!
#197929
0!
#199033
1!
#200151
0!
#200517
1!
#201631
0!
#202001
1!
#202371
0!
#203475
1!
#203849
0!
#204959
1!
#205331
0!
#206439
1!
#206809
0!
#207917
1!
#209033
0!
#209401
1!
#210519
0!
#210881
1!
#211259
0!
#212363
1!
#213477
0!
#213849
1!
#214213
0!
#215323
1!
#215701
0!
#216803
1!
#217173
0!
#218279
1!
#218655
0!
#227597
1!
#227629
0!
#228671
1!
#228703
0!
#229547
1!
#229557
0!
#229895
1!
#229937
0!
#230117
1!
#231212
0!
#231592
1!
#232696
0!
#233064
1!
#233432
0!
#234546
1!
#234916
0!
#236028
1!
#236394
0!
#237502
1!
#237876
0!
#238988
1!
#256382
0!
#256752
1!
#257868
0!
#258236
1!
#258612
0!
#259716
1!
#260832
0!
#261194
1!
#261576
0!
#262678
1!
#263048
0!
#264154
1!
#264526
0!
#265638
1!
#266010
0!
#274400
1!
#274412
0!
#274614
1!
#274646
0!
#274700
1!
#274712
0!
#276446
1!
#276458
0!
#276854
1!
#276874
0!
#276916
1!
#276946
0!
#277466
1!
#278565
0!
#278933
1!
#280043
0!
#280415
1!
#280787
0!
#281889
1!
#282261
0!
#283375
1!
#283741
0!
#284853
1!
#285223
0!
#286335
1!
#287449
0!
#287813
1!
#288185
0!
#289299
1!
#290413
0!
#290771
1!
#291149
0!
#292255
1!
#292625
0!
#293735
1!
#294849
0!
#295215
1!
#296335
0!
#296701
1!
#297073
0!
#298181
1!
#298551
0!
#299657
1!
#300031
0!
#301143
1!
#301517
0!
#302623
1!
#303735
0!
#304109
1!
#305215
0!
#305587
1!
#305957
0!
#307067
1!
#308179
0!
#308551
1!
#308921
0!
#310025
1!
#310397
0!
#311501
1!
#311879
0!
#312985
1!
#313367
0!
#322743
1!
#323844
0!
#324222
1!
#325318
0!
#325688
1!
#326062
0!
#327176
1!
#327550
0!
#328656
1!
#329026
0!
#330134
1!
#330510
0!
#331608
1!
#332730
0!
#333100
1!
#333470
0!
#334580
1!
#335696
0!
#336058
1!
#336438
0!
#337532
1!
#337910
0!
#339022
1!
#340134
0!
#340494
1!
#341616
0!
#341976
1!
#342356
0!
#343460
1!
#343836
0!
#344938
1!
#345310
0!
#346426
1!
#346798
0!
#347904
1!
#349020
0!
#349382
1!
#350498
0!
#350862
1!
#351240
0!
#352346
1!
#353462
0!
#353824
1!
#354198
0!
#355302
1!
#355680
0!
#356786
1!
#357158
0!
#358270
1!
#358640
0!
#365292
1!
#365302
0!
#367318
1!
#367328
0!
#367328
1!
#367338
0!
#368000
1!
#368022
0!
#369406
1!
#369438
0!
#370098
1!
#371194
0!
#371568
1!
#372670
0!
#373050
1!
#373418
0!
#374522
1!
#374898
0!
#376000
1!
#376380
0!
#377488
1!
#377860
0!
#378966
1!
#380084
0!
#380444
1!
#380828
0!
#381934
1!
#383048
0!
#383410
1!
#383782
0!
#384888
1!
#385270
0!
#386372
1!
#387486
0!
#387856
1!
#404518
0!
#405622
1!
#405998
0!
#413732
1!
#413784
0!
#416264
1!
#417363
0!
#417741
1!
#418839
0!
#419221
1!
#419583
0!
#420689
1!
#421061
0!
#422169
1!
#422551
0!
#423653
1!
#424025
0!
#425131
1!
#426247
0!
#426619
1!
#426989
0!
#428091
1!
#429213
0!
#429575
1!
#429947
0!
#431059
1!
#431433
0!
#432541
1!
#433651
0!
#434017
1!
#435137
0!
#435499
1!
#435877
0!
#436979
1!
#437363
0!
#438459
1!
#438831
0!
#439945
1!
#440317
0!
#441425
1!
#442539
0!
#442903
1!
#444017
0!
#444389
1!
#444761
0!
#445871
1!
#446979
0!
#447353
1!
#447725
0!
#448821
1!
#449197
0!
#450305
1!
#450681
0!
#451795
1!
#452169
0!
#461711
1!
#461723
0!
#462293
1!
#462303
0!
#462303
1!
#462335
0!
#463609
1!
#464692
0!
#465064
1!
#466174
0!
#466544
1!
#466912
0!
#468026
1!
#468400
0!
#469502
1!
#469884
0!
#470988
1!
#471358
0!
#472462
1!
#473580
0!
#473950
1!
#474320
0!
#475424
1!
#476538
0!
#476908
1!
#477286
0!
#478390
1!
#478764
0!
#479872
1!
#480988
0!
#481354
1!
#482466
0!
#482836
1!
#483208
0!
#484312
1!
#484688
0!
#485790
1!
#486162
0!
#487272
1!
#487654
0!
#488758
1!
#489870
0!
#490240
1!
#491352
0!
#491718
1!
#492096
0!
#493200
1!
#494310
0!
#494680
1!
#495052
0!
#496158
1!
#496538
0!
#497636
1!
#498012
0!
#499126
1!
#499490
0!
#507348
1!
#507370
0!
#509630
1!
#509642
0!
#510316
1!
#510326
0!
#510536
1!
#510578
0!
#510700
1!
#510730
0!
#510948
1!
#512027
0!
#512411
1!
#513513
0!
#513883
1!
#514257
0!
#515371
1!
#515739
0!
#516837
1!
#517215
0!
#518325
1!
#518705
0!
#519811
1!
#520931
0!
#521293
1!
#521665
0!
#522765
1!
#523879
0!
#524249
1!
#524627
0!
#525729
1!
#526099
0!
#527207
1!
#528327
0!
#528691
1!
#529803
0!
#530169
1!
#530547
0!
#531657
1!
#532027
0!
#533131
1!
#533505
0!
#534613
1!
#534989
0!
#536101
1!
#537211
0!
#537579
1!
#542999
0!
#543031
1!
#553987
0!
#558305
1!
#559417
0!
#559799
1!
#560903
0!
#561273
1!
#561645
0!
#562755
1!
#563123
0!
#564237
1!
#564609
0!
#565709
1!
#566091
0!
#567195
1!
#568311
0!
#568675
1!
#569049
0!
#570157
1!
#571269
0!
#571645
1!
#572019
0!
#573125
1!
#573489
0!
#574599
1!
#575711
0!
#576079
1!
#577197
0!
#577567
1!
#577939
0!
#579045
1!
#579417
0!
#580527
1!
#580895
0!
#582003
1!
#582387
0!
#583483
1!
#584603
0!
#584965
1!
#586087
0!
#586447
1!
#586825
0!
#587925
1!
#589039
0!
#589413
1!
#589787
0!
#590887
1!
#591269
0!
#592371
1!
#592745
0!
#593853
1!
#594225
0!
#604699
1!
#605800
0!
#606168
1!
#607282
0!
#607652
1!
#608018
0!
#609124
1!
#609498
0!
#610604
1!
#610988
0!
#612092
1!
#612466
0!
#613564
1!
#613576
0!
#613576
1!
#614690
0!
#615054
1!
#615428
0!
#616536
1!
#617648
0!
#618010
1!
#618390
0!
#619492
1!
#619872
0!
#620974
1!
#622088
0!
#622460
1!
#623576
0!
#623938
1!
#624308
0!
#625422
1!
#625790
0!
#626902
1!
#627274
0!
#628378
1!
#628752
0!
#629856
1!
#630978
0!
#631348
1!
#632462
0!
#632822
1!
#633202
0!
#634308
1!
#635418
0!
#635788
1!
#636160
0!
#637268
1!
#637636
0!
#638752
1!
#639120
0!
#640224
1!
#640608
0!
#650378
1!
#650390
0!
#651398
1!
#651440
0!
#652060
1!
#653141
0!
#653519
1!
#654625
0!
#655001
1!
#655369
0!
#656483
1!
#656845
0!
#657959
1!
#658333
0!
#659443
1!
#659813
0!
#660923
1!
#662033
0!
#662401
1!
#662775
0!
#663881
1!
#665003
0!
#665363
1!
#665743
0!
#666841
1!
#667219
0!
#668323
1!
#669433
0!
#669807
1!
#670921
0!
#671293
1!
#671657
0!
#672771
1!
#673143
0!
#674249
1!
#674621
0!
#675731
1!
#676109
0!
#677211
1!
#678327
0!
#678693
1!
#679805
0!
#680173
1!
#680551
0!
#681655
1!
#682767
0!
#683135
1!
#683507
0!
#684611
1!
#684989
0!
#686091
1!
#686471
0!
#687579
1!
#687955
0!
#688109
1!
#704239
0!
#705355
1!
#705725
0!
#706825
1!
#707203
0!
#708317
1!
#709429
0!
#709797
1!
#710165
0!
#711273
1!
#712387
0!
#712753
1!
#713135
0!
#714233
1!
#714615
0!
#715715
1!
#716829
0!
#717195
1!
#718317
0!
#718677
1!
#719051
0!
#720155
1!
#720533
0!
#721641
1!
#722013
0!
#723121
1!
#723497
0!
#724603
1!
#725717
0!
#726083
1!
#727203
0!
#727563
1!
#727941
0!
#729041
1!
#730159
0!
#730525
1!
#730905
0!
#732013
1!
#732383
0!
#733495
1!
#733867
0!
#734975
1!
#735347
0!
#744367
1!
#744407
0!
#744659
1!
#744723
0!
#744817
1!
#744859
0!
#744955
1!
#744965
0!
#745027
1!
#745143
0!
#745197
1!
#745259
0!
#745301
1!
#746384
0!
#746764
1!
#747874
0!
#748246
1!
#748610
0!
#749720
1!
#750092
0!
#751198
1!
#751576
0!
#752682
1!
#753052
0!
#754164
1!
#755274
0!
#755646
1!
#756022
0!
#757120
1!
#758236
0!
#758598
1!
#758980
0!
#760080
1!
#760462
0!
#761566
1!
#762684
0!
#763052
1!
#764164
0!
#764528
1!
#764908
0!
#766010
1!
#766384
0!
#767492
1!
#767866
0!
#768968
1!
#769354
0!
#770450
1!
#771572
0!
#771932
1!
#773052
0!
#773422
1!
#773794
0!
#774892
1!
#776008
0!
#776380
1!
#776748
0!
#777862
1!
#778232
0!
#779346
1!
#779716
0!
#780820
1!
#781196
0!
#789286
1!
#789298
0!
#789338
1!
#789380
0!
#789462
1!
#789482
0!
#789532
1!
#789552
0!
#789772
1!
#789804
0!
#790146
1!
#790188
0!
#790316
1!
#790368
0!
#790492
1!
#790512
0!
#790608
1!
#790618
0!
#790618
1!
#790680
0!
#790692
1!
#790840
0!
#790860
1!
#790870
0!
#790870
1!
#790902
0!
#790922
1!
#790976
0!
#791028
1!
#791040
0!
#791112
1!
#791156
0!
#791218
1!
#791304
0!
#791346
1!
#791356
0!
#791356
1!
#791388
0!
#791418
1!
#792497
0!
#792881
1!
#793991
0!
#794359
1!
#794719
0!
#795839
1!
#796213
0!
#797321
1!
#797703
0!
#798795
1!
#799177
0!
#800275
1!
#801401
0!
#801759
1!
#802133
0!
#803243
1!
#804353
0!
#804729
1!
#805089
0!
#806209
1!
#806583
0!
#807685
1!
#808803
0!
#809159
1!
#810285
0!
#810649
1!
#811023
0!
#812123
1!
#812501
0!
#813611
1!
#813985
0!
#815089
1!
#815467
0!
#816575
1!
#817687
0!
#818055
1!
#819173
0!
#819531
1!
#819911
0!
#821011
1!
#822131
0!
#822499
1!
#822873
0!
#823973
1!
#824355
0!
#825455
1!
#825833
0!
#826937
1!
#827317
0!
#834775
1!
#834795
0!
#835053
1!
#835085
0!
#835773
1!
#835855
0!
#835991
1!
#836105
0!
#836209
1!
#846883
0!
#846943
1!
#852491
0!
#853597
1!
#853971
0!
#855081
1!
#856191
0!
#856559
1!
#857679
0!
#858047
1!
#858419
0!
#859523
1!
#859897
0!
#861007
1!
#861379
0!
#862487
1!
#862861
0!
#863969
1!
#865077
0!
#865451
1!
#866561
0!
#866929
1!
#867307
0!
#868413
1!
#869529
0!
#869895
1!
#870265
0!
#871373
1!
#871745
0!
#872859
1!
#873223
0!
#874333
1!
#874707
0!
#883735
1!
#883745
0!
#884053
1!
#884083
0!
#884269
1!
#884311
0!
#884353
1!
#884395
0!
#884575
1!
#885620
0!
#886000
1!
#887106
0!
#887480
1!
#887848
0!
#888954
1!
#889326
0!
#890440
1!
#890816
0!
#891918
1!
#892298
0!
#893402
1!
#894514
0!
#894888
1!
#895252
0!
#896362
1!
#897476
0!
#897838
1!
#898218
0!
#899328
1!
#899702
0!
#900808
1!
#901918
0!
#902284
1!
#903402
0!
#903774
1!
#904136
0!
#905248
1!
#905632
0!
#906736
1!
#907100
0!
#908214
1!
#908588
0!
#909690
1!
#910812
0!
#911176
1!
#912290
0!
#912662
1!
#913034
0!
#914132
1!
#915256
0!
#915618
1!
#915992
0!
#917104
1!
#917476
0!
#918580
1!
#918960
0!
#920058
1!
#920438
0!
#929444
1!
#929486
0!
#929798
1!
#929808
0!
#929860
1!
#930052
0!
#930062
1!
#930240
0!
#930272
1!
#930410
0!
#930410
1!
#930506
0!
#930558
1!
#930578
0!
#930610
1!
#930640
0!
#930662
1!
#930872
0!
#930914
1!
#930998
0!
#931050
1!
#931146
0!
#931240
1!
#931292
0!
#931302
1!
#931334
0!
#931398
1!
#931450
0!
#931492
1!
#931726
0!
#931738
1!
#932937
0!
#933325
1!
#934425
0!
#934799
1!
#935167
0!
#936281
1!
#936645
0!
#937757
1!
#938129
0!
#939233
1!
#939615
0!
#940721
1!
#941835
0!
#942195
1!
#942573
0!
#943683
1!
#944801
0!
#945161
1!
#945531
0!
#946639
1!
#947019
0!
#948119
1!
#949241
0!
#949601
1!
#950725
0!
#951083
1!
#951465
0!
#952561
1!
#952945
0!
#954045
1!
#954429
0!
#955531
1!
#955903
0!
#957015
1!
#958125
0!
#958489
1!
#959605
0!
#959977
1!
#960351
0!
#961455
1!
#962575
0!
#962939
1!
#963311
0!
#964415
1!
#964795
0!
#965897
1!
#966273
0!
#967387
1!
#967757
0!
#975361
1!
#975383
0!
#975693
1!
#975705
0!
#976425
1!
#976487
0!
#976553
1!
#976607
0!
#976627
1!
#976701
0!
#976785
1!
#976857
0!
#976877
1!
#976919
0!
#976939
1!
#977013
0!
#977109
1!
#977141
0!
#977225
1!
#977299
0!
#977299
1!
#977309
0!
#977329
1!
#977361
0!
#977425
1!
#977445
0!
#977541
1!
#977593
0!
#977637
1!
#977701
0!
#977733
1!
#977827
0!
#977849
1!
#977975
0!
#978099
1!
#978109
0!
#978109
1!
#978129
0!
#978367
1!
#978421
0!
#978537
1!
#978611
0!
#978675
1!
#978879
0!
#978879
1!
#978961
0!
#978983
1!
#979117
0!
#979211
1!
#980314
0!
#980684
1!
#981796
0!
#982168
1!
#982540
0!
#983642
1!
#984018
0!
#985132
1!
#985504
0!
#985646
1!
#1001790
0!
#1002908
1!
#1003280
0!
#1004378
1!
#1005504
0!
#1005864
1!
#1006984
0!
#1007352
1!
#1007724
0!
#1008824
1!
#1009942
0!
#1010304
1!
#1010686
0!
#1011788
1!
#1012166
0!
#1013276
1!
#1013646
0!
#1014750
1!
#1015132
0!
#1022792
1!
#1022854
0!
#1023668
1!
#1023898
0!
#1023930
1!
#1023950
0!
#1024002
1!
#1024134
0!
#1024136
1!
#1024166
0!
#1024208
1!
#1024334
0!
#1024378
1!
#1024890
0!
#1024920
1!
#1025022
0!
#1025044
1!
#1025128
0!
#1025202
1!
#1025214
0!
#1025278
1!
#1025342
0!
#1025458
1!
#1025500
0!
#1025596
1!
#1025690
0!
#1025702
1!
#1026004
0!
#1026056
1!
#1026180
0!
#1026190
1!
#1026274
0!
#1026304
1!
#1026376
0!
#1026480
1!
#1026532
0!
#1026576
1!
#1027660
0!
#1028042
1!
#1029148
0!
#1029514
1!
#1029880
0!
#1030996
1!
#1031368
0!
#1032476
1!
#1032848
0!
#1033954
1!
#1034332
0!
#1035442
1!
#1036552
0!
#1036918
1!
#1037292
0!
#1038404
1!
#1039516
0!
#1039884
1!
#1040260
0!
#1041366
1!
#1041738
0!
#1042846
1!
#1043960
0!
#1044326
1!
#1045448
0!
#1045802
1!
#1046182
0!
#1047282
1!
#1047666
0!
#1048768
1!
#1049148
0!
#1050250
1!
#1050622
0!
#1051732
1!
#1052852
0!
#1053216
1!
#1054330
0!
#1054692
1!
#1055074
0!
#1056178
1!
#1057290
0!
#1057660
1!
#1058030
0!
#1059140
1!
#1059518
0!
#1060618
1!
#1061002
0!
#1062106
1!
#1062476
0!
#1070448
1!
#1070458
0!
#1070744
1!
#1070818
0!
#1070942
1!
#1070952
0!
#1071066
1!
#1071180
0!
#1071418
1!
#1071480
0!
#1071688
1!
#1071822
0!
#1072018
1!
#1072092
0!
#1072112
1!
#1072218
0!
#1072300
1!
#1072414
0!
#1072456
1!
#1072806
0!
#1072836
1!
#1073166
0!
#1073198
1!
#1073424
0!
#1073456
1!
#1073670
0!
#1073680
1!
#1073742
0!
#1073752
1!
#1073762
0!
#1073762
1!
#1073772
0!
#1073804
1!
#1073866
0!
#1073876
1!
#1075041
0!
#1075427
1!
#1076525
0!
#1076905
1!
#1077265
0!
#1078383
1!
#1078745
0!
#1079857
1!
#1080229
0!
#1081341
1!
#1081715
0!
#1082819
1!
#1083935
0!
#1084303
1!
#1084675
0!
#1085781
1!
#1086901
0!
#1087261
1!
#1087641
0!
#1088749
1!
#1089123
0!
#1090221
1!
#1091337
0!
#1091709
1!
#1092823
0!
#1093191
1!
#1093563
0!
#1094677
1!
#1095043
0!
#1096153
1!
#1096527
0!
#1097629
1!
#1098011
0!
#1099119
1!
#1100227
0!
#1100595
1!
#1101707
0!
#1102075
1!
#1102457
0!
#1103551
1!
#1104675
0!
#1105043
1!
#1105411
0!
#1106517
1!
#1106897
0!
#1108003
1!
#1108377
0!
#1109485
1!
#1109853
0!
#1118223
1!
#1118245
0!
#1118297
1!
#1118309
0!
#1118361
1!
#1118393
0!
#1118447
1!
#1118499
0!
#1118531
1!
#1118605
0!
#1118765
1!
#1118851
0!
#1118873
1!
#1118915
0!
#1118977
1!
#1119051
0!
#1119061
1!
#1119061
0!
#1119105
1!
#1119167
0!
#1119199
1!
#1119211
0!
#1119285
1!
#1119801
0!
#1119831
1!
#1120005
0!
#1120035
1!
#1120109
0!
#1120109
1!
#1120287
0!
#1120307
1!
#1120339
0!
#1120381
1!
#1120499
0!
#1120531
1!
#1120625
0!
#1120647
1!
#1120647
0!
#1120763
1!
#1121107
0!
#1121129
1!
#1122325
0!
#1122717
1!
#1123821
0!
#1124195
1!
#1124559
0!
#1125673
1!
#1126035
0!
#1127151
1!
#1127529
0!
#1128631
1!
#1129013
0!
#1130111
1!
#1131231
0!
#1131591
1!
#1131975
0!
#1133079
1!
#1134193
0!
#1134563
1!
#1134941
0!
#1136041
1!
#1136415
0!
#1136553
1!
#1141511
0!
#1141553
1!
#1152713
0!
#1153823
1!
#1154193
0!
#1155299
1!
#1155671
0!
#1156781
1!
#1157149
0!
#1165531
1!
#1165573
0!
#1165585
1!
#1165617
0!
#1165867
1!
#1165901
0!
#1166081
1!
#1166133
0!
#1166247
1!
#1166247
0!
#1166469
1!
#1166617
0!
#1166659
1!
#1167409
0!
#1167431
1!
#1167505
0!
#1167525
1!
#1167673
0!
#1167695
1!
#1167737
0!
#1167789
1!
#1167903
0!
#1167945
1!
#1167989
0!
#1168031
1!
#1168187
0!
#1168209
1!
#1168397
0!
#1168439
1!
#1169626
0!
#1170016
1!
#1171120
0!
#1171490
1!
#1171856
0!
#1172962
1!
#1173342
0!
#1174442
1!
#1174824
0!
#1175932
1!
#1176298
0!
#1177410
1!
#1178522
0!
#1178890
1!
#1179266
0!
#1180372
1!
#1181486
0!
#1181848
1!
#1182232
0!
#1183336
1!
#1183706
0!
#1184812
1!
#1185934
0!
#1186296
1!
#1187412
0!
#1187778
1!
#1188160
0!
#1189256
1!
#1189642
0!
#1190746
1!
#1191116
0!
#1192224
1!
#1192596
0!
#1193700
1!
#1194816
0!
#1195184
1!
#1196300
0!
#1196660
1!
#1197046
0!
#1198142
1!
#1199264
0!
#1199626
1!
#1200000
0!
#1201104
1!
#1201488
0!
#1202588
1!
#1202970
0!
#1204076
1!
#1204450
0!
#1212146
1!
#1212168
0!
#1212940
1!
#1213002
0!
#1213044
1!
#1213054
0!
#1213252
1!
#1213348
0!
#1213518
1!
#1213592
0!
#1213698
1!
#1213760
0!
#1213822
1!
#1213834
0!
#1213834
1!
#1213894
0!
#1213926
1!
#1214172
0!
#1214182
1!
#1214244
0!
#1214328
1!
#1214420
0!
#1214460
1!
#1214490
0!
#1214510
1!
#1215390
0!
#1215400
1!
#1215432
0!
#1215452
1!
#1215628
0!
#1215712
1!
#1215754
0!
#1215774
1!
#1216971
0!
#1217361
1!
#1218461
0!
#1218839
1!
#1219203
0!
#1220321
1!
#1220683
0!
#1221795
1!
#1222169
0!
#1223269
1!
#1223649
0!
#1224749
1!
#1225877
0!
#1226235
1!
#1226615
0!
#1227713
1!
#1228835
0!
#1229197
1!
#1229575
0!
#1230675
1!
#1231051
0!
#1232165
1!
#1233281
0!
#1233641
1!
#1234757
0!
#1235127
1!
#1235507
0!
#1236599
1!
#1236989
0!
#1238085
1!
#1238469
0!
#1239563
1!
#1239945
0!
#1241053
1!
#1242165
0!
#1242539
1!
#1243647
0!
#1244019
1!
#1244391
0!
#1245501
1!
#1246607
0!
#1246979
1!
#1247351
0!
#1248455
1!
#1248833
0!
#1249939
1!
#1250321
0!
#1251421
1!
#1251793
0!
#1259249
1!
#1259271
0!
#1259629
1!
#1259671
0!
#1259857
1!
#1259897
0!
#1260101
1!
#1260173
0!
#1260217
1!
#1260227
0!
#1260279
1!
#1260405
0!
#1260437
1!
#1260469
0!
#1260637
1!
#1260785
0!
#1260837
1!
#1260859
0!
#1260881
1!
#1260923
0!
#1260945
1!
#1261167
0!
#1261209
1!
#1261239
0!
#1261281
1!
#1261489
0!
#1261531
1!
#1261965
0!
#1261975
1!
#1261987
0!
#1261987
1!
#1262069
0!
#1262081
1!
#1262271
0!
#1262303
1!
#1262315
0!
#1262315
1!
#1262325
0!
#1262399
1!
#1262567
0!
#1262609
1!
#1262609
0!
#1262639
1!
#1262815
0!
#1262845
1!
#1262887
0!
#1262929
1!
#1262971
0!
#1263023
1!
#1264247
0!
#1264633
1!
#1265731
0!
#1266111
1!
#1266473
0!
#1267587
1!
#1267961
0!
#1269067
1!
#1269441
0!
#1270551
1!
#1270927
0!
#1272029
1!
#1273147
0!
#1273507
1!
#1273889
0!
#1274997
1!
#1276111
0!
#1276473
1!
#1276847
0!
#1277957
1!
#1278337
0!
#1279433
1!
#1280559
0!
#1280919
1!
#1282037
0!
#1282405
1!
#1282775
0!
#1283875
1!
#1284253
0!
#1285359
1!
#1285739
0!
#1286849
1!
#1287221
0!
#1287317
1!
#1292309
0!
#1292351
1!
#1303321
0!
#1307417
1!
#1307439
0!
#1308175
1!
#1308197
0!
#1308321
1!
#1308351
0!
#1309191
1!
#1309327
0!
#1309389
1!
#1309421
0!
#1309453
1!
#1309465
0!
#1309517
1!
#1309591
0!
#1309633
1!
#1309665
0!
#1309687
1!
#1310059
0!
#1310111
1!
#1310351
0!
#1310371
1!
#1310381
0!
#1310465
1!
#1310515
0!
#1310527
1!
#1311618
0!
#1311998
1!
#1313108
0!
#1313480
1!
#1313852
0!
#1314962
1!
#1315334
0!
#1316438
1!
#1316816
0!
#1317924
1!
#1318298
0!
#1319396
1!
#1320518
0!
#1320878
1!
#1321262
0!
#1322362
1!
#1323484
0!
#1323850
1!
#1324218
0!
#1325326
1!
#1325708
0!
#1326806
1!
#1327924
0!
#1328294
1!
#1329410
0!
#1329776
1!
#1330142
0!
#1331254
1!
#1331624
0!
#1332732
1!
#1333114
0!
#1334220
1!
#1334590
0!
#1335696
1!
#1336812
0!
#1337176
1!
#1338288
0!
#1338658
1!
#1339036
0!
#1340142
1!
#1341260
0!
#1341628
1!
#1342002
0!
#1343104
1!
#1343484
0!
#1344582
1!
#1344962
0!
#1346070
1!
#1346440
0!
#1355378
1!
#1355410
0!
#1355618
1!
#1355670
0!
#1355958
1!
#1356000
0!
#1356072
1!
#1356124
0!
#1356174
1!
#1356288
0!
#1356394
1!
#1356414
0!
#1356468
1!
#1356626
0!
#1356698
1!
#1356698
0!
#1356728
1!
#1356728
0!
#1356792
1!
#1356852
0!
#1356894
1!
#1356914
0!
#1356934
1!
#1357068
0!
#1357088
1!
#1357294
0!
#1357334
1!
#1357344
0!
#1357344
1!
#1357366
0!
#1357490
1!
#1357574
0!
#1357658
1!
#1357774
0!
#1357806
1!
#1358863
0!
#1359243
1!
#1360349
0!
#1360719
1!
#1361093
0!
#1362201
1!
#1362575
0!
#1363681
1!
#1364051
0!
#1365167
1!
#1365535
0!
#1366643
1!
#1367765
0!
#1368129
1!
#1368503
0!
#1369609
1!
#1370721
0!
#1371085
1!
#1371459
0!
#1372565
1!
#1372941
0!
#1374051
1!
#1375173
0!
#1375537
1!
#1376647
0!
#1377019
1!
#1377393
0!
#1378501
1!
#1378875
0!
#1379983
1!
#1379983
0!
#1380359
1!
#1380727
0!
#1381833
1!
#1382953
0!
#1383323
1!
#1384437
0!
#1384805
1!
#1385169
0!
#1386275
1!
#1387399
0!
#1387763
1!
#1388133
0!
#1389241
1!
#1389619
0!
#1390729
1!
#1391101
0!
#1392203
1!
#1392577
0!
#1401097
1!
#1401107
0!
#1401287
1!
#1401317
0!
#1401673
1!
#1401901
0!
#1401923
1!
#1402035
0!
#1402047
1!
#1402057
0!
#1402057
1!
#1402057
0!
#1402605
1!
#1402793
0!
#1402823
1!
#1402979
0!
#1403051
1!
#1403061
0!
#1403061
1!
#1403073
0!
#1403157
1!
#1403199
0!
#1403221
1!
#1403221
0!
#1403295
1!
#1403305
0!
#1403305
1!
#1403443
0!
#1403485
1!
#1403647
0!
#1403657
1!
#1403667
0!
#1403667
1!
#1403777
0!
#1403839
1!
#1404997
0!
#1405381
1!
#1406485
0!
#1406853
1!
#1407217
0!
#1408335
1!
#1408701
0!
#1409815
1!
#1410187
0!
#1411291
1!
#1411291
0!
#1411677
1!
#1412791
0!
#1413159
1!
#1413533
0!
#1414631
1!
#1415757
0!
#1416119
1!
#1416495
0!
#1417595
1!
#1417977
0!
#1419085
1!
#1420201
0!
#1420561
1!
#1421677
0!
#1422047
1!
#1422427
0!
#1423531
1!
#1423901
0!
#1425007
1!
#1425389
0!
#1426487
1!
#1426865
0!
#1427969
1!
#1429089
0!
#1429455
1!
#1430563
0!
#1430937
1!
#1431311
0!
#1432417
1!
#1433531
0!
#1433897
1!
#1434269
0!
#1435381
1!
#1435765
0!
#1435817
1!
#1452793
0!
#1453161
1!
#1453533
0!
#1454643
1!
#1455019
0!
#1456123
1!
#1456495
0!
#1457603
1!
#1457975
0!
#1459087
1!
#1460203
0!
#1460567
1!
#1460945
0!
#1462043
1!
#1463161
0!
#1463525
1!
#1463907
0!
#1465013
1!
#1465389
0!
#1466489
1!
#1467609
0!
#1467977
1!
#1469093
0!
#1469455
1!
#1469829
0!
#1470933
1!
#1471311
0!
#1472427
1!
#1472799
0!
#1473901
1!
#1474271
0!
#1475381
1!
#1476501
0!
#1476863
1!
