level3.vcd
$timescale 1 us $end
$scope module Homey $end
$var wire 1 ! Recording $end
$upscope $end
$enddefinitions $end
#0
1!
#15999
0!
#20681
1!
#20725
0!
#20861
1!
#20923
0!
#21103
1!
#21155
0!
#21177
1!
#21291
0!
#21407
1!
#21493
0!
#21535
1!
#21575
0!
#21597
1!
#21669
0!
#21701
1!
#21755
0!
#21797
1!
#21913
0!
#21913
1!
#22609
0!
#22779
1!
#22811
0!
#22875
1!
#22961
0!
#23087
1!
#23297
0!
#23329
1!
#23615
0!
#23625
1!
#23635
0!
#23687
1!
#23751
0!
#23869
1!
#23923
0!
#23943
1!
#25423
0!
#26707
1!
#26729
0!
#27887
1!
#27917
0!
#28009
1!
#28019
0!
#28019
1!
#28029
0!
#28249
1!
#28417
0!
#28533
1!
#44546
0!
#51088
1!
#51108
0!
#53684
1!
#53694
0!
#55172
1!
#55192
0!
#59340
1!
#59360
0!
#59516
1!
#59548
0!
#59930
1!
#59962
0!
#60002
1!
#60024
0!
#60096
1!
#60108
0!
#60108
1!
#60118
0!
#60480
1!
#60480
0!
#60522
1!
#60564
0!
#61338
1!
#61338
0!
#61666
1!
#61678
0!
#62666
1!
#62676
0!
#63820
1!
#63832
0!
#64688
1!
#64698
0!
#65408
1!
#65430
0!
#65596
1!
#65608
0!
#65944
1!
#65954
0!
#66132
1!
#82099
0!
#88571
1!
#88613
0!
#88749
1!
#88759
0!
#88759
1!
#88779
0!
#89545
1!
#89555
0!
#89691
1!
#89701
0!
#90517
1!
#90527
0!
#90643
1!
#90663
0!
#90797
1!
#90817
0!
#91021
1!
#91043
0!
#91387
1!
#91407
0!
#91585
1!
#91597
0!
#91627
1!
#91679
0!
#91995
1!
#92039
0!
#92069
1!
#92091
0!
#92363
1!
#92373
0!
#92447
1!
#92457
0!
#92551
1!
#92571
0!
#92591
1!
#92633
0!
#93019
1!
#108944
0!
#118210
1!
#118240
0!
#119900
1!
#119932
0!
#121870
1!
#122947
0!
#123339
1!
#124433
0!
#124807
1!
#125175
0!
#126291
1!
#126653
0!
#127769
1!
#132047
0!
#132067
1!
#132697
0!
#132803
1!
#133517
0!
#133549
1!
#136233
0!
#136263
1!
#143487
0!
#143509
1!
#143697
0!
#144053
1!
#144431
0!
#145539
1!
#145911
0!
#147009
1!
#148133
0!
#148495
1!
#149607
0!
#149971
1!
#150345
0!
#151451
1!
#152565
0!
#152943
1!
#153309
0!
#154413
1!
#154795
0!
#155895
1!
#157017
0!
#157385
1!
#157755
0!
#169215
1!
#170331
0!
#170709
1!
#171807
0!
#172189
1!
#172551
0!
#173665
1!
#174041
0!
#175139
1!
#175519
0!
#176623
1!
#176999
0!
#178109
1!
#179219
0!
#179593
1!
#179963
0!
#181075
1!
#182179
0!
#182551
1!
#182919
0!
#184027
1!
#184399
0!
#185513
1!
#186625
0!
#186993
1!
#188105
0!
#188473
1!
#188847
0!
#189953
1!
#190327
0!
#191431
1!
#191811
0!
#192915
1!
#193283
0!
#194391
1!
#195513
0!
#195873
1!
#196989
0!
#197361
1!
#197731
0!
#198837
1!
#199951
0!
#200323
1!
#200687
0!
#201795
1!
#202169
0!
#203283
1!
#204397
0!
#204757
1!
#205137
0!
#216597
1!
#217713
0!
#218087
1!
#219197
0!
#219569
1!
#219941
0!
#221043
1!
#221419
0!
#222523
1!
#222901
0!
#224011
1!
#224379
0!
#225493
1!
#226607
0!
#226971
1!
#227341
0!
#228445
1!
#229563
0!
#229935
1!
#230301
0!
#231405
1!
#231783
0!
#232893
1!
#234001
0!
#234373
1!
#235485
0!
#235859
1!
#236225
0!
#237335
1!
#237707
0!
#238817
1!
#239193
0!
#240295
1!
#240675
0!
#241779
1!
#242891
0!
#243263
1!
#244369
0!
#244741
1!
#245113
0!
#246215
1!
#247335
0!
#247695
1!
#248075
0!
#249177
1!
#249557
0!
#250661
1!
#251773
0!
#252147
1!
#252519
0!
#263971
1!
#265095
0!
#265477
1!
#266577
0!
#266951
1!
#267323
0!
#268433
1!
#268801
0!
#269907
1!
#270281
0!
#271393
1!
#271767
0!
#272869
1!
#273981
0!
#274357
1!
#274731
0!
#275839
1!
#276951
0!
#277319
1!
#277693
0!
#278795
1!
#281421
0!
#281465
1!
#281465
0!
#281539
1!
#281677
0!
#281677
1!
#282863
0!
#282999
1!
#283009
0!
#283051
1!
#283623
0!
#283697
1!
#283739
0!
#283867
1!
#283867
0!
#283931
1!
#284047
0!
#284141
1!
#284245
0!
#284309
1!
#286979
0!
#286989
1!
#291571
0!
#291731
1!
#292299
0!
#292331
1!
#292383
0!
#292467
1!
#292531
0!
#292573
1!
#292667
0!
#292773
1!
#292835
0!
#292875
1!
#292875
0!
#292917
1!
#292991
0!
#293021
1!
#294353
0!
#294657
1!
#295027
0!
#296135
1!
#296509
0!
#297613
1!
#298737
0!
#299101
1!
#299475
0!
#310925
1!
#312049
0!
#312431
1!
#313533
0!
#313907
1!
#314273
0!
#315389
1!
#315759
0!
#316865
1!
#317235
0!
#318345
1!
#318725
0!
#319829
1!
#320941
0!
#321305
1!
#321681
0!
#322789
1!
#323907
0!
#324275
1!
#324649
0!
#325753
1!
#326127
0!
#327231
1!
#328343
0!
#328719
1!
#329825
0!
#330199
1!
#330565
0!
#331671
1!
#332053
0!
#333155
1!
#333531
0!
#334633
1!
#335009
0!
#336117
1!
#337229
0!
#337597
1!
#338713
0!
#339075
1!
#339455
0!
#340561
1!
#341673
0!
#342039
1!
#342417
0!
#343517
1!
#343893
0!
#344997
1!
#346119
0!
#346483
1!
#346855
0!
#358319
1!
#359435
0!
#359815
1!
#360915
0!
#361291
1!
#361665
0!
#362767
1!
#363147
0!
#364253
1!
#364623
0!
#365731
1!
#366105
0!
#367207
1!
#368329
0!
#368689
1!
#369071
0!
#370177
1!
#371289
0!
#371659
1!
#372029
0!
#373133
1!
#373515
0!
#374613
1!
#375727
0!
#376101
1!
#377215
0!
#377577
1!
#377957
0!
#379055
1!
#379427
0!
#380539
1!
#380907
0!
#382021
1!
#382395
0!
#383507
1!
#384611
0!
#384983
1!
#386101
0!
#386463
1!
#386835
0!
#387939
1!
#389059
0!
#389423
1!
#389795
0!
#390903
1!
#391281
0!
#392387
1!
#393503
0!
#393873
1!
#394245
0!
#405705
1!
#406817
0!
#407197
1!
#408309
0!
#408681
1!
#409043
0!
#410155
1!
#410525
0!
#411639
1!
#412007
0!
#413113
1!
#413495
0!
#414603
1!
#415715
0!
#416085
1!
#416455
0!
#417557
1!
#418673
0!
#419047
1!
#419417
0!
#420521
1!
#420891
0!
#422003
1!
#423113
0!
#423481
1!
#424593
0!
#424965
1!
#425339
0!
#426449
1!
#426823
0!
#427927
1!
#428301
0!
#429413
1!
#432093
0!
#432269
1!
#432301
0!
#432343
1!
#433511
0!
#433555
1!
#433609
0!
#433663
1!
#433725
0!
#433809
1!
#434347
0!
#434557
1!
#434619
0!
#434631
1!
#434683
0!
#434735
1!
#434765
0!
#434839
1!
#434879
0!
#434953
1!
#434995
0!
#435047
1!
#435109
0!
#435129
1!
#436541
0!
#436603
1!
#436655
0!
#436699
1!
#436751
0!
#436793
1!
#437215
0!
#437337
1!
#437369
0!
#437399
1!
#437431
0!
#437483
1!
#437515
0!
#437649
1!
#437723
0!
#437765
1!
#437807
0!
#437817
1!
#437933
0!
#437975
1!
#438059
0!
#438143
1!
#438745
0!
#438787
1!
#438797
0!
#438797
1!
#438827
0!
#438879
1!
#438901
0!
#438931
1!
#438963
0!
#439027
1!
#439057
0!
#439163
1!
#439227
0!
#439259
1!
#439279
0!
#439311
1!
#439353
0!
#439415
1!
#439447
0!
#439511
1!
#440895
0!
#440947
1!
#440987
0!
#441049
1!
#441059
0!
#441101
1!
#441123
0!
#441165
1!
#441661
0!
#441683
1!
#441859
0!
#441891
1!
#442037
0!
#442215
1!
#442267
0!
#442289
1!
#442341
0!
#442353
1!
#442405
0!
#442425
1!
#442447
0!
#442467
1!
#445451
0!
#453089
1!
#454207
0!
#454589
1!
#455693
0!
#456065
1!
#456437
0!
#457549
1!
#457915
0!
#459021
1!
#459393
0!
#460507
1!
#460877
0!
#461991
1!
#463099
0!
#463463
1!
#463835
0!
#464945
1!
#466059
0!
#466431
1!
#466799
0!
#467905
1!
#468279
0!
#469389
1!
#470503
0!
#470875
1!
#471983
0!
#472357
1!
#472727
0!
#473831
1!
#474213
0!
#475313
1!
#475691
0!
#476799
1!
#477171
0!
#478275
1!
#479391
0!
#479753
1!
#480867
0!
#481235
1!
#481615
0!
#482725
1!
#483831
0!
#484203
1!
#484577
0!
#485677
1!
#486051
0!
#487167
1!
#488281
0!
#488639
1!
#489015
0!
#500481
1!
#501595
0!
#501977
1!
#503081
0!
#503455
1!
#503825
0!
#504927
1!
#505309
0!
#506417
1!
#506789
0!
#507893
1!
#508267
0!
#509369
1!
#510493
0!
#510861
1!
#511233
0!
#512333
1!
#513455
0!
#513819
1!
#514189
0!
#515297
1!
#515669
0!
#516779
1!
#517895
0!
#518259
1!
#519373
0!
#519745
1!
#520117
0!
#521217
1!
#521593
0!
#522701
1!
#523073
0!
#524183
1!
#524559
0!
#525659
1!
#526775
0!
#527149
1!
#528265
0!
#528629
1!
#529003
0!
#530107
1!
#531217
0!
#531587
1!
#531967
0!
#533069
1!
#533447
0!
#534549
1!
#535661
0!
#536035
1!
#536405
0!
#547869
1!
#548985
0!
#549367
1!
#550465
0!
#550843
1!
#551215
0!
#552325
1!
#552687
0!
#553803
1!
#554173
0!
#555283
1!
#555651
0!
#556761
1!
#557873
0!
#558243
1!
#558621
0!
#559725
1!
#560841
0!
#561209
1!
#561583
0!
#562693
1!
#563063
0!
#564173
1!
#565285
0!
#565657
1!
#566767
0!
#567135
1!
#567507
0!
#568613
1!
#568985
0!
#570095
1!
#570469
0!
#571571
1!
#571947
0!
#573053
1!
#574171
0!
#574543
1!
#575647
0!
#576021
1!
#576393
0!
#577503
1!
#578615
0!
#578985
1!
#579351
0!
#580455
1!
#580879
0!
#580949
1!
#581157
0!
#581357
1!
#581399
0!
#581483
1!
#581503
0!
#581619
1!
#581661
0!
#581733
1!
#581775
0!
#581923
1!
#583079
0!
#583091
1!
#583187
0!
#583219
1!
#583311
0!
#583353
1!
#583811
0!
#583915
1!
#583957
0!
#584009
1!
#584061
0!
#584123
1!
#584207
0!
#584259
1!
#584301
0!
#584321
1!
#584343
0!
#584415
1!
#584457
0!
#584553
1!
#584719
0!
#584781
1!
#584823
0!
#584855
1!
#585531
0!
#585613
1!
#596395
0!
#596753
1!
#597865
0!
#598235
1!
#598601
0!
#599715
1!
#600089
0!
#601193
1!
#601567
0!
#602669
1!
#603041
0!
#604153
1!
#605271
0!
#605635
1!
#606005
0!
#607117
1!
#608231
0!
#608605
1!
#608975
0!
#610075
1!
#610455
0!
#611561
1!
#612671
0!
#613043
1!
#614149
0!
#614529
1!
#614899
0!
#616001
1!
#616377
0!
#617483
1!
#617857
0!
#618961
1!
#619335
0!
#620449
1!
#621553
0!
#621927
1!
#623043
0!
#623415
1!
#623775
0!
#624885
1!
#625999
0!
#626373
1!
#626745
0!
#627847
1!
#628221
0!
#629333
1!
#630443
0!
#630813
1!
#631183
0!
#642651
1!
#643765
0!
#644145
1!
#645255
0!
#645629
1!
#645989
0!
#647103
1!
#647473
0!
#648585
1!
#648957
0!
#650065
1!
#650437
0!
#651549
1!
#652657
0!
#653033
1!
#653397
0!
#654507
1!
#655627
0!
#655993
1!
#656365
0!
#657475
1!
#657843
0!
#658957
1!
#660067
0!
#660437
1!
#661553
0!
#661919
1!
#662291
0!
#663393
1!
#663773
0!
#664873
1!
#665253
0!
#666353
1!
#666735
0!
#667841
1!
#668955
0!
#669321
1!
#670437
0!
#670797
1!
#671177
0!
#672281
1!
#673393
0!
#673767
1!
#674141
0!
#675245
1!
#675617
0!
#676731
1!
#677841
0!
#678213
1!
#678583
0!
#690045
1!
#691161
0!
#691543
1!
#692641
0!
#693015
1!
#693387
0!
#694501
1!
#694869
0!
#695983
1!
#696353
0!
#697459
1!
#697829
0!
#698945
1!
#700057
0!
#700419
1!
#700797
0!
#701901
1!
#703021
0!
#703381
1!
#703755
0!
#704867
1!
#705237
0!
#706343
1!
#707459
0!
#707831
1!
#708943
0!
#709311
1!
#709685
0!
#710793
1!
#711163
0!
#712269
1!
#712639
0!
#713751
1!
#714125
0!
#715235
1!
#716349
0!
#716713
1!
#717825
0!
#718195
1!
#718563
0!
#719671
1!
#720793
0!
#721153
1!
#721535
0!
#722639
1!
#723009
0!
#724115
1!
#725235
0!
#725605
1!
#725977
0!
#731699
1!
#738559
0!
#738925
1!
#740053
0!
#740401
1!
#740791
0!
#740921
1!
#740995
0!
#741099
1!
#741173
0!
#741203
1!
#741225
0!
#741329
1!
#741361
0!
#741455
1!
#742277
0!
#742319
1!
#747609
0!
#747823
1!
#748187
0!
#749303
1!
#750407
0!
#750775
1!
#751147
0!
#752259
1!
#752633
0!
#753735
1!
#754857
0!
#755223
1!
#756335
0!
#756699
1!
#757073
0!
#758183
1!
#758555
0!
#759665
1!
#760043
0!
#761149
1!
#761521
0!
#762623
1!
#763743
0!
#764113
1!
#765219
0!
#765587
1!
#765961
0!
#767069
1!
#768183
0!
#768557
1!
#768931
0!
#770029
1!
#770411
0!
#771511
1!
#772629
0!
#772993
1!
#773365
0!
#784827
1!
#785955
0!
#786327
1!
#787433
0!
#787815
1!
#788177
0!
#789281
1!
#789665
0!
#790769
1!
#791143
0!
#792249
1!
#792619
0!
#793725
1!
#794841
0!
#795213
1!
#795583
0!
#796695
1!
#797801
0!
#798175
1!
#798547
0!
#799651
1!
#800025
0!
#801139
1!
#802249
0!
#802613
1!
#803727
0!
#804103
1!
#804473
0!
#805581
1!
#805953
0!
#807057
1!
#807439
0!
#808543
1!
#808913
0!
#810023
1!
#811139
0!
#811505
1!
#812617
0!
#812987
1!
#813355
0!
#814471
1!
#815579
0!
#815947
1!
#816321
0!
#817425
1!
#817807
0!
#818915
1!
#820027
0!
#820387
1!
#820763
0!
#832227
1!
#833349
0!
#833733
1!
#834833
0!
#835207
1!
#835573
0!
#836683
1!
#837057
0!
#838159
1!
#838537
0!
#839645
1!
#840017
0!
#841129
1!
#842237
0!
#842609
1!
#842981
0!
#844085
1!
#845207
0!
#845567
1!
#845949
0!
#847055
1!
#847425
0!
#848527
1!
#849645
0!
#850019
1!
#851123
0!
#851493
1!
#851873
0!
#852973
1!
#853351
0!
#854461
1!
#854833
0!
#855933
1!
#856311
0!
#857421
1!
#858535
0!
#858901
1!
#860011
0!
#860381
1!
#860753
0!
#861867
1!
#862973
0!
#863345
1!
#863715
0!
#864829
1!
#865203
0!
#866303
1!
#867427
0!
#867783
1!
#868167
0!
#879627
1!
#880745
0!
#881123
1!
#882231
0!
#882603
1!
#882993
0!
#883343
1!
#883427
0!
#883469
1!
#883479
0!
#883563
1!
#883759
0!
#883843
1!
#883865
0!
#883927
1!
#887703
0!
#887805
1!
#889775
0!
#889921
1!
#890415
0!
#890457
1!
#890553
0!
#890605
1!
#890699
0!
#890709
1!
#890867
0!
#890919
1!
#890951
0!
#890961
1!
#891013
0!
#891045
1!
#891055
0!
#891055
1!
#891075
0!
#891117
1!
#891127
0!
#891179
1!
#891305
0!
#891315
1!
#891325
0!
#891325
1!
#892675
0!
#892685
1!
#892695
0!
#892695
1!
#892913
0!
#892945
1!
#893345
0!
#893409
1!
#893451
0!
#893543
1!
#893553
0!
#893553
1!
#893595
0!
#893627
1!
#893699
0!
#893741
1!
#893781
0!
#893823
1!
#893855
0!
#893875
1!
#893969
0!
#893989
1!
#894041
0!
#894063
1!
#894115
0!
#894157
1!
#894219
0!
#894229
1!
#894835
0!
#894845
1!
#894857
0!
#894857
1!
#894919
0!
#894929
1!
#895023
0!
#895045
1!
#895243
0!
#895377
1!
#895451
0!
#895525
1!
#895557
0!
#895775
1!
#898541
0!
#898583
1!
#898615
0!
#898647
1!
#898679
0!
#898891
1!
#899265
0!
#900375
1!
#900743
0!
#901859
1!
#902229
0!
#903341
1!
#903705
0!
#904819
1!
#905935
0!
#906299
1!
#907413
0!
#907785
1!
#908159
0!
#909263
1!
#910379
0!
#910743
1!
#911115
0!
#912221
1!
#912599
0!
#913703
1!
#914819
0!
#915189
1!
#915559
0!
#927029
1!
#928139
0!
#928523
1!
#929623
0!
#930007
1!
#930369
0!
#931479
1!
#931851
0!
#932957
1!
#933333
0!
#934447
1!
#934815
0!
#935927
1!
#937035
0!
#937407
1!
#937777
0!
#938885
1!
#940001
0!
#940363
1!
#940737
0!
#941847
1!
#942223
0!
#943321
1!
#944441
0!
#944815
1!
#945927
0!
#946295
1!
#946669
0!
#947771
1!
#948151
0!
#949249
1!
#949631
0!
#950735
1!
#951111
0!
#952215
1!
#953327
0!
#953695
1!
#954811
0!
#955181
1!
#955549
0!
#956663
1!
#957775
0!
#958147
1!
#958517
0!
#959625
1!
#959993
0!
#961107
1!
#962213
0!
#962583
1!
#962955
0!
#974423
1!
#975537
0!
#975927
1!
#977019
0!
#977409
1!
#977765
0!
#978879
1!
#979251
0!
#980357
1!
#980729
0!
#981843
1!
#982217
0!
#983325
1!
#984441
0!
#984805
1!
#985179
0!
#986287
1!
#987399
0!
#987767
1!
#988143
0!
#989247
1!
#989619
0!
#990735
1!
#991849
0!
#992209
1!
#993325
0!
#993697
1!
#994067
0!
#995175
1!
#995545
0!
#996651
1!
#997031
0!
#998139
1!
#998513
0!
#999617
1!
#1000729
0!
#1001101
1!
#1002217
0!
#1002581
1!
#1002955
0!
#1004065
1!
#1005173
0!
#1005545
1!
#1005917
0!
#1007019
1!
#1007397
0!
#1008511
1!
#1009621
0!
#1009985
1!
#1010355
0!
#1021821
1!
#1022943
0!
#1023327
1!
#1024427
0!
#1024801
1!
#1025173
0!
#1026285
1!
#1026649
0!
#1027761
1!
#1028129
0!
#1029245
1!
#1029617
0!
#1030719
1!
#1031843
0!
#1032207
1!
#1032575
0!
#1033683
1!
#1034849
0!
#1034923
1!
#1034933
0!
#1034933
1!
#1034975
0!
#1034997
1!
#1035007
0!
#1035059
1!
#1035123
0!
#1035143
1!
#1035155
0!
#1035155
1!
#1035155
0!
#1035689
1!
#1035783
0!
#1035919
1!
#1035993
0!
#1036013
1!
#1036119
0!
#1036139
1!
#1036203
0!
#1036245
1!
#1036379
0!
#1036453
1!
#1036483
0!
#1036525
1!
#1036535
0!
#1036547
1!
#1037119
0!
#1037161
1!
#1037203
0!
#1037243
1!
#1037285
0!
#1037295
1!
#1037337
0!
#1037347
1!
#1037399
0!
#1037431
1!
#1037503
0!
#1037565
1!
#1037741
0!
#1037857
1!
#1037867
0!
#1037867
1!
#1037887
0!
#1037929
1!
#1037951
0!
#1037971
1!
#1038013
0!
#1038065
1!
#1039243
0!
#1039285
1!
#1039339
0!
#1039465
1!
#1039507
0!
#1039571
1!
#1040727
0!
#1040769
1!
#1040823
0!
#1040875
1!
#1040917
0!
#1040917
1!
#1040949
0!
#1041043
1!
#1041477
0!
#1041489
1!
#1041531
0!
#1041657
1!
#1041667
0!
#1041771
1!
#1041793
0!
#1041813
1!
#1041845
0!
#1041877
1!
#1041981
0!
#1042045
1!
#1042213
0!
#1042411
1!
#1042453
0!
#1042473
1!
#1043035
0!
#1043067
1!
#1043079
0!
#1043205
1!
#1043225
0!
#1043331
1!
#1043373
0!
#1043425
1!
#1043487
0!
#1043551
1!
#1043603
0!
#1043655
1!
#1043665
0!
#1043801
1!
#1043801
0!
#1043833
1!
#1043885
0!
#1043959
1!
#1044395
0!
#1044449
1!
#1044493
0!
#1044535
1!
#1044587
0!
#1044703
1!
#1044713
0!
#1044713
1!
#1044745
0!
#1044797
1!
#1044943
0!
#1044975
1!
#1045039
0!
#1045069
1!
#1045133
0!
#1045237
1!
#1045333
0!
#1045375
1!
#1045417
0!
#1045427
1!
#1045899
0!
#1046107
1!
#1046149
0!
#1046179
1!
#1046285
0!
#1046315
1!
#1046369
0!
#1046515
1!
#1046525
0!
#1046589
1!
#1046631
0!
#1046661
1!
#1046693
0!
#1046745
1!
#1046829
0!
#1046839
1!
#1048197
0!
#1048219
1!
#1048269
0!
#1048279
1!
#1048343
0!
#1048425
1!
#1049597
0!
#1049657
1!
#1049679
0!
#1049689
1!
#1049729
0!
#1049945
1!
#1050307
0!
#1051417
1!
#1052529
0!
#1052903
1!
#1053277
0!
#1054381
1!
#1054751
0!
#1055869
1!
#1056979
0!
#1057351
1!
#1057713
0!
#1069187
1!
#1070305
0!
#1070687
1!
#1071791
0!
#1072157
1!
#1072531
0!
#1073645
1!
#1074019
0!
#1075125
1!
#1075497
0!
#1076599
1!
#1076975
0!
#1078081
1!
#1079201
0!
#1079561
1!
#1079937
0!
#1081041
1!
#1082157
0!
#1082535
1!
#1082901
0!
#1084009
1!
#1084389
0!
#1085493
1!
#1086603
0!
#1086973
1!
#1088085
0!
#1088449
1!
#1088831
0!
#1089935
1!
#1090311
0!
#1091421
1!
#1091793
0!
#1092899
1!
#1093267
0!
#1094373
1!
#1095495
0!
#1095857
1!
#1096979
0!
#1097343
1!
#1097715
0!
#1098829
1!
#1099939
0!
#1100311
1!
#1100683
0!
#1101787
1!
#1102159
0!
#1103273
1!
#1104385
0!
#1104747
1!
#1105129
0!
#1116583
1!
#1117707
0!
#1118083
1!
#1119189
0!
#1119571
1!
#1119929
0!
#1121045
1!
#1121415
0!
#1122527
1!
#1122899
0!
#1124009
1!
#1124385
0!
#1125487
1!
#1126601
0!
#1126965
1!
#1127337
0!
#1128449
1!
#1129571
0!
#1129933
1!
#1130301
0!
#1131411
1!
#1131783
0!
#1132897
1!
#1134013
0!
#1134375
1!
#1135493
0!
#1135855
1!
#1136235
0!
#1137337
1!
#1137711
0!
#1138823
1!
#1139195
0!
#1140299
1!
#1140671
0!
#1141779
1!
#1142897
0!
#1143269
1!
#1144381
0!
#1144751
1!
#1145121
0!
#1146225
1!
#1147345
0!
#1147705
1!
#1148077
0!
#1149193
1!
#1149565
0!
#1150671
1!
#1151783
0!
#1152157
1!
#1152531
0!
#1163995
1!
#1165111
0!
#1165495
1!
#1166587
0!
#1166967
1!
#1167335
0!
#1168449
1!
#1168819
0!
#1169931
1!
#1170309
0!
#1171409
1!
#1171783
0!
#1172897
1!
#1174009
0!
#1174373
1!
#1174745
0!
#1175855
1!
#1176967
0!
#1177341
1!
#1177707
0!
#1178811
1!
#1179191
0!
#1180301
1!
#1181417
0!
#1181779
1!
#1182891
0!
#1183259
1!
#1183641
0!
#1184745
1!
#1185173
0!
#1185243
1!
#1185295
0!
#1185369
1!
#1185423
0!
#1185673
1!
#1185673
0!
#1185693
1!
#1185745
0!
#1185849
1!
#1185901
0!
#1185995
1!
#1186027
0!
#1186069
1!
#1187523
0!
#1187533
1!
#1190369
0!
#1190401
1!
#1190443
0!
#1190475
1!
#1190495
0!
#1190589
1!
#1191775
0!
#1191971
1!
#1192003
0!
#1192107
1!
#1192541
0!
#1192573
1!
#1192645
0!
#1192749
1!
#1192781
0!
#1192811
1!
#1192833
0!
#1192885
1!
#1193011
0!
#1193073
1!
#1193157
0!
#1193251
1!
#1193333
0!
#1193385
1!
#1194823
0!
#1194905
1!
#1194947
0!
#1194989
1!
#1195019
0!
#1195029
1!
#1195473
0!
#1195517
1!
#1195517
0!
#1195603
1!
#1195685
0!
#1195727
1!
#1195769
0!
#1195789
1!
#1195831
0!
#1195851
1!
#1195945
0!
#1195967
1!
#1196101
0!
#1196133
1!
#1196205
0!
#1196277
1!
#1197125
0!
#1197145
1!
#1199121
0!
#1199175
1!
#1199281
0!
#1199333
1!
#1199343
0!
#1199395
1!
#1199869
0!
#1199911
1!
#1199931
0!
#1199971
1!
#1199981
0!
#1200011
1!
#1200115
0!
#1200167
1!
#1200167
0!
#1200189
1!
#1200219
0!
#1200281
1!
#1200353
0!
#1200437
1!
#1200477
0!
#1200551
1!
#1200705
0!
#1210105
1!
#1210117
0!
#1210117
1!
#1210127
0!
#1210591
1!
#1210633
0!
#1210739
1!
#1210761
0!
#1211263
1!
#1212387
0!
#1212765
1!
#1213873
0!
#1214247
1!
#1214611
0!
#1215725
1!
#1216095
0!
#1217201
1!
#1217585
0!
#1218683
1!
#1219065
0!
#1220165
1!
#1221281
0!
#1221653
1!
#1222025
0!
#1223129
1!
#1224247
0!
#1224609
1!
#1224987
0!
#1226099
1!
#1226463
0!
#1227573
1!
#1228691
0!
#1229059
1!
#1230169
0!
#1230541
1!
#1230909
0!
#1232017
1!
#1232399
0!
#1233503
1!
#1233871
0!
#1234979
1!
#1235361
0!
#1236471
1!
#1237581
0!
#1237941
1!
#1239061
0!
#1239429
1!
#1239803
0!
#1240913
1!
#1242025
0!
#1242393
1!
#1242767
0!
#1243879
1!
#1244249
0!
#1245355
1!
#1246469
0!
#1246837
1!
#1247209
0!
#1258671
1!
#1259787
0!
#1260179
1!
#1261279
0!
#1261651
1!
#1262021
0!
#1263133
1!
#1263501
0!
#1264607
1!
#1264987
0!
#1266091
1!
#1266467
0!
#1267571
1!
#1268685
0!
#1269059
1!
#1269429
0!
#1270535
1!
#1271653
0!
#1272025
1!
#1272397
0!
#1273499
1!
#1273875
0!
#1274985
1!
#1276097
0!
#1276469
1!
#1277583
0!
#1277943
1!
#1278315
0!
#1279429
1!
#1279801
0!
#1280903
1!
#1281279
0!
#1282387
1!
#1282769
0!
#1283869
1!
#1284987
0!
#1285359
1!
#1286473
0!
#1286839
1!
#1287207
0!
#1288317
1!
#1289431
0!
#1289797
1!
#1290171
0!
#1291281
1!
#1291653
0!
#1292765
1!
#1293875
0!
#1294245
1!
#1294617
0!
#1306075
1!
#1306087
0!
#1306087
1!
#1307197
0!
#1307589
1!
#1308683
0!
#1309065
1!
#1309427
0!
#1310541
1!
#1310913
0!
#1312021
1!
#1312393
0!
#1313507
1!
#1313881
0!
#1314989
1!
#1316097
0!
#1316463
1!
#1316837
0!
#1317947
1!
#1319059
0!
#1319433
1!
#1319801
0!
#1320905
1!
#1321287
0!
#1322389
1!
#1323505
0!
#1323877
1!
#1324991
0!
#1325357
1!
#1325733
0!
#1326835
1!
#1327215
0!
#1328319
1!
#1328689
0!
#1329801
1!
#1330177
0!
#1331281
1!
#1332393
0!
#1332765
1!
#1333873
0!
#1334243
1!
#1334623
0!
#1335727
1!
#1337621
0!
#1337685
1!
#1337685
0!
#1337945
1!
#1338133
0!
#1338153
1!
#1338195
0!
#1338227
1!
#1338247
0!
#1338269
1!
#1338447
0!
#1338467
1!
#1339037
0!
#1339133
1!
#1339341
0!
#1339363
1!
#1339363
0!
#1339383
1!
#1339403
0!
#1339549
1!
#1339559
0!
#1339559
1!
#1339579
0!
#1339643
1!
#1339769
0!
#1339799
1!
#1339853
0!
#1339895
1!
#1339925
0!
#1339957
1!
#1342669
0!
#1342681
1!
#1342901
0!
#1342923
1!
#1346221
0!
#1346241
1!
#1351615
0!
#1353311
1!
#1354431
0!
#1354797
1!
#1355915
0!
#1356285
1!
#1356655
0!
#1357765
1!
#1358131
0!
#1359249
1!
#1359619
0!
#1360723
1!
#1361099
0!
#1362211
1!
#1363317
0!
#1363691
1!
#1364063
0!
#1365165
1!
#1366285
0!
#1366657
1!
#1367027
0!
#1368133
1!
#1368505
0!
#1369609
1!
#1370731
0!
#1371103
1!
#1372215
0!
#1372583
1!
#1372945
0!
#1374059
1!
#1374431
0!
#1375541
1!
#1375913
0!
#1377025
1!
#1377393
0!
#1378509
1!
#1379619
0!
#1379987
1!
#1381095
0!
#1381467
1!
#1381837
0!
#1382953
1!
#1384059
0!
#1384433
1!
#1384807
0!
#1385913
1!
#1386285
0!
#1387399
1!
#1388509
0!
#1388873
1!
#1389247
0!
#1400219
1!
#1400301
0!
#1400717
1!
#1401833
0!
#1402215
1!
#1403319
0!
#1403693
1!
#1404065
0!
#1405175
1!
#1405547
0!
#1406653
1!
#1407031
0!
#1408137
1!
#1408507
0!
#1409615
1!
#1410729
0!
#1411101
1!
#1411475
0!
#1412585
1!
#1413691
0!
#1414067
1!
#1414437
0!
#1415543
1!
#1415921
0!
#1417023
1!
#1418139
0!
#1418511
1!
#1419625
0!
#1419995
1!
#1420359
0!
#1421475
1!
#1421851
0!
#1422955
1!
#1423327
0!
#1424433
1!
#1424811
0!
#1425917
1!
#1427029
0!
#1427397
1!
#1428513
0!
#1428885
1!
#1429251
0!
#1430365
1!
#1431475
0!
#1431845
1!
#1432211
0!
#1433321
1!
#1433703
0!
#1434805
1!
#1435919
0!
#1436293
1!
#1436663
0!
#1448125
1!
#1449253
0!
#1449625
1!
#1450733
0!
#1451103
1!
#1451473
0!
#1452587
1!
#1452961
0!
#1454061
1!
#1454445
0!
#1455545
1!
#1455921
0!
#1457027
1!
#1458143
0!
#1458515
1!
#1458887
0!
#1459989
1!
#1461103
0!
#1461475
1!
#1461853
0!
#1462959
1!
#1463333
0!
#1464433
1!
#1464443
0!
#1464443
1!
#1465557
0!
#1465925
1!
#1467033
0!
#1467403
1!
#1467771
0!
#1468883
1!
#1469253
0!
#1470367
1!
#1470737
0!
#1471845
1!
#1472215
0!
#1473327
1!
#1474445
0!
#1474809
1!
#1475927
0!
#1476293
1!
#1476669
0!
#1477775
1!
#1478893
0!
#1479253
1!
#1479631
0!
#1480735
1!
#1481109
0!
#1482223
1!
#1483333
0!
#1483703
1!
#1484077
0!
#1486751
1!
#1496673
0!
#1497033
1!
#1498155
0!
#1498503
1!
#1498911
0!
#1499031
1!
#1499073
0!
#1499229
1!
#1499303
0!
#1499367
1!
#1499429
0!
#1499481
1!
#1501929
0!
#1501969
1!
#1502011
0!
#1502041
1!
#1502543
0!
#1502563
1!
#1502701
0!
#1502961
1!
#1503337
0!
#1504443
1!
#1505563
0!
#1505925
1!
#1506295
0!
#1507407
1!
#1508517
0!
#1508887
1!
#1509267
0!
#1510369
1!
