level1.vcd
$timescale 1 us $end
$scope module Homey $end
$var wire 1 ! Recording $end
$upscope $end
$enddefinitions $end
#0
1!
#15927
0!
#19941
1!
#19995
0!
#20367
1!
#20411
0!
#20687
1!
#20739
0!
#21117
1!
#21181
0!
#21715
1!
#21877
0!
#22083
1!
#22113
0!
#22341
1!
#22373
0!
#22427
1!
#22467
0!
#22487
1!
#22529
0!
#22663
1!
#22713
0!
#22765
1!
#22805
0!
#22857
1!
#22867
0!
#23261
1!
#23293
0!
#23353
1!
#23375
0!
#23405
1!
#23497
0!
#23581
1!
#23603
0!
#23645
1!
#23719
0!
#23761
1!
#23815
0!
#24171
1!
#24203
0!
#24283
1!
#24335
0!
#24387
1!
#24417
0!
#24447
1!
#24507
0!
#24809
1!
#24839
0!
#24901
1!
#24953
0!
#25015
1!
#25047
0!
#25181
1!
#25399
0!
#25431
1!
#25483
0!
#25569
1!
#25569
0!
#25623
1!
#25685
0!
#25727
1!
#25737
0!
#25737
1!
#25769
0!
#25949
1!
#26117
0!
#26149
1!
#42131
0!
#47653
1!
#47811
0!
#47823
1!
#47853
0!
#48055
1!
#48087
0!
#48233
1!
#48265
0!
#48357
1!
#48379
0!
#48431
1!
#48483
0!
#48585
1!
#48647
0!
#48699
1!
#48773
0!
#48933
1!
#48953
0!
#49025
1!
#49087
0!
#49129
1!
#49161
0!
#49181
1!
#49243
0!
#49325
1!
#49355
0!
#49417
1!
#49427
0!
#49437
1!
#49439
0!
#49459
1!
#49509
0!
#49625
1!
#49625
0!
#49687
1!
#49697
0!
#49697
1!
#49729
0!
#49811
1!
#49843
0!
#49897
1!
#49949
0!
#49981
1!
#50045
0!
#50077
1!
#50087
0!
#50087
1!
#50119
0!
#50191
1!
#50235
0!
#50329
1!
#50361
0!
#50381
1!
#50381
0!
#50515
1!
#50547
0!
#50679
1!
#50793
0!
#50857
1!
#50889
0!
#50943
1!
#50995
0!
#51017
1!
#51037
0!
#51131
1!
#51195
0!
#51237
1!
#51237
0!
#51333
1!
#51375
0!
#51429
1!
#51619
0!
#51653
1!
#52229
0!
#52345
1!
#52451
0!
#52491
1!
#52503
0!
#52545
1!
#52599
0!
#52619
1!
#52671
0!
#52671
1!
#52765
0!
#52797
1!
#52849
0!
#52871
1!
#52967
0!
#53041
1!
#53147
0!
#53241
1!
#53315
0!
#53335
1!
#53399
0!
#53481
1!
#53729
0!
#53771
1!
#54075
0!
#54085
1!
#54335
0!
#54427
1!
#54511
0!
#54545
1!
#54619
0!
#54639
1!
#54743
0!
#54773
1!
#54887
0!
#54937
1!
#55043
0!
#55147
1!
#55307
0!
#55411
1!
#55421
0!
#55463
1!
#55715
0!
#55757
1!
#55841
0!
#55885
1!
#55937
0!
#55979
1!
#55989
0!
#56041
1!
#56073
0!
#56105
1!
#56211
0!
#56331
1!
#56341
0!
#56361
1!
#56467
0!
#56541
1!
#56593
0!
#56669
1!
#56785
0!
#56837
1!
#56909
0!
#57003
1!
#57045
0!
#57109
1!
#57131
0!
#57235
1!
#57235
0!
#57339
1!
#57411
0!
#57443
1!
#58530
0!
#58920
1!
#60016
0!
#60398
1!
#60760
0!
#61874
1!
#62240
0!
#63356
1!
#63728
0!
#64830
1!
#65202
0!
#66312
1!
#67422
0!
#67796
1!
#68170
0!
#69280
1!
#70382
0!
#70754
1!
#71124
0!
#72232
1!
#72606
0!
#73714
1!
#74828
0!
#75196
1!
#76306
0!
#76680
1!
#77052
0!
#78156
1!
#78526
0!
#79638
1!
#80018
0!
#81118
1!
#81498
0!
#82604
1!
#83716
0!
#84078
1!
#85196
0!
#85558
1!
#85934
0!
#87038
1!
#88152
0!
#88520
1!
#89634
0!
#90006
1!
#90370
0!
#91486
1!
#91858
0!
#92956
1!
#93340
0!
#103554
1!
#105936
0!
#105968
1!
#106040
0!
#106060
1!
#106164
0!
#106186
1!
#107426
0!
#107488
1!
#107528
0!
#107578
1!
#107600
0!
#107692
1!
#108274
0!
#108368
1!
#108390
0!
#108422
1!
#108452
0!
#108726
1!
#108726
0!
#111470
1!
#113478
0!
#113498
1!
#115892
0!
#115904
1!
#115914
0!
#115914
1!
#116154
0!
#116176
1!
#117774
0!
#117898
1!
#117928
0!
#118096
1!
#118584
0!
#118626
1!
#118698
0!
#118916
1!
#119450
0!
#119600
1!
#119960
0!
#121072
1!
#122190
0!
#122556
1!
#123664
0!
#124036
1!
#124406
0!
#125514
1!
#125886
0!
#126992
1!
#127370
0!
#128476
1!
#128846
0!
#129954
1!
#131072
0!
#131440
1!
#132550
0!
#132912
1!
#133294
0!
#134396
1!
#135508
0!
#135880
1!
#136998
0!
#137356
1!
#137728
0!
#138846
1!
#139210
0!
#140324
1!
#140698
0!
#152152
1!
#153272
0!
#153652
1!
#154752
0!
#155132
1!
#155496
0!
#156604
1!
#156976
0!
#158094
1!
#158456
0!
#159570
1!
#159944
0!
#161046
1!
#162162
0!
#162530
1!
#162902
0!
#164006
1!
#165126
0!
#165488
1!
#165866
0!
#166968
1!
#167350
0!
#168456
1!
#169560
0!
#169932
1!
#171044
0!
#171418
1!
#171786
0!
#172892
1!
#173266
0!
#174376
1!
#174748
0!
#175858
1!
#176226
0!
#177332
1!
#178446
0!
#178818
1!
#179936
0!
#180302
1!
#180674
0!
#181774
1!
#182890
0!
#183262
1!
#184372
0!
#184742
1!
#185116
0!
#186224
1!
#186594
0!
#187698
1!
#188076
0!
#198674
1!
#198674
0!
#198706
1!
#198736
0!
#199496
1!
#200570
0!
#200960
1!
#202058
0!
#202432
1!
#202804
0!
#203920
1!
#204284
0!
#205396
1!
#205756
0!
#206868
1!
#207244
0!
#208356
1!
#209464
0!
#209838
1!
#210200
0!
#211312
1!
#212424
0!
#212798
1!
#213164
0!
#214270
1!
#214650
0!
#215754
1!
#216870
0!
#217232
1!
#218354
0!
#218718
1!
#219090
0!
#220194
1!
#220578
0!
#221678
1!
#222058
0!
#223164
1!
#223526
0!
#224638
1!
#225752
0!
#226126
1!
#227230
0!
#227602
1!
#227978
0!
#229084
1!
#230196
0!
#230560
1!
#231678
0!
#232048
1!
#232422
0!
#233518
1!
#233894
0!
#235008
1!
#235380
0!
#246830
1!
#247927
0!
#248309
1!
#249413
0!
#249783
1!
#250155
0!
#251263
1!
#251639
0!
#252739
1!
#253111
0!
#254223
1!
#270437
0!
#270521
1!
#270883
0!
#271993
1!
#273109
0!
#273473
1!
#274595
0!
#274955
1!
#275327
0!
#276433
1!
#277545
0!
#277917
1!
#279029
0!
#279395
1!
#279767
0!
#280881
1!
#281253
0!
#282355
1!
#282733
0!
#291503
1!
#291533
0!
#291755
1!
#291809
0!
#292417
1!
#292449
0!
#293233
1!
#294316
0!
#294686
1!
#295792
0!
#296164
1!
#296534
0!
#297644
1!
#298018
0!
#299128
1!
#299498
0!
#300606
1!
#300972
0!
#302078
1!
#303204
0!
#303564
1!
#303938
0!
#305042
1!
#306156
0!
#306528
1!
#306908
0!
#308004
1!
#308384
0!
#309490
1!
#310604
0!
#310970
1!
#312088
0!
#312452
1!
#312830
0!
#313932
1!
#314304
0!
#315412
1!
#315782
0!
#316890
1!
#317270
0!
#318370
1!
#319492
0!
#319858
1!
#320966
0!
#321338
1!
#321710
0!
#322812
1!
#323934
0!
#324294
1!
#325416
0!
#325776
1!
#326152
0!
#327252
1!
#327632
0!
#328734
1!
#329118
0!
#333660
1!
#333670
0!
#334072
1!
#334104
0!
#334672
1!
#334692
0!
#334838
1!
#334858
0!
#334940
1!
#334950
0!
#334950
1!
#334960
0!
#335588
1!
#335744
0!
#335848
1!
#335870
0!
#337012
1!
#337044
0!
#337590
1!
#337600
0!
#337950
1!
#339001
0!
#339357
1!
#340477
0!
#340821
1!
#341229
0!
#341495
1!
#341505
0!
#342311
1!
#342321
0!
#342321
1!
#342691
0!
#343795
1!
#344177
0!
#345275
1!
#345661
0!
#346757
1!
#347877
0!
#348241
1!
#348617
0!
#349731
1!
#350839
0!
#351201
1!
#351585
0!
#352693
1!
#353065
0!
#354165
1!
#355289
0!
#355645
1!
#356763
0!
#357135
1!
#357497
0!
#358615
1!
#358985
0!
#360091
1!
#360461
0!
#361573
1!
#361947
0!
#363055
1!
#364171
0!
#364531
1!
#365647
0!
#366011
1!
#366387
0!
#367491
1!
#368615
0!
#368975
1!
#370093
0!
#370461
1!
#370829
0!
#371931
1!
#372311
0!
#373419
1!
#373795
0!
#379081
1!
#379103
0!
#379357
1!
#379379
0!
#379483
1!
#379525
0!
#379991
1!
#380195
0!
#380617
1!
#380637
0!
#381125
1!
#381145
0!
#382005
1!
#382027
0!
#382429
1!
#382461
0!
#383261
1!
#384334
0!
#384704
1!
#385824
0!
#386184
1!
#386562
0!
#387668
1!
#388040
0!
#389142
1!
#389526
0!
#390632
1!
#391002
0!
#392112
1!
#393230
0!
#393586
1!
#393966
0!
#395068
1!
#396190
0!
#396556
1!
#396926
0!
#398038
1!
#398404
0!
#399514
1!
#416172
0!
#417286
1!
#417654
0!
#418766
1!
#419138
0!
#423894
1!
#423936
0!
#424070
1!
#424142
0!
#424266
1!
#424296
0!
#424760
1!
#424792
0!
#425240
1!
#425272
0!
#425326
1!
#425368
0!
#425444
1!
#425464
0!
#425666
1!
#425678
0!
#425678
1!
#425740
0!
#426216
1!
#426270
0!
#426714
1!
#426734
0!
#426976
1!
#426998
0!
#427432
1!
#427444
0!
#428844
1!
#429963
0!
#430313
1!
#431433
0!
#431807
1!
#432175
0!
#433281
1!
#433653
0!
#434761
1!
#435139
0!
#436239
1!
#436613
0!
#437713
1!
#438837
0!
#439197
1!
#439577
0!
#440685
1!
#441799
0!
#442165
1!
#442541
0!
#443651
1!
#444025
0!
#445123
1!
#446235
0!
#446609
1!
#447723
0!
#448095
1!
#448463
0!
#449573
1!
#449943
0!
#451053
1!
#451427
0!
#452525
1!
#452909
0!
#454017
1!
#455133
0!
#455495
1!
#456609
0!
#456967
1!
#457349
0!
#458453
1!
#459571
0!
#459933
1!
#461053
0!
#461415
1!
#461791
0!
#462891
1!
#463269
0!
#464381
1!
#464753
0!
#468743
1!
#468765
0!
#468785
1!
#468827
0!
#468837
1!
#468847
0!
#468847
1!
#468857
0!
#469177
1!
#469197
0!
#469427
1!
#469449
0!
#469909
1!
#469919
0!
#470125
1!
#470135
0!
#470135
1!
#470157
0!
#470459
1!
#470883
0!
#470883
1!
#470927
0!
#470959
1!
#470991
0!
#471001
1!
#471001
0!
#471033
1!
#471075
0!
#471139
1!
#471351
0!
#471383
1!
#471661
0!
#471671
1!
#471723
0!
#471849
1!
#471859
0!
#471923
1!
#471985
0!
#472071
1!
#472521
0!
#472739
1!
#473051
0!
#473111
1!
#474188
0!
#474562
1!
#475668
0!
#476048
1!
#476410
0!
#477526
1!
#477902
0!
#479002
1!
#479376
0!
#480490
1!
#480860
0!
#481968
1!
#483084
0!
#483444
1!
#483824
0!
#484930
1!
#486044
0!
#486412
1!
#486786
0!
#487888
1!
#488262
0!
#489368
1!
#490478
0!
#490856
1!
#491970
0!
#492334
1!
#492712
0!
#493808
1!
#494182
0!
#495290
1!
#495670
0!
#496776
1!
#497144
0!
#498256
1!
#499374
0!
#499742
1!
#500854
0!
#501224
1!
#501588
0!
#502700
1!
#503816
0!
#504180
1!
#505292
0!
#505654
1!
#506038
0!
#507140
1!
#507520
0!
#508622
1!
#508622
0!
#516290
1!
#516300
0!
#516492
1!
#516512
0!
#516810
1!
#516820
0!
#516820
1!
#516840
0!
#517080
1!
#517112
0!
#517562
1!
#517584
0!
#517762
1!
#517772
0!
#518034
1!
#518066
0!
#519122
1!
#519154
0!
#519810
1!
#520909
0!
#521283
1!
#522387
0!
#522765
1!
#523127
0!
#524235
1!
#524605
0!
#525719
1!
#526099
0!
#527199
1!
#527579
0!
#528677
1!
#529795
0!
#530159
1!
#530533
0!
#531639
1!
#532759
0!
#533123
1!
#533497
0!
#534597
1!
#534607
0!
#534607
1!
#534981
0!
#536087
1!
#537201
0!
#537561
1!
#538687
0!
#539045
1!
#539421
0!
#540531
1!
#540905
0!
#542009
1!
#542385
0!
#543491
1!
#543865
0!
#544967
1!
#561283
0!
#567169
1!
#568287
0!
#568671
1!
#569771
0!
#570145
1!
#570521
0!
#571629
1!
#572003
0!
#573111
1!
#573483
0!
#574591
1!
#574961
0!
#576065
1!
#577183
0!
#577547
1!
#577927
0!
#579027
1!
#580141
0!
#580511
1!
#580883
0!
#581991
1!
#582365
0!
#583477
1!
#584589
0!
#584957
1!
#586071
0!
#586433
1!
#586807
0!
#587921
1!
#588291
0!
#589395
1!
#589771
0!
#590869
1!
#591259
0!
#592355
1!
#593473
0!
#593843
1!
#594949
0!
#595323
1!
#595695
0!
#596801
1!
#597919
0!
#598283
1!
#599397
0!
#599767
1!
#600139
0!
#601243
1!
#601617
0!
#602723
1!
#603099
0!
#610313
1!
#611418
0!
#611790
1!
#612904
0!
#613272
1!
#613642
0!
#614750
1!
#615120
0!
#616236
1!
#616604
0!
#617716
1!
#618088
0!
#619194
1!
#620308
0!
#620672
1!
#621046
0!
#622160
1!
#623274
0!
#623632
1!
#624018
0!
#625120
1!
#625492
0!
#626602
1!
#627710
0!
#628082
1!
#629196
0!
#629558
1!
#629930
0!
#631038
1!
#631420
0!
#632526
1!
#632894
0!
#634008
1!
#634382
0!
#635480
1!
#636600
0!
#636972
1!
#638078
0!
#638450
1!
#638820
0!
#639926
1!
#641048
0!
#641412
1!
#642528
0!
#642892
1!
#643266
0!
#644372
1!
#644746
0!
#645852
1!
#646224
0!
#653706
1!
#653788
0!
#654340
1!
#654352
0!
#654936
1!
#654936
0!
#655154
1!
#655164
0!
#655682
1!
#655682
0!
#655978
1!
#655998
0!
#656092
1!
#656126
0!
#656546
1!
#656588
0!
#657112
1!
#657132
0!
#657174
1!
#657206
0!
#657414
1!
#658493
0!
#658873
1!
#659977
0!
#660351
1!
#660723
0!
#661825
1!
#662207
0!
#663305
1!
#663689
0!
#664791
1!
#665165
0!
#666265
1!
#667387
0!
#667753
1!
#668129
0!
#669233
1!
#670343
0!
#670719
1!
#671091
0!
#672195
1!
#672567
0!
#673673
1!
#674791
0!
#675155
1!
#676267
0!
#676643
1!
#677017
0!
#678121
1!
#678489
0!
#679595
1!
#679977
0!
#681075
1!
#681453
0!
#682557
1!
#683679
0!
#684039
1!
#685161
0!
#685521
1!
#685899
0!
#687005
1!
#688123
0!
#688487
1!
#689597
0!
#689965
1!
#690343
0!
#691449
1!
#691821
0!
#691865
1!
#708115
0!
#709223
1!
#709595
0!
#710703
1!
#711071
0!
#712177
1!
#712555
0!
#713663
1!
#714783
0!
#715141
1!
#715513
0!
#716627
1!
#717739
0!
#718111
1!
#718481
0!
#719585
1!
#719965
0!
#721069
1!
#722179
0!
#722539
1!
#723659
0!
#724025
1!
#724405
0!
#725507
1!
#725879
0!
#726989
1!
#727371
0!
#728471
1!
#728853
0!
#729957
1!
#731069
0!
#731441
1!
#732551
0!
#732921
1!
#733291
0!
#734399
1!
#735515
0!
#735877
1!
#736991
0!
#737367
1!
#737733
0!
#738837
1!
#739219
0!
#740317
1!
#740697
0!
#748453
1!
#748473
0!
#749497
1!
#749529
0!
#750359
1!
#750381
0!
#750897
1!
#750897
0!
#750961
1!
#750961
0!
#751851
1!
#752942
0!
#753324
1!
#754430
0!
#754800
1!
#755170
0!
#756282
1!
#756648
0!
#757762
1!
#758132
0!
#759242
1!
#759608
0!
#760722
1!
#761836
0!
#762200
1!
#762570
0!
#763676
1!
#764802
0!
#765160
1!
#765540
0!
#766640
1!
#767024
0!
#768130
1!
#769242
0!
#769604
1!
#770720
0!
#771094
1!
#771462
0!
#772570
1!
#772942
0!
#774048
1!
#774422
0!
#775532
1!
#775904
0!
#777010
1!
#778128
0!
#778498
1!
#779612
0!
#779976
1!
#780348
0!
#781448
1!
#782574
0!
#782936
1!
#784048
0!
#784422
1!
#784796
0!
#785896
1!
#786276
0!
#787386
1!
#787754
0!
#794566
1!
#794598
0!
#796516
1!
#796546
0!
#796664
1!
#796728
0!
#796908
1!
#796930
0!
#797100
1!
#797120
0!
#798496
1!
#798526
0!
#799138
1!
#799148
0!
#799212
1!
#800283
0!
#800653
1!
#801767
0!
#802127
1!
#802513
0!
#803611
1!
#803991
0!
#805091
1!
#805475
0!
#806579
1!
#806953
0!
#808061
1!
#809175
0!
#809541
1!
#809915
0!
#811019
1!
#812133
0!
#812505
1!
#812879
0!
#813987
1!
#814357
0!
#815467
1!
#816573
0!
#816949
1!
#818061
0!
#818429
1!
#818805
0!
#819905
1!
#820287
0!
#821385
1!
#821761
0!
#822865
1!
#823247
0!
#824353
1!
#825469
0!
#825833
1!
#826945
0!
#827317
1!
#827691
0!
#828797
1!
#829911
0!
#830275
1!
#831397
0!
#831757
1!
#832131
0!
#833235
1!
#833617
0!
#834723
1!
#835093
0!
#842309
1!
#842319
0!
#842499
1!
#859533
0!
#859893
1!
#860267
0!
#861387
1!
#861745
0!
#862857
1!
#863981
0!
#864341
1!
#865457
0!
#865827
1!
#866197
0!
#867305
1!
#867675
0!
#868781
1!
#869155
0!
#870267
1!
#870639
0!
#871749
1!
#872863
0!
#873231
1!
#874345
0!
#874713
1!
#875083
0!
#876189
1!
#877309
0!
#877671
1!
#878785
0!
#879149
1!
#879523
0!
#880635
1!
#881015
0!
#882113
1!
#882493
0!
#890077
1!
#890109
0!
#890561
1!
#890593
0!
#890985
1!
#890995
0!
#890995
1!
#891017
0!
#891177
1!
#891207
0!
#892247
1!
#892257
0!
#892375
1!
#892385
0!
#892521
1!
#892553
0!
#893635
1!
#893655
0!
#893787
1!
#893809
0!
#893933
1!
#895012
0!
#895390
1!
#896488
0!
#896868
1!
#897242
0!
#898342
1!
#898724
0!
#899830
1!
#900202
0!
#901306
1!
#901680
0!
#902790
1!
#903902
0!
#904272
1!
#904640
0!
#905748
1!
#906866
0!
#907234
1!
#907604
0!
#908716
1!
#909090
0!
#910200
1!
#911318
0!
#911678
1!
#912790
0!
#913158
1!
#913530
0!
#914638
1!
#915020
0!
#916114
1!
#916494
0!
#917602
1!
#917974
0!
#919084
1!
#920192
0!
#920564
1!
#921672
0!
#922046
1!
#922418
0!
#923524
1!
#924644
0!
#924996
1!
#926124
0!
#926484
1!
#926864
0!
#927966
1!
#928340
0!
#929452
1!
#929824
0!
#934130
1!
#934162
0!
#934204
1!
#934236
0!
#935036
1!
#935056
0!
#935232
1!
#935284
0!
#935664
1!
#935716
0!
#935896
1!
#935916
0!
#936138
1!
#936254
0!
#936308
1!
#936404
0!
#936508
1!
#936550
0!
#936646
1!
#936690
0!
#936890
1!
#936974
0!
#937026
1!
#937026
0!
#937046
1!
#937078
0!
#937150
1!
#937430
0!
#937546
1!
#937694
0!
#937704
1!
#937704
0!
#937726
1!
#938226
0!
#938258
1!
#938290
0!
#938352
1!
#938736
0!
#938832
1!
#938874
0!
#938950
1!
#939014
0!
#939088
1!
#939130
0!
#939204
1!
#939236
0!
#939246
1!
#939878
0!
#939920
1!
#940004
0!
#940068
1!
#940742
0!
#940772
1!
#940990
0!
#941032
1!
#942274
0!
#942646
1!
#943760
0!
#944126
1!
#944498
0!
#945612
1!
#945974
0!
#947086
1!
#947468
0!
#948568
1!
#948940
0!
#950048
1!
#951164
0!
#951532
1!
#951914
0!
#953012
1!
#954128
0!
#954500
1!
#954874
0!
#955970
1!
#956352
0!
#957450
1!
#958576
0!
#958934
1!
#960052
0!
#960424
1!
#960800
0!
#961904
1!
#962276
0!
#963386
1!
#963760
0!
#964860
1!
#965238
0!
#966342
1!
#967458
0!
#967832
1!
#968936
0!
#969306
1!
#969684
0!
#970788
1!
#971912
0!
#972266
1!
#973388
0!
#973748
1!
#974122
0!
#975238
1!
#975610
0!
#976716
1!
#977090
0!
#983252
1!
#983294
0!
#983334
1!
#983354
0!
#983642
1!
#983714
0!
#983734
1!
#983756
0!
#983862
1!
#983914
0!
#983994
1!
#984056
0!
#984078
1!
#984108
0!
#984288
1!
#984414
0!
#984458
1!
#984510
0!
#984542
1!
#984596
0!
#984668
1!
#985080
0!
#985080
1!
#985112
0!
#985154
1!
#985648
0!
#985678
1!
#985678
0!
#985740
1!
#985780
0!
#985812
1!
#985892
0!
#985934
1!
#986474
0!
#986496
1!
#986622
0!
#986760
1!
#986854
0!
#987266
1!
#987286
0!
#987340
1!
#987372
0!
#987402
1!
#987414
0!
#987486
1!
#987528
0!
#987572
1!
#987668
0!
#987712
1!
#987712
0!
#987732
1!
#987754
0!
#987784
1!
#987848
0!
#988090
1!
#988132
0!
#988172
1!
#989267
0!
#989647
1!
#990755
0!
#991129
1!
#991497
0!
#992605
1!
#1009269
0!
#1010379
1!
#1010761
0!
#1011861
1!
#1012233
0!
#1013337
1!
#1014465
0!
#1014821
1!
#1015941
0!
#1016301
1!
#1016683
0!
#1017785
1!
#1018907
0!
#1019271
1!
#1020383
0!
#1020749
1!
#1021121
0!
#1022229
1!
#1022605
0!
#1023717
1!
#1024089
0!
#1035547
1!
#1036636
0!
#1037008
1!
#1038120
0!
#1038490
1!
#1038862
0!
#1039974
1!
#1040338
0!
#1041450
1!
#1041820
0!
#1042930
1!
#1043308
0!
#1044414
1!
#1045526
0!
#1045890
1!
#1046262
0!
#1047378
1!
#1048486
0!
#1048856
1!
#1049228
0!
#1050340
1!
#1050708
0!
#1051816
1!
#1052928
0!
#1053298
1!
#1054414
0!
#1054776
1!
#1055158
0!
#1056266
1!
#1056636
0!
#1057748
1!
#1058122
0!
#1059226
1!
#1059596
0!
#1060706
1!
#1061820
0!
#1062182
1!
#1063308
0!
#1063668
1!
#1064046
0!
#1065150
1!
#1066262
0!
#1066636
1!
#1067748
0!
#1068120
1!
#1068484
0!
#1069594
1!
#1069968
0!
#1071074
1!
#1071448
0!
#1076490
1!
#1076530
0!
#1077054
1!
#1077096
0!
#1077180
1!
#1077202
0!
#1077444
1!
#1077486
0!
#1077528
1!
#1077624
0!
#1077666
1!
#1077678
0!
#1077730
1!
#1077740
0!
#1077836
1!
#1077836
0!
#1077888
1!
#1077910
0!
#1077962
1!
#1078036
0!
#1078088
1!
#1078110
0!
#1078164
1!
#1078196
0!
#1078258
1!
#1078290
0!
#1078418
1!
#1078418
0!
#1078652
1!
#1078652
0!
#1078662
1!
#1079126
0!
#1079208
1!
#1079564
0!
#1079574
1!
#1079724
0!
#1079796
1!
#1079952
0!
#1079974
1!
#1080078
0!
#1080100
1!
#1080174
0!
#1080216
1!
#1080292
0!
#1080312
1!
#1080830
0!
#1080882
1!
#1081104
0!
#1081146
1!
#1081318
0!
#1081424
1!
#1081572
0!
#1081582
1!
#1082677
0!
#1083057
1!
#1084171
0!
#1084531
1!
#1084907
0!
#1086011
1!
#1086393
0!
#1087493
1!
#1087875
0!
#1088973
1!
#1089353
0!
#1090457
1!
#1091567
0!
#1091943
1!
#1092315
0!
#1093419
1!
#1094537
0!
#1094899
1!
#1095281
0!
#1096383
1!
#1096759
0!
#1097855
1!
#1098983
0!
#1099345
1!
#1100459
0!
#1100831
1!
#1101201
0!
#1102309
1!
#1102689
0!
#1103793
1!
#1104165
0!
#1105267
1!
#1105647
0!
#1106759
1!
#1107873
0!
#1108233
1!
#1109347
0!
#1109715
1!
#1110093
0!
#1111193
1!
#1112307
0!
#1112681
1!
#1113795
0!
#1114165
1!
#1114539
0!
#1115645
1!
#1116019
0!
#1117125
1!
#1117499
0!
#1123641
1!
#1123797
0!
#1127843
1!
#1127855
0!
#1128929
1!
#1130020
0!
#1130402
1!
#1131506
0!
#1131876
1!
#1132250
0!
#1133354
1!
#1133730
0!
#1134838
1!
#1135210
0!
#1136316
1!
#1136696
0!
#1137792
1!
#1138916
0!
#1139278
1!
#1139654
0!
#1140758
1!
#1141876
0!
#1142246
1!
#1159656
0!
#1160020
1!
#1161138
0!
#1161500
1!
#1161874
0!
#1162984
1!
#1163354
0!
#1164466
1!
#1164844
0!
#1172614
1!
#1172626
0!
#1174022
1!
#1174032
0!
#1176296
1!
#1177371
0!
#1177755
1!
#1178863
0!
#1179235
1!
#1179607
0!
#1180713
1!
#1181087
0!
#1182195
1!
#1182569
0!
#1183675
1!
#1184049
0!
#1185151
1!
#1186267
0!
#1186637
1!
#1187015
0!
#1188115
1!
#1189245
0!
#1189599
1!
#1189983
0!
#1191081
1!
#1191453
0!
#1192555
1!
#1193675
0!
#1194037
1!
#1195165
0!
#1195527
1!
#1195897
0!
#1196995
1!
#1197385
0!
#1198485
1!
#1198865
0!
#1199965
1!
#1200345
0!
#1201449
1!
#1202563
0!
#1202935
1!
#1204049
0!
#1204407
1!
#1204789
0!
#1205897
1!
#1207007
0!
#1207367
1!
#1208495
0!
#1208859
1!
#1209235
0!
#1210341
1!
#1210713
0!
#1211817
1!
#1212191
0!
#1221387
1!
#1221409
0!
#1223165
1!
#1223271
0!
#1223649
1!
#1224750
0!
#1225116
1!
#1226234
0!
#1226594
1!
#1226970
0!
#1228084
1!
#1228456
0!
#1229554
1!
#1229928
0!
#1231034
1!
#1231416
0!
#1232522
1!
#1233632
0!
#1234004
1!
#1234378
0!
#1235488
1!
#1236598
0!
#1236960
1!
#1237334
0!
#1238448
1!
#1238818
0!
#1239922
1!
#1241042
0!
#1241406
1!
#1242524
0!
#1242896
1!
#1243264
0!
#1244374
1!
#1244748
0!
#1245858
1!
#1246230
0!
#1247330
1!
#1247710
0!
#1248814
1!
#1249928
0!
#1250298
1!
#1251412
0!
#1251778
1!
#1251778
0!
#1252160
1!
#1253274
0!
#1253636
1!
#1254750
0!
#1255124
1!
#1255494
0!
#1256600
1!
#1256986
0!
#1258082
1!
#1258460
0!
#1265370
1!
#1265570
0!
#1269906
1!
#1270991
0!
#1271373
1!
#1272477
0!
#1272845
1!
#1273219
0!
#1274333
1!
#1274699
0!
#1275809
1!
#1276183
0!
#1277287
1!
#1277669
0!
#1278767
1!
#1279891
0!
#1280257
1!
#1280627
0!
#1281741
1!
#1282853
0!
#1283219
1!
#1283593
0!
#1284701
1!
#1285067
0!
#1286177
1!
#1287291
0!
#1287659
1!
#1288779
0!
#1289139
1!
#1289519
0!
#1290619
1!
#1290999
0!
#1292099
1!
#1292481
0!
#1292535
1!
#1308457
0!
#1316479
1!
#1317548
0!
#1317930
1!
#1319038
0!
#1319398
1!
#1319770
0!
#1320884
1!
#1321256
0!
#1322366
1!
#1322736
0!
#1323850
1!
#1324212
0!
#1325328
1!
#1326446
0!
#1326808
1!
#1327180
0!
#1328290
1!
#1329404
0!
#1329774
1!
#1330146
0!
#1331250
1!
#1331622
0!
#1332736
1!
#1333846
0!
#1334216
1!
#1335334
0!
#1335694
1!
#1336070
0!
#1337176
1!
#1337550
0!
#1338658
1!
#1339038
0!
#1340144
1!
#1340514
0!
#1341620
1!
#1342742
0!
#1343108
1!
#1344220
0!
#1344588
1!
#1344968
0!
#1346068
1!
#1347190
0!
#1347554
1!
#1348668
0!
#1349028
1!
#1349402
0!
#1350512
1!
#1350882
0!
#1351998
1!
#1352372
0!
#1359088
1!
#1359130
0!
#1359940
1!
#1359972
0!
#1360044
1!
#1360088
0!
#1360108
1!
#1360174
0!
#1360216
1!
#1360226
0!
#1363164
1!
#1363174
0!
#1363832
1!
#1364931
0!
#1365303
1!
#1366417
0!
#1366775
1!
#1367155
0!
#1368261
1!
#1368639
0!
#1369741
1!
#1370115
0!
#1371223
1!
#1371605
0!
#1372703
1!
#1373819
0!
#1374187
1!
#1374567
0!
#1375671
1!
#1376787
0!
#1377151
1!
#1377527
0!
#1378631
1!
#1379005
0!
#1380109
1!
#1381225
0!
#1381597
1!
#1382709
0!
#1383081
1!
#1383451
0!
#1384561
1!
#1384937
0!
#1386039
1!
#1386411
0!
#1387521
1!
#1387901
0!
#1389003
1!
#1390117
0!
#1390479
1!
#1391597
0!
#1391971
1!
#1392335
0!
#1393451
1!
#1394565
0!
#1394925
1!
#1396045
0!
#1396415
1!
#1396785
0!
#1397893
1!
#1398275
0!
#1399373
1!
#1399745
0!
#1406997
1!
#1407049
0!
#1409895
1!
#1409905
0!
#1411219
1!
#1412308
0!
#1412686
1!
#1413796
0!
#1414154
1!
#1414526
0!
#1415636
1!
#1416012
0!
#1417122
1!
#1417492
0!
#1418600
1!
#1418978
0!
#1420080
1!
#1421198
0!
#1421570
1!
#1421942
0!
#1423046
1!
#1424160
0!
#1424530
1!
#1424900
0!
#1426006
1!
#1426384
0!
#1427492
1!
#1428608
0!
#1428976
1!
#1430088
0!
#1430458
1!
#1430832
0!
#1431932
1!
#1432314
0!
#1433416
1!
#1433794
0!
#1434902
1!
#1435274
0!
#1436376
1!
#1437500
0!
#1437864
1!
#1438976
0!
#1439346
1!
#1439716
0!
#1440828
1!
#1441940
0!
#1442310
1!
#1459716
0!
#1460088
1!
#1461206
0!
#1461562
1!
#1461944
0!
#1463048
1!
#1463426
0!
#1464530
1!
#1464912
0!
#1466018
1!
#1466384
0!
#1467492
1!
#1468608
0!
#1468974
1!
#1469344
0!
#1470454
1!
#1471570
0!
#1471942
1!
#1472312
0!
#1473424
1!
#1473792
0!
#1474902
1!
#1476024
0!
#1476380
1!
#1477504
0!
#1477858
1!
#1478244
0!
#1479336
1!
#1479720
0!
#1480828
1!
#1481200
0!
#1482314
1!
#1482688
0!
#1483798
1!
#1484906
0!
#1485280
1!
#1486386
0!
#1486758
1!
#1487132
0!
#1488232
1!
#1489356
0!
#1489718
1!
#1490834
0!
#1491204
1!
#1491576
0!
#1492680
1!
#1493060
0!
#1494164
1!
#1494544
0!
#1500358
1!
#1500378
0!
#1500522
1!
#1500564
0!
#1501294
1!
#1501304
0!
#1501304
1!
#1501324
0!
#1501388
1!
#1501400
0!
#1501496
1!
#1501518
0!
#1501570
1!
#1501600
0!
#1501632
1!
#1501830
0!
#1501892
1!
#1501924
0!
#1502864
1!
#1502874
0!
#1504044
1!
