level5.vcd
$timescale 1 us $end
$scope module Homey $end
$var wire 1 ! Recording $end
$upscope $end
$enddefinitions $end
#0
1!
#16021
0!
#22463
1!
#22473
0!
#23633
1!
#23633
0!
#25813
1!
#25843
0!
#26105
1!
#26127
0!
#26877
1!
#26889
0!
#27595
1!
#43514
0!
#50132
1!
#50174
0!
#51074
1!
#51096
0!
#51264
1!
#51296
0!
#51370
1!
#51392
0!
#51638
1!
#51668
0!
#51930
1!
#51940
0!
#52036
1!
#52046
0!
#54670
1!
#54692
0!
#54846
1!
#54878
0!
#54942
1!
#54952
0!
#55426
1!
#55478
0!
#56274
1!
#56286
0!
#57122
1!
#57164
0!
#57616
1!
#57648
0!
#58028
1!
#58060
0!
#59548
1!
#59558
0!
#60022
1!
#60064
0!
#60550
1!
#60656
0!
#60752
1!
#60792
0!
#61830
1!
#61842
0!
#61892
1!
#61914
0!
#62068
1!
#62098
0!
#62326
1!
#62338
0!
#63000
1!
#63010
0!
#63814
1!
#63824
0!
#63824
1!
#63866
0!
#64060
1!
#64092
0!
#65384
1!
#66479
0!
#66859
1!
#67957
0!
#68333
1!
#68701
0!
#69813
1!
#70187
0!
#71297
1!
#71665
0!
#72773
1!
#73145
0!
#74259
1!
#75373
0!
#75737
1!
#76111
0!
#77213
1!
#78329
0!
#78693
1!
#79065
0!
#80173
1!
#80555
0!
#81661
1!
#82771
0!
#83141
1!
#84249
0!
#84617
1!
#84991
0!
#86103
1!
#86475
0!
#87577
1!
#87949
0!
#89059
1!
#89437
0!
#90541
1!
#91655
0!
#92019
1!
#93137
0!
#93509
1!
#93873
0!
#94981
1!
#96101
0!
#96463
1!
#96845
0!
#97941
1!
#99055
0!
#99433
1!
#99803
0!
#100909
1!
#101275
0!
#109069
1!
#109111
0!
#109207
1!
#125662
0!
#126042
1!
#126402
0!
#127516
1!
#127894
0!
#128996
1!
#130112
0!
#130476
1!
#131592
0!
#131958
1!
#132336
0!
#133434
1!
#133814
0!
#134918
1!
#135296
0!
#136400
1!
#136774
0!
#137880
1!
#138996
0!
#139360
1!
#140472
0!
#140838
1!
#141214
0!
#142332
1!
#143438
0!
#143800
1!
#144174
0!
#145280
1!
#146400
0!
#146762
1!
#147130
0!
#148246
1!
#148622
0!
#153760
1!
#154877
0!
#155239
1!
#156351
0!
#156723
1!
#157093
0!
#158199
1!
#158583
0!
#159671
1!
#160063
0!
#161153
1!
#161533
0!
#162635
1!
#163753
0!
#164115
1!
#164495
0!
#165603
1!
#166717
0!
#167089
1!
#167461
0!
#168561
1!
#168939
0!
#170045
1!
#171159
0!
#171527
1!
#172643
0!
#173005
1!
#173381
0!
#174483
1!
#174865
0!
#175965
1!
#176349
0!
#177447
1!
#177829
0!
#178925
1!
#180051
0!
#180403
1!
#181531
0!
#181891
1!
#182265
0!
#183361
1!
#184491
0!
#184853
1!
#185233
0!
#186329
1!
#187455
0!
#187815
1!
#188187
0!
#189285
1!
#189671
0!
#190559
1!
#190601
0!
#190663
1!
#190697
0!
#191121
1!
#191175
0!
#191569
1!
#191631
0!
#191747
1!
#191789
0!
#191965
1!
#191997
0!
#192191
1!
#192287
0!
#192297
1!
#192329
0!
#193263
1!
#193389
0!
#193671
1!
#193765
0!
#193787
1!
#193827
0!
#193859
1!
#193933
0!
#193965
1!
#193995
0!
#194133
1!
#194761
0!
#194771
1!
#194959
0!
#195001
1!
#195377
0!
#195459
1!
#195501
0!
#195551
1!
#195593
0!
#195625
1!
#195739
0!
#195781
1!
#195793
0!
#195867
1!
#195943
0!
#196039
1!
#196183
0!
#196203
1!
#196481
0!
#196687
1!
#196773
0!
#196803
1!
#197217
0!
#197229
1!
#197355
0!
#197375
1!
#198341
0!
#198373
1!
#198557
0!
#198639
1!
#198679
0!
#198719
1!
#198729
0!
#198729
1!
#198959
0!
#199033
1!
#199105
0!
#199115
1!
#199159
0!
#199169
1!
#199263
0!
#199285
1!
#199391
0!
#199433
1!
#199679
0!
#199751
1!
#199823
0!
#199917
1!
#199949
0!
#199979
1!
#200011
0!
#200125
1!
#200207
0!
#200269
1!
#200309
0!
#200359
1!
#200493
0!
#200535
1!
#200691
0!
#200733
1!
#201764
0!
#202114
1!
#203238
0!
#203380
1!
#203392
0!
#203476
1!
#203498
0!
#203594
1!
#203976
0!
#205078
1!
#205462
0!
#205516
1!
#205526
0!
#205930
1!
#205962
0!
#206544
1!
#206944
0!
#208038
1!
#208418
0!
#208592
1!
#208644
0!
#208882
1!
#208894
0!
#209508
1!
#210646
0!
#210990
1!
#211376
0!
#212400
1!
#212412
0!
#212474
1!
#213596
0!
#213958
1!
#214346
0!
#215438
1!
#215448
0!
#215448
1!
#215826
0!
#216924
1!
#218046
0!
#218388
1!
#219536
0!
#219878
1!
#220304
0!
#220412
1!
#220444
0!
#221362
1!
#221754
0!
#222842
1!
#223238
0!
#224156
1!
#224186
0!
#224314
1!
#224708
0!
#225810
1!
#226930
0!
#227278
1!
#228426
0!
#228762
1!
#229160
0!
#229788
1!
#229820
0!
#230080
1!
#230110
0!
#230252
1!
#231368
0!
#231732
1!
#232114
0!
#233202
1!
#234364
0!
#234688
1!
#234688
0!
#235286
1!
#235296
0!
#235296
1!
#235328
0!
#235566
1!
#235596
0!
#236122
1!
#236514
0!
#238224
1!
#238460
0!
#238502
1!
#238522
0!
#238574
1!
#238626
0!
#238712
1!
#238818
0!
#238868
1!
#239983
0!
#240341
1!
#241473
0!
#241831
1!
#242205
0!
#243289
1!
#243709
0!
#244225
1!
#260279
0!
#261099
1!
#261435
0!
#262563
1!
#262929
0!
#264043
1!
#265153
0!
#265517
1!
#266635
0!
#267005
1!
#267377
0!
#268463
1!
#269599
0!
#269949
1!
#270345
0!
#271439
1!
#272559
0!
#272911
1!
#273301
0!
#273365
1!
#273385
0!
#274401
1!
#274791
0!
#277111
1!
#277131
0!
#277205
1!
#277269
0!
#277625
1!
#277645
0!
#277697
1!
#277751
0!
#277849
1!
#277871
0!
#277933
1!
#278009
0!
#278083
1!
#278147
0!
#278147
1!
#278169
0!
#278253
1!
#278317
0!
#278379
1!
#278421
0!
#278453
1!
#278507
0!
#278571
1!
#278613
0!
#278707
1!
#278771
0!
#278793
1!
#278857
0!
#278879
1!
#278889
0!
#278889
1!
#278911
0!
#279017
1!
#279429
0!
#279451
1!
#279557
0!
#279567
1!
#279577
0!
#279577
1!
#279577
0!
#279745
1!
#279819
0!
#279883
1!
#279947
0!
#279999
1!
#280053
0!
#280125
1!
#280189
0!
#280253
1!
#280275
0!
#280339
1!
#280383
0!
#280445
1!
#280477
0!
#280489
1!
#280627
0!
#280659
1!
#280691
0!
#280733
1!
#281075
0!
#281137
1!
#281827
0!
#281887
1!
#281959
0!
#281999
1!
#282103
0!
#282155
1!
#282237
0!
#282277
1!
#282287
0!
#282361
1!
#282391
0!
#282413
1!
#283321
0!
#283341
1!
#283351
0!
#283445
1!
#283477
0!
#283673
1!
#283703
0!
#283765
1!
#283785
0!
#283857
1!
#283919
0!
#284013
1!
#284105
0!
#284165
1!
#284229
0!
#284293
1!
#284293
0!
#284367
1!
#284537
0!
#284579
1!
#284663
0!
#284695
1!
#285137
0!
#285179
1!
#285189
0!
#285233
1!
#285285
0!
#285391
1!
#285421
0!
#285433
1!
#285643
0!
#285653
1!
#285663
0!
#285663
1!
#285685
0!
#285757
1!
#285819
0!
#285961
1!
#285983
0!
#286045
1!
#286065
0!
#286127
1!
#287263
0!
#287623
1!
#288741
0!
#289025
1!
#289501
0!
#289741
1!
#289751
0!
#290011
1!
#290051
0!
#290227
1!
#290267
0!
#290581
1!
#290971
0!
#291775
1!
#291795
0!
#292047
1!
#292447
0!
#293119
1!
#293131
0!
#293501
1!
#293935
0!
#293967
1!
#293997
0!
#294027
1!
#294067
0!
#294129
1!
#294169
0!
#294683
1!
#294765
0!
#294787
1!
#294817
0!
#294993
1!
#296155
0!
#296503
1!
#296891
0!
#297965
1!
#299119
0!
#299243
1!
#299283
0!
#299477
1!
#299845
0!
#300237
1!
#300269
0!
#300635
1!
#300697
0!
#300811
1!
#300833
0!
#300863
1!
#300895
0!
#300949
1!
#301335
0!
#301641
1!
#301661
0!
#301711
1!
#301743
0!
#302425
1!
#303633
0!
#303821
1!
#303843
0!
#303915
1!
#305045
0!
#305389
1!
#305777
0!
#306867
1!
#307253
0!
#307485
1!
#307495
0!
#307813
1!
#307825
0!
#307887
1!
#307969
0!
#308021
1!
#308053
0!
#308353
1!
#308739
0!
#309123
1!
#309155
0!
#309185
1!
#309197
0!
#309291
1!
#309323
0!
#309491
1!
#309513
0!
#309577
1!
#309577
0!
#309651
1!
#309745
0!
#309767
1!
#310223
0!
#310257
1!
#310267
0!
#310267
1!
#310289
0!
#310363
1!
#310405
0!
#310459
1!
#310469
0!
#310469
1!
#310479
0!
#310879
1!
#310901
0!
#311059
1!
#311133
0!
#311283
1!
#312439
0!
#312545
1!
#312555
0!
#312775
1!
#313909
0!
#314051
1!
#314083
0!
#314191
1!
#314211
0!
#314243
1!
#314661
0!
#314883
1!
#314913
0!
#314945
1!
#314967
0!
#315733
1!
#316853
0!
#317205
1!
#317595
0!
#318687
1!
#319819
0!
#319931
1!
#319971
0!
#320157
1!
#320157
0!
#320873
1!
#320883
0!
#321557
1!
#322003
0!
#322065
1!
#322075
0!
#322075
1!
#322117
0!
#322541
1!
#322605
0!
#323071
1!
#323113
0!
#323155
1!
#323189
0!
#323485
1!
#323737
0!
#323757
1!
#323821
0!
#323851
1!
#324213
0!
#324235
1!
#324597
0!
#324607
1!
#324721
0!
#324763
1!
#325663
0!
#325705
1!
#325865
0!
#325907
1!
#327075
0!
#327097
1!
#328206
0!
#328576
1!
#329700
0!
#330054
1!
#330428
0!
#331524
1!
#331524
0!
#331922
1!
#332308
0!
#333408
1!
#333792
0!
#334894
1!
#336010
0!
#336370
1!
#336754
0!
#337690
1!
#337712
0!
#337836
1!
#337846
0!
#337846
1!
#338968
0!
#339338
1!
#339712
0!
#340814
1!
#341192
0!
#341506
1!
#341558
0!
#341612
1!
#341656
0!
#341740
1!
#341750
0!
#341750
1!
#341812
0!
#342286
1!
#343412
0!
#343776
1!
#344896
0!
#345248
1!
#345660
0!
#346740
1!
#347124
0!
#348212
1!
#348594
0!
#349692
1!
#350084
0!
#351178
1!
#352298
0!
#352660
1!
#353774
0!
#354148
1!
#354520
0!
#355622
1!
#356740
0!
#357088
1!
#357480
0!
#358582
1!
#359706
0!
#360068
1!
#360442
0!
#361518
1!
#361928
0!
#364550
1!
#364590
0!
#365034
1!
#365076
0!
#365244
1!
#365266
0!
#365308
1!
#365340
0!
#365414
1!
#365488
0!
#365574
1!
#365616
0!
#365712
1!
#365764
0!
#365776
1!
#366704
0!
#366734
1!
#366820
0!
#366954
1!
#367018
0!
#367050
1!
#367072
0!
#367136
1!
#367136
0!
#367220
1!
#367398
0!
#367430
1!
#367462
0!
#367506
1!
#367612
0!
#367666
1!
#368412
0!
#368606
1!
#369701
0!
#370069
1!
#371185
0!
#371549
1!
#371931
0!
#373035
1!
#373403
0!
#374507
1!
#374891
0!
#375987
1!
#376367
0!
#376699
1!
#376719
0!
#377471
1!
#378589
0!
#378955
1!
#379337
0!
#380431
1!
#381587
0!
#381911
1!
#382297
0!
#382857
1!
#399313
0!
#399703
1!
#400053
0!
#401177
1!
#402281
0!
#402663
1!
#403023
0!
#404129
1!
#404513
0!
#406687
1!
#406791
0!
#407283
1!
#407315
0!
#407345
1!
#407345
0!
#407637
1!
#407659
0!
#407721
1!
#407847
0!
#407911
1!
#407993
0!
#408159
1!
#408159
0!
#408293
1!
#408305
0!
#408337
1!
#408429
0!
#408471
1!
#408563
0!
#408637
1!
#408763
0!
#408815
1!
#408879
0!
#409057
1!
#409057
0!
#409089
1!
#409143
0!
#409175
1!
#409249
0!
#409461
1!
#409481
0!
#409491
1!
#409555
0!
#409737
1!
#409769
0!
#409789
1!
#409821
0!
#409873
1!
#409883
0!
#409883
1!
#409905
0!
#409925
1!
#410019
0!
#410019
1!
#410101
0!
#410163
1!
#410183
0!
#410359
1!
#410391
0!
#410443
1!
#410475
0!
#410507
1!
#410539
0!
#410635
1!
#410689
0!
#410689
1!
#410709
0!
#410761
1!
#410813
0!
#410843
1!
#411193
0!
#411203
1!
#411511
0!
#411533
1!
#411563
0!
#411595
1!
#411647
0!
#411677
1!
#411769
0!
#411851
1!
#411871
0!
#411893
1!
#411923
0!
#411975
1!
#412007
0!
#412037
1!
#412077
0!
#412099
1!
#412109
0!
#412109
1!
#412139
0!
#412181
1!
#412213
0!
#412267
1!
#412267
0!
#412613
1!
#412665
0!
#412697
1!
#412739
0!
#412739
1!
#413381
0!
#413425
1!
#414099
0!
#414183
1!
#414425
0!
#414457
1!
#414499
0!
#414561
1!
#414831
0!
#414831
1!
#414893
0!
#414915
1!
#414977
0!
#415017
1!
#415059
0!
#415079
1!
#415159
0!
#415191
1!
#415327
0!
#415379
1!
#415411
0!
#415535
1!
#415599
0!
#415661
1!
#415711
0!
#415731
1!
#416802
0!
#417174
1!
#418292
0!
#418650
1!
#419022
0!
#420128
1!
#420508
0!
#421604
1!
#421992
0!
#423088
1!
#423466
0!
#424572
1!
#425688
0!
#426060
1!
#426432
0!
#427536
1!
#428656
0!
#429008
1!
#429392
0!
#430496
1!
#430874
0!
#431964
1!
#433090
0!
#433462
1!
#434580
0!
#434936
1!
#435320
0!
#436410
1!
#436792
0!
#437900
1!
#438274
0!
#439384
1!
#439754
0!
#440852
1!
#441990
0!
#442346
1!
#443470
0!
#443824
1!
#444200
0!
#445300
1!
#446428
0!
#446778
1!
#447172
0!
#448262
1!
#449386
0!
#449748
1!
#450122
0!
#451230
1!
#451612
0!
#453936
1!
#453958
0!
#454300
1!
#454352
0!
#454700
1!
#454710
0!
#454784
1!
#454794
0!
#454794
1!
#454838
0!
#454974
1!
#455006
0!
#455090
1!
#455174
0!
#455214
1!
#455226
0!
#455258
1!
#455352
0!
#455458
1!
#455592
0!
#455676
1!
#455696
0!
#455716
1!
#456534
0!
#456534
1!
#456608
0!
#456640
1!
#456672
0!
#456682
1!
#456682
0!
#456922
1!
#456922
0!
#456998
1!
#456998
0!
#457052
1!
#457190
0!
#457200
1!
#457254
0!
#457360
1!
#457422
0!
#457486
1!
#457808
0!
#457850
1!
#457850
0!
#458240
1!
#458250
0!
#458250
1!
#458282
0!
#458344
1!
#460012
0!
#460066
1!
#460108
0!
#460182
1!
#460192
0!
#460278
1!
#460352
0!
#460394
1!
#460522
0!
#460532
1!
#460660
0!
#460692
1!
#460692
0!
#460734
1!
#460836
0!
#460858
1!
#460868
0!
#460868
1!
#460868
0!
#460888
1!
#461066
0!
#461086
1!
#461136
0!
#461250
1!
#461250
0!
#461346
1!
#461512
0!
#461524
1!
#461606
0!
#461658
1!
#461760
0!
#461862
1!
#461914
0!
#461944
1!
#461944
0!
#462398
1!
#462502
0!
#462552
1!
#462654
0!
#462674
1!
#463783
0!
#464143
1!
#465263
0!
#465621
1!
#466017
0!
#467101
1!
#467489
0!
#468591
1!
#468591
0!
#468975
1!
#469359
0!
#470459
1!
#471579
0!
#471941
1!
#472313
0!
#473419
1!
#474541
0!
#474897
1!
#475289
0!
#476389
1!
#476767
0!
#477863
1!
#478987
0!
#479345
1!
#480475
0!
#480829
1!
#481211
0!
#482293
1!
#482691
0!
#483773
1!
#484171
0!
#485265
1!
#485645
0!
#486753
1!
#487871
0!
#488233
1!
#489347
0!
#489711
1!
#490093
0!
#491191
1!
#492313
0!
#492679
1!
#493053
0!
#494149
1!
#495283
0!
#495631
1!
#496023
0!
#497113
1!
#497505
0!
#497559
1!
#497625
0!
#499165
1!
#499175
0!
#499175
1!
#499219
0!
#499503
1!
#499503
0!
#499545
1!
#499555
0!
#499555
1!
#499577
0!
#499777
1!
#499821
0!
#499915
1!
#500007
0!
#508889
1!
#509957
0!
#510319
1!
#511435
0!
#511799
1!
#512175
0!
#513281
1!
#513655
0!
#514759
1!
#515139
0!
#516245
1!
#516627
0!
#517719
1!
#518843
0!
#519201
1!
#519589
0!
#520677
1!
#521805
0!
#522167
1!
#522539
0!
#523643
1!
#524027
0!
#525123
1!
#526245
0!
#526609
1!
#527723
0!
#528097
1!
#528467
0!
#529573
1!
#529943
0!
#531049
1!
#531433
0!
#532153
1!
#548093
0!
#555259
1!
#555279
0!
#556227
1!
#557252
0!
#557618
1!
#558736
0!
#559104
1!
#559480
0!
#560572
1!
#560966
0!
#562052
1!
#562444
0!
#562902
1!
#562924
0!
#563538
1!
#563918
0!
#565024
1!
#566138
0!
#566496
1!
#566878
0!
#567984
1!
#569106
0!
#569468
1!
#569840
0!
#570944
1!
#571328
0!
#572424
1!
#573550
0!
#573912
1!
#575028
0!
#575390
1!
#575772
0!
#576870
1!
#577252
0!
#578354
1!
#578734
0!
#579828
1!
#580210
0!
#581318
1!
#582436
0!
#582790
1!
#583916
0!
#584282
1!
#584652
0!
#585760
1!
#586876
0!
#587236
1!
#587618
0!
#588716
1!
#589834
0!
#590198
1!
#590576
0!
#591680
1!
#592062
0!
#597738
1!
#598837
0!
#599205
1!
#600321
0!
#600681
1!
#601063
0!
#602163
1!
#602543
0!
#603645
1!
#604023
0!
#604535
1!
#604557
0!
#605127
1!
#605501
0!
#606599
1!
#607725
0!
#608085
1!
#608469
0!
#609571
1!
#610699
0!
#611037
1!
#611451
0!
#612535
1!
#612913
0!
#614003
1!
#615127
0!
#615497
1!
#616613
0!
#616971
1!
#617355
0!
#618461
1!
#618835
0!
#619937
1!
#620315
0!
#621423
1!
#621795
0!
#622901
1!
#624015
0!
#624385
1!
#625497
0!
#625857
1!
#626245
0!
#627339
1!
#628473
0!
#628829
1!
#629203
0!
#630309
1!
#631419
0!
#631783
1!
#632165
0!
#633267
1!
#633649
0!
#637239
1!
#637271
0!
#637571
1!
#637603
0!
#638431
1!
#638463
0!
#638863
1!
#638955
0!
#639227
1!
#639259
0!
#644031
1!
#644041
0!
#644741
1!
#644761
0!
#645099
1!
#646189
0!
#646557
1!
#647673
0!
#648023
1!
#648413
0!
#649513
1!
#649893
0!
#650445
1!
#650465
0!
#650991
1!
#651377
0!
#652483
1!
#652853
0!
#653959
1!
#655083
0!
#655437
1!
#655821
0!
#656921
1!
#658045
0!
#658407
1!
#658775
0!
#659887
1!
#660261
0!
#661365
1!
#662489
0!
#662849
1!
#663967
0!
#664327
1!
#664701
0!
#665811
1!
#666191
0!
#667289
1!
#667675
0!
#668765
1!
#669147
0!
#670255
1!
#671367
0!
#671739
1!
#672853
0!
#673217
1!
#673593
0!
#674689
1!
#675811
0!
#676181
1!
#676557
0!
#677173
1!
#693579
0!
#693963
1!
#695061
0!
#695439
1!
#695801
0!
#696921
1!
#697293
0!
#698395
1!
#698779
0!
#699879
1!
#700257
0!
#701357
1!
#702475
0!
#702837
1!
#703215
0!
#704325
1!
#705437
0!
#705801
1!
#706181
0!
#707279
1!
#707655
0!
#708433
1!
#708455
0!
#708761
1!
#709889
0!
#710239
1!
#711363
0!
#711729
1!
#712105
0!
#713203
1!
#713581
0!
#714685
1!
#715063
0!
#716171
1!
#716551
0!
#717647
1!
#718769
0!
#719135
1!
#720251
0!
#720615
1!
#720987
0!
#722087
1!
#723213
0!
#723575
1!
#723961
0!
#725055
1!
#726173
0!
#726537
1!
#726911
0!
#728021
1!
#728403
0!
#732157
1!
#732167
0!
#732629
1!
#732661
0!
#732857
1!
#732929
0!
#733227
1!
#733247
0!
#734819
1!
#734829
0!
#735049
1!
#735081
0!
#736039
1!
#736061
0!
#737033
1!
#737043
0!
#737243
1!
#737253
0!
#737345
1!
#737377
0!
#739273
1!
#739295
0!
#739855
1!
#740956
0!
#741310
1!
#742428
0!
#742792
1!
#743174
0!
#744274
1!
#744644
0!
#745760
1!
#746136
0!
#747240
1!
#747612
0!
#748718
1!
#749836
0!
#750198
1!
#750572
0!
#751678
1!
#752800
0!
#753158
1!
#753534
0!
#754638
1!
#755020
0!
#756124
1!
#757236
0!
#757608
1!
#758724
0!
#759094
1!
#759464
0!
#760570
1!
#760944
0!
#762046
1!
#762426
0!
#763526
1!
#763906
0!
#765014
1!
#766130
0!
#766494
1!
#767608
0!
#767982
1!
#768346
0!
#769460
1!
#770570
0!
#770938
1!
#771306
0!
#772418
1!
#773536
0!
#773904
1!
#774274
0!
#775380
1!
#775752
0!
#780338
1!
#780358
0!
#780548
1!
#780558
0!
#781188
1!
#781200
0!
#783736
1!
#783756
0!
#787212
1!
#788325
0!
#788675
1!
#789803
0!
#790157
1!
#790535
0!
#791631
1!
#792035
0!
#793123
1!
#793505
0!
#794615
1!
#794987
0!
#796085
1!
#797207
0!
#797575
1!
#797945
0!
#799057
1!
#800171
0!
#800531
1!
#800909
0!
#802015
1!
#802387
0!
#803497
1!
#804615
0!
#804977
1!
#806095
0!
#806457
1!
#806837
0!
#807939
1!
#808321
0!
#809419
1!
#809801
0!
#810897
1!
#811279
0!
#812381
1!
#813497
0!
#813873
1!
#814985
0!
#815347
1!
#815719
0!
#816829
1!
#817947
0!
#818309
1!
#818681
0!
#819797
1!
#820909
0!
#821271
1!
#821645
0!
#822757
1!
#823131
0!
#828241
1!
#844508
0!
#844878
1!
#845256
0!
#846368
1!
#847470
0!
#847838
1!
#848214
0!
#849324
1!
#849696
0!
#850800
1!
#851926
0!
#852286
1!
#853406
0!
#853764
1!
#854148
0!
#855248
1!
#855618
0!
#856726
1!
#857100
0!
#858214
1!
#858584
0!
#859688
1!
#860814
0!
#861172
1!
#862288
0!
#862658
1!
#863032
0!
#864130
1!
#865250
0!
#865618
1!
#865992
0!
#867100
1!
#868218
0!
#868582
1!
#868954
0!
#870058
1!
#870438
0!
#876730
1!
#877823
0!
#878193
1!
#879305
0!
#879667
1!
#880053
0!
#881143
1!
#881533
0!
#882643
1!
#883011
0!
#884119
1!
#884495
0!
#885595
1!
#886717
0!
#887083
1!
#887457
0!
#888557
1!
#889681
0!
#890041
1!
#890423
0!
#891519
1!
#891901
0!
#893009
1!
#894117
0!
#894487
1!
#895601
0!
#895971
1!
#896343
0!
#897449
1!
#897829
0!
#898929
1!
#899301
0!
#900413
1!
#900783
0!
#901895
1!
#903005
0!
#903377
1!
#904495
0!
#904861
1!
#905223
0!
#906339
1!
#907457
0!
#907821
1!
#908195
0!
#909297
1!
#910421
0!
#910781
1!
#911155
0!
#912261
1!
#912635
0!
#919053
1!
#919073
0!
#919557
1!
#919749
0!
#919909
1!
#919951
0!
#920751
1!
#920771
0!
#921283
1!
#921293
0!
#921333
1!
#921365
0!
#922081
1!
#922103
0!
#923159
1!
#923181
0!
#923709
1!
#923729
0!
#924099
1!
#925212
0!
#925570
1!
#926686
0!
#927056
1!
#927430
0!
#928526
1!
#928908
0!
#930016
1!
#930390
0!
#931488
1!
#931872
0!
#932974
1!
#934088
0!
#934456
1!
#934838
0!
#935936
1!
#937056
0!
#937418
1!
#937800
0!
#938896
1!
#939278
0!
#940378
1!
#941504
0!
#941868
1!
#942980
0!
#943344
1!
#943716
0!
#944830
1!
#945206
0!
#946304
1!
#946686
0!
#947792
1!
#948174
0!
#949272
1!
#950384
0!
#950752
1!
#951876
0!
#952234
1!
#952606
0!
#953718
1!
#954832
0!
#955194
1!
#955576
0!
#956676
1!
#957794
0!
#958154
1!
#958540
0!
#959642
1!
#960014
0!
#966116
1!
#966116
0!
#966136
1!
#966188
0!
#966200
1!
#966316
0!
#966960
1!
#966980
0!
#968508
1!
#968518
0!
#969522
1!
#969532
0!
#970138
1!
#971233
0!
#971605
1!
#989009
0!
#989391
1!
#989753
0!
#990865
1!
#991249
0!
#992347
1!
#992721
0!
#993821
1!
#994199
0!
#995305
1!
#996429
0!
#996785
1!
#997903
0!
#998263
1!
#998641
0!
#999745
1!
#1000861
0!
#1001235
1!
#1001607
0!
#1002719
1!
#1003881
0!
#1004003
1!
#1004065
0!
#1004187
1!
#1004567
0!
#1005313
1!
#1005345
0!
#1005673
1!
#1006069
0!
#1010213
1!
#1010223
0!
#1012849
1!
#1012859
0!
#1013743
1!
#1013765
0!
#1014125
1!
#1014135
0!
#1014231
1!
#1014241
0!
#1014495
1!
#1014507
0!
#1014633
1!
#1014665
0!
#1014907
1!
#1014917
0!
#1014917
1!
#1014939
0!
#1017195
1!
#1017217
0!
#1017501
1!
#1018578
0!
#1018948
1!
#1020058
0!
#1020442
1!
#1020802
0!
#1021914
1!
#1022282
0!
#1023392
1!
#1023774
0!
#1024874
1!
#1025252
0!
#1026354
1!
#1027478
0!
#1027834
1!
#1028206
0!
#1029316
1!
#1030430
0!
#1030800
1!
#1031176
0!
#1032276
1!
#1032658
0!
#1033768
1!
#1034882
0!
#1035240
1!
#1036358
0!
#1036732
1!
#1037104
0!
#1038206
1!
#1038586
0!
#1039692
1!
#1040060
0!
#1041176
1!
#1041546
0!
#1042652
1!
#1043764
0!
#1044134
1!
#1045246
0!
#1045612
1!
#1045994
0!
#1047094
1!
#1048206
0!
#1048578
1!
#1048952
0!
#1050056
1!
#1051172
0!
#1051546
1!
#1051912
0!
#1053024
1!
#1053396
0!
#1059972
1!
#1059984
0!
#1060468
1!
#1060564
0!
#1061054
1!
#1061116
0!
#1061188
1!
#1061208
0!
#1061598
1!
#1061608
0!
#1061914
1!
#1061924
0!
#1062008
1!
#1062052
0!
#1062084
1!
#1062232
0!
#1062338
1!
#1062338
0!
#1062392
1!
#1062414
0!
#1062866
1!
#1062908
0!
#1062962
1!
#1062972
0!
#1062972
1!
#1062994
0!
#1063392
1!
#1063488
0!
#1063500
1!
#1063966
0!
#1063986
1!
#1064092
0!
#1064124
1!
#1064356
0!
#1064398
1!
#1064566
0!
#1064638
1!
#1064658
0!
#1064670
1!
#1064680
0!
#1064680
1!
#1064700
0!
#1064732
1!
#1065921
0!
#1066289
1!
#1067405
0!
#1067777
1!
#1068143
0!
#1069253
1!
#1069631
0!
#1070735
1!
#1071115
0!
#1072213
1!
#1072593
0!
#1073701
1!
#1074807
0!
#1075177
1!
#1075551
0!
#1076661
1!
#1077777
0!
#1078137
1!
#1078521
0!
#1079623
1!
#1079999
0!
#1081105
1!
#1082225
0!
#1082585
1!
#1083705
0!
#1084073
1!
#1084447
0!
#1085551
1!
#1085921
0!
#1087027
1!
#1087407
0!
#1088515
1!
#1088893
0!
#1089991
1!
#1091113
0!
#1091479
1!
#1092591
0!
#1092959
1!
#1093329
0!
#1094445
1!
#1095559
0!
#1095923
1!
#1096295
0!
#1097401
1!
#1098525
0!
#1098879
1!
#1099263
0!
#1100369
1!
#1100739
0!
#1107043
1!
#1107209
0!
#1107355
1!
#1107375
0!
#1107499
1!
#1107571
0!
#1107601
1!
#1107733
0!
#1109033
1!
#1109065
0!
#1109277
1!
#1109287
0!
#1109985
1!
#1110141
0!
#1110269
1!
#1110279
0!
#1110321
1!
#1110321
0!
#1111603
1!
#1112700
0!
#1113074
1!
#1114176
0!
#1114550
1!
#1114922
0!
#1116028
1!
#1116422
0!
#1117512
1!
#1117894
0!
#1118994
1!
#1119372
0!
#1120482
1!
#1121592
0!
#1121962
1!
#1122336
0!
#1123024
1!
#1139368
0!
#1139740
1!
#1140112
0!
#1141226
1!
#1142342
0!
#1142704
1!
#1143076
0!
#1144178
1!
#1145294
0!
#1145668
1!
#1146036
0!
#1147152
1!
#1147522
0!
#1153644
1!
#1153674
0!
#1153726
1!
#1153726
0!
#1153746
1!
#1153776
0!
#1153920
1!
#1153962
0!
#1154366
1!
#1154376
0!
#1154502
1!
#1154512
0!
#1154624
1!
#1154624
0!
#1154644
1!
#1154686
0!
#1155024
1!
#1155044
0!
#1155292
1!
#1155322
0!
#1155538
1!
#1155578
0!
#1155714
1!
#1155734
0!
#1155828
1!
#1155868
0!
#1156260
1!
#1156280
0!
#1156754
1!
#1156816
0!
#1157170
1!
#1157232
0!
#1157314
1!
#1157366
0!
#1157502
1!
#1157532
0!
#1157768
1!
#1157790
0!
#1158124
1!
#1159229
0!
#1159599
1!
#1160707
0!
#1161087
1!
#1161447
0!
#1162563
1!
#1162935
0!
#1164037
1!
#1164411
0!
#1165529
1!
#1165897
0!
#1166999
1!
#1168121
0!
#1168483
1!
#1168863
0!
#1169965
1!
#1171087
0!
#1171447
1!
#1171825
0!
#1172933
1!
#1173319
0!
#1174405
1!
#1175533
0!
#1175895
1!
#1177015
0!
#1177379
1!
#1177751
0!
#1178857
1!
#1179233
0!
#1180337
1!
#1180717
0!
#1181819
1!
#1182201
0!
#1183301
1!
#1184423
0!
#1184785
1!
#1185901
0!
#1186265
1!
#1186639
0!
#1187749
1!
#1188863
0!
#1189227
1!
#1189597
0!
#1190715
1!
#1191825
0!
#1192187
1!
#1192567
0!
#1193665
1!
#1194053
0!
#1198173
1!
#1198183
0!
#1198183
1!
#1198205
0!
#1199207
1!
#1199251
0!
#1199315
1!
#1199357
0!
#1200635
1!
#1200677
0!
#1201431
1!
#1201495
0!
#1201527
1!
#1201527
0!
#1202317
1!
#1202389
0!
#1202545
1!
#1202555
0!
#1202917
1!
#1202949
0!
#1203031
1!
#1203041
0!
#1203289
1!
#1203373
0!
#1203403
1!
#1204061
0!
#1204081
1!
#1204185
0!
#1204227
1!
#1204379
0!
#1204453
1!
#1204677
0!
#1204677
1!
#1204687
0!
#1204729
1!
#1204739
0!
#1204741
1!
#1204881
0!
#1204975
1!
#1206036
0!
#1206414
1!
#1207530
0!
#1207892
1!
#1208264
0!
#1209376
1!
#1209746
0!
#1210846
1!
#1210858
0!
#1210858
1!
#1211230
0!
#1212338
1!
#1212706
0!
#1213820
1!
#1214936
0!
#1215296
1!
#1215678
0!
#1216774
1!
#1217894
0!
#1218258
1!
#1218638
0!
#1219738
1!
#1220116
0!
#1221224
1!
#1222346
0!
#1222708
1!
#1223822
0!
#1224192
1!
#1224566
0!
#1225674
1!
#1226050
0!
