level6.vcd
$timescale 1 us $end
$scope module Homey $end
$var wire 1 ! Recording $end
$upscope $end
$enddefinitions $end
#0
1!
#1093
0!
#1475
1!
#2581
0!
#2957
1!
#3317
0!
#4429
1!
#4805
0!
#5915
1!
#6283
0!
#7391
1!
#7765
0!
#8869
1!
#9989
0!
#10357
1!
#10729
0!
#11835
1!
#12945
0!
#13309
1!
#13691
0!
#14791
1!
#19937
0!
#19947
1!
#30899
0!
#31089
1!
#31459
0!
#32557
1!
#33687
0!
#34049
1!
#35163
0!
#35525
1!
#35899
0!
#44069
1!
#44111
0!
#44175
1!
#44185
0!
#44463
1!
#44535
0!
#44627
1!
#44659
0!
#44841
1!
#44871
0!
#44893
1!
#45157
0!
#45369
1!
#45411
0!
#45549
1!
#45897
0!
#45959
1!
#45991
0!
#46181
1!
#46457
0!
#46499
1!
#46727
0!
#46739
1!
#48185
0!
#48565
1!
#49667
0!
#50039
1!
#50411
0!
#51525
1!
#51887
0!
#53003
1!
#53373
0!
#54475
1!
#54857
0!
#55955
1!
#57077
0!
#57443
1!
#57823
0!
#58915
1!
#60033
0!
#60401
1!
#60775
0!
#61883
1!
#62255
0!
#63363
1!
#64485
0!
#64845
1!
#65959
0!
#66323
1!
#66699
0!
#67807
1!
#68179
0!
#69291
1!
#69667
0!
#70771
1!
#71143
0!
#72245
1!
#73369
0!
#73731
1!
#74849
0!
#75211
1!
#75581
0!
#76691
1!
#77813
0!
#78173
1!
#78547
0!
#79645
1!
#80767
0!
#81133
1!
#82255
0!
#82611
1!
#82987
0!
#90939
1!
#90951
0!
#90951
1!
#90981
0!
#91023
1!
#91065
0!
#91429
1!
#91451
0!
#91579
1!
#91589
0!
#91767
1!
#91903
0!
#92073
1!
#92083
0!
#92179
1!
#92189
0!
#92293
1!
#92407
0!
#92437
1!
#92529
0!
#92655
1!
#92801
0!
#92853
1!
#92917
0!
#92927
1!
#92927
0!
#92979
1!
#93063
0!
#93157
1!
#93357
0!
#93441
1!
#93473
0!
#93517
1!
#93707
0!
#93771
1!
#93825
0!
#93835
1!
#94315
0!
#94389
1!
#95458
0!
#95838
1!
#96942
0!
#97310
1!
#97688
0!
#98796
1!
#99166
0!
#100274
1!
#100646
0!
#101756
1!
#102132
0!
#103230
1!
#104354
0!
#104712
1!
#105094
0!
#106188
1!
#107308
0!
#107672
1!
#108052
0!
#109154
1!
#109534
0!
#110638
1!
#111754
0!
#112116
1!
#113234
0!
#113598
1!
#113980
0!
#115084
1!
#115460
0!
#116558
1!
#116934
0!
#118044
1!
#118414
0!
#119522
1!
#120638
0!
#121004
1!
#122122
0!
#122488
1!
#122862
0!
#123960
1!
#125086
0!
#125450
1!
#125826
0!
#126932
1!
#128044
0!
#128408
1!
#129524
0!
#129888
1!
#130268
0!
#138764
1!
#138794
0!
#139310
1!
#139374
0!
#139450
1!
#139494
0!
#139654
1!
#139686
0!
#139728
1!
#139870
0!
#140186
1!
#140248
0!
#140260
1!
#140408
0!
#140522
1!
#140522
0!
#140574
1!
#140760
0!
#140834
1!
#140930
0!
#141004
1!
#141174
0!
#141196
1!
#141226
0!
#141288
1!
#141528
0!
#141666
1!
#142733
0!
#143117
1!
#144217
0!
#144601
1!
#144963
0!
#146069
1!
#146441
0!
#147555
1!
#147927
0!
#149037
1!
#149407
0!
#150509
1!
#151627
0!
#151989
1!
#152369
0!
#153473
1!
#154593
0!
#154959
1!
#155333
0!
#156437
1!
#156809
0!
#157915
1!
#159039
0!
#159395
1!
#160519
0!
#160877
1!
#161259
0!
#162359
1!
#162733
0!
#163839
1!
#164223
0!
#165321
1!
#181483
0!
#187109
1!
#187151
0!
#187441
1!
#187715
0!
#187917
1!
#187949
0!
#188121
1!
#188161
0!
#188399
1!
#188421
0!
#188547
1!
#188557
0!
#188557
1!
#188609
0!
#188629
1!
#188651
0!
#188681
1!
#188713
0!
#188787
1!
#188817
0!
#188889
1!
#188961
0!
#188981
1!
#190072
0!
#190462
1!
#191562
0!
#191934
1!
#192306
0!
#193418
1!
#193788
0!
#194900
1!
#195266
0!
#196372
1!
#196746
0!
#197856
1!
#198966
0!
#199330
1!
#199714
0!
#200816
1!
#201928
0!
#202292
1!
#202672
0!
#203774
1!
#204148
0!
#205258
1!
#206374
0!
#206736
1!
#207854
0!
#208224
1!
#208594
0!
#209696
1!
#210078
0!
#211184
1!
#211554
0!
#212660
1!
#213040
0!
#214144
1!
#215264
0!
#215626
1!
#216742
0!
#217108
1!
#217482
0!
#218580
1!
#219704
0!
#220072
1!
#220444
0!
#221552
1!
#222660
0!
#223026
1!
#224150
0!
#224512
1!
#224882
0!
#234238
1!
#234248
0!
#234624
1!
#234624
0!
#234762
1!
#234772
0!
#234772
1!
#234794
0!
#234898
1!
#234920
0!
#235120
1!
#235150
0!
#235264
1!
#235296
0!
#235450
1!
#235492
0!
#235512
1!
#235596
0!
#235782
1!
#235792
0!
#235792
1!
#236118
0!
#236284
1!
#236316
0!
#236326
1!
#237413
0!
#237805
1!
#238895
0!
#239281
1!
#239639
0!
#240761
1!
#241131
0!
#242233
1!
#242615
0!
#243713
1!
#244091
0!
#245195
1!
#246309
0!
#246675
1!
#247053
0!
#248157
1!
#249277
0!
#249643
1!
#250011
0!
#251117
1!
#251499
0!
#252599
1!
#253723
0!
#254083
1!
#255201
0!
#255563
1!
#255933
0!
#257049
1!
#257421
0!
#258527
1!
#258907
0!
#260003
1!
#260377
0!
#261493
1!
#262603
0!
#262971
1!
#264081
0!
#264443
1!
#264827
0!
#265931
1!
#267047
0!
#267411
1!
#267781
0!
#268897
1!
#270005
0!
#270377
1!
#271495
0!
#271851
1!
#272233
0!
#280877
1!
#280887
0!
#280979
1!
#281063
0!
#281303
1!
#281323
0!
#281355
1!
#281457
0!
#281519
1!
#281539
0!
#281601
1!
#281673
0!
#281827
1!
#281827
0!
#281849
1!
#281921
0!
#282005
1!
#282129
0!
#282315
1!
#282723
0!
#282755
1!
#283081
0!
#283113
1!
#284172
0!
#284566
1!
#285666
0!
#286038
1!
#286408
0!
#287516
1!
#287894
0!
#288992
1!
#289362
0!
#290474
1!
#290848
0!
#291958
1!
#293070
0!
#293438
1!
#293814
0!
#294920
1!
#296036
0!
#296398
1!
#296776
0!
#297880
1!
#298252
0!
#299360
1!
#300472
0!
#300840
1!
#301960
0!
#302324
1!
#302700
0!
#303806
1!
#304182
0!
#305280
1!
#305664
0!
#306762
1!
#307146
0!
#308242
1!
#309368
0!
#309728
1!
#310842
0!
#311214
1!
#311584
0!
#312692
1!
#313808
0!
#314170
1!
#314550
0!
#315658
1!
#331826
0!
#331942
1!
#333052
0!
#333422
1!
#333802
0!
#334904
1!
#335274
0!
#336386
1!
#336766
0!
#337864
1!
#338248
0!
#339348
1!
#340468
0!
#340832
1!
#341206
0!
#342308
1!
#343430
0!
#343788
1!
#344168
0!
#345268
1!
#345650
0!
#346748
1!
#347870
0!
#348230
1!
#349350
0!
#349722
1!
#350094
0!
#351194
1!
#351568
0!
#352674
1!
#353054
0!
#354160
1!
#354538
0!
#355640
1!
#356754
0!
#357122
1!
#358236
0!
#358610
1!
#358974
0!
#360086
1!
#361204
0!
#361566
1!
#361938
0!
#363044
1!
#364160
0!
#364528
1!
#365640
0!
#366010
1!
#366382
0!
#374450
1!
#374472
0!
#375844
1!
#375854
0!
#376472
1!
#376514
0!
#376650
1!
#376650
0!
#376692
1!
#376766
0!
#376820
1!
#376852
0!
#376906
1!
#376950
0!
#376994
1!
#377048
0!
#377206
1!
#377288
0!
#377434
1!
#377444
0!
#377550
1!
#377592
0!
#377622
1!
#377674
0!
#377766
1!
#378859
0!
#379251
1!
#380341
0!
#380717
1!
#381083
0!
#382197
1!
#382569
0!
#383677
1!
#384049
0!
#385165
1!
#385539
0!
#386641
1!
#387755
0!
#388119
1!
#388501
0!
#389607
1!
#390713
0!
#391089
1!
#391455
0!
#392561
1!
#392941
0!
#394043
1!
#395161
0!
#395523
1!
#396643
0!
#397015
1!
#397385
0!
#398489
1!
#398863
0!
#399971
1!
#400345
0!
#401455
1!
#401819
0!
#402933
1!
#404049
0!
#404411
1!
#405525
0!
#405891
1!
#406271
0!
#407375
1!
#408495
0!
#408855
1!
#409237
0!
#410341
1!
#411449
0!
#411821
1!
#412929
0!
#413299
1!
#413679
0!
#421759
1!
#421789
0!
#423407
1!
#423417
0!
#423797
1!
#423841
0!
#424071
1!
#424123
0!
#424207
1!
#424249
0!
#424281
1!
#424281
0!
#424347
1!
#424379
0!
#424433
1!
#424505
0!
#424675
1!
#424773
0!
#424943
1!
#424963
0!
#425017
1!
#425962
0!
#425972
1!
#426152
0!
#426540
1!
#427630
0!
#428018
1!
#428380
0!
#429486
1!
#429866
0!
#430970
1!
#431338
0!
#432450
1!
#432824
0!
#433934
1!
#435050
0!
#435418
1!
#435790
0!
#436896
1!
#438004
0!
#438376
1!
#438752
0!
#439854
1!
#440230
0!
#441334
1!
#442450
0!
#442820
1!
#443936
0!
#444300
1!
#444672
0!
#445784
1!
#446152
0!
#447260
1!
#447638
0!
#448740
1!
#449120
0!
#450222
1!
#451334
0!
#451706
1!
#452822
0!
#453182
1!
#453556
0!
#454664
1!
#455776
0!
#456148
1!
#456526
0!
#457632
1!
#458748
0!
#459106
1!
#460228
0!
#460596
1!
#460966
0!
#466682
1!
#473868
0!
#473878
1!
#477310
0!
#477394
1!
#482706
0!
#482808
1!
#483180
0!
#484288
1!
#485402
0!
#485774
1!
#486138
0!
#487252
1!
#487624
0!
#488730
1!
#489844
0!
#490218
1!
#491324
0!
#491694
1!
#492074
0!
#493178
1!
#493552
0!
#494658
1!
#495028
0!
#496134
1!
#496512
0!
#497620
1!
#498730
0!
#499098
1!
#500212
0!
#500584
1!
#500956
0!
#502064
1!
#503178
0!
#503542
1!
#503918
0!
#505022
1!
#506142
0!
#506508
1!
#507626
0!
#507986
1!
#508356
0!
#517856
1!
#517908
0!
#518112
1!
#518122
0!
#518310
1!
#518330
0!
#518404
1!
#518414
0!
#518562
1!
#518594
0!
#518730
1!
#518760
0!
#518792
1!
#518854
0!
#519054
1!
#519118
0!
#519214
1!
#519224
0!
#519298
1!
#519330
0!
#519340
1!
#519362
0!
#519500
1!
#519510
0!
#519510
1!
#519562
0!
#519582
1!
#519626
0!
#519804
1!
#520903
0!
#521281
1!
#522383
0!
#522767
1!
#523131
0!
#524235
1!
#524611
0!
#525717
1!
#526091
0!
#527201
1!
#527571
0!
#528681
1!
#529793
0!
#530165
1!
#530535
0!
#531645
1!
#532763
0!
#533123
1!
#533501
0!
#534605
1!
#534979
0!
#536087
1!
#537201
0!
#537571
1!
#538679
0!
#539051
1!
#539423
0!
#540533
1!
#540905
0!
#542011
1!
#542387
0!
#543497
1!
#543867
0!
#544975
1!
#546089
0!
#546461
1!
#547575
0!
#547939
1!
#548309
0!
#549421
1!
#550537
0!
#550901
1!
#551275
0!
#552383
1!
#553493
0!
#553863
1!
#554979
0!
#555349
1!
#555721
0!
#562637
1!
#562647
0!
#565941
1!
#565961
0!
#566205
1!
#566249
0!
#566333
1!
#566353
0!
#566407
1!
#566589
0!
#566609
1!
#566609
0!
#566715
1!
#566735
0!
#566807
1!
#566837
0!
#566859
1!
#566869
0!
#566869
1!
#566869
0!
#566899
1!
#566919
0!
#566951
1!
#566951
0!
#567013
1!
#568173
0!
#568563
1!
#569661
0!
#570045
1!
#570405
0!
#571513
1!
#571885
0!
#572995
1!
#573373
0!
#574481
1!
#574847
0!
#575961
1!
#577075
0!
#577443
1!
#577813
0!
#578923
1!
#580041
0!
#580403
1!
#580775
0!
#581889
1!
#582259
0!
#583365
1!
#584483
0!
#584843
1!
#585965
0!
#586333
1!
#586707
0!
#587813
1!
#588189
0!
#589287
1!
#589669
0!
#590771
1!
#591145
0!
#592251
1!
#593369
0!
#593729
1!
#594847
0!
#595209
1!
#595591
0!
#596695
1!
#597809
0!
#598183
1!
#598555
0!
#599655
1!
#600773
0!
#601143
1!
#602257
0!
#602619
1!
#602995
0!
#611269
1!
#611311
0!
#612683
1!
#612735
0!
#612819
1!
#612831
0!
#613297
1!
#613341
0!
#613393
1!
#613551
0!
#613865
1!
#613907
0!
#613969
1!
#613989
0!
#614019
1!
#614029
0!
#614029
1!
#614061
0!
#614185
1!
#614205
0!
#614413
1!
#615562
0!
#615942
1!
#617046
0!
#617420
1!
#618262
0!
#618272
1!
#622622
0!
#622686
1!
#628206
0!
#628302
1!
#633612
0!
#633710
1!
#634084
0!
#635196
1!
#635562
0!
#636668
1!
#637046
0!
#638158
1!
#638524
0!
#639638
1!
#640748
0!
#641112
1!
#642238
0!
#642604
1!
#642974
0!
#644078
1!
#645188
0!
#645560
1!
#645934
0!
#647046
1!
#648162
0!
#648524
1!
#649636
0!
#650010
1!
#650382
0!
#659682
1!
#659694
0!
#660016
1!
#660162
0!
#660194
1!
#660194
0!
#660236
1!
#660278
0!
#660308
1!
#660372
0!
#660532
1!
#660754
0!
#660816
1!
#660838
0!
#660912
1!
#660932
0!
#660986
1!
#661060
0!
#661112
1!
#661196
0!
#661208
1!
#661344
0!
#661438
1!
#661448
0!
#661552
1!
#661648
0!
#661700
1!
#661750
0!
#661792
1!
#662942
0!
#663332
1!
#664430
0!
#664810
1!
#665174
0!
#666290
1!
#666650
0!
#667760
1!
#668138
0!
#669244
1!
#669244
0!
#669626
1!
#670748
0!
#671114
1!
#671484
0!
#672588
1!
#673712
0!
#674072
1!
#674444
0!
#675558
1!
#675926
0!
#677040
1!
#678152
0!
#678512
1!
#679632
0!
#680004
1!
#680368
0!
#681476
1!
#681858
0!
#682956
1!
#683336
0!
#684446
1!
#684814
0!
#685918
1!
#687042
0!
#687398
1!
#688522
0!
#688886
1!
#689258
0!
#690370
1!
#691484
0!
#691844
1!
#692226
0!
#693332
1!
#694446
0!
#694808
1!
#695926
0!
#696298
1!
#696670
0!
#705232
1!
#705264
0!
#705930
1!
#705974
0!
#706288
1!
#706328
0!
#706992
1!
#707032
0!
#707146
1!
#707240
0!
#707576
1!
#707608
0!
#707682
1!
#707702
0!
#707766
1!
#707776
0!
#707850
1!
#707862
0!
#708104
1!
#709198
0!
#709586
1!
#710690
0!
#711056
1!
#711424
0!
#712544
1!
#712906
0!
#714022
1!
#714394
0!
#715502
1!
#715876
0!
#716976
1!
#718092
0!
#718458
1!
#718834
0!
#719940
1!
#721054
0!
#721428
1!
#721802
0!
#722908
1!
#723280
0!
#724382
1!
#725500
0!
#725872
1!
#726982
0!
#727350
1!
#727726
0!
#728832
1!
#729206
0!
#730314
1!
#730686
0!
#731792
1!
#732168
0!
#733274
1!
#734388
0!
#734762
1!
#735874
0!
#736244
1!
#736608
0!
#737720
1!
#738834
0!
#739202
1!
#739574
0!
#740684
1!
#741794
0!
#742168
1!
#743280
0!
#743644
1!
#744018
0!
#751122
1!
#751164
0!
#755178
1!
#755390
0!
#755422
1!
#756569
0!
#756961
1!
#758059
0!
#758439
1!
#758797
0!
#759919
1!
#760281
0!
#761401
1!
#761763
0!
#762875
1!
#763251
0!
#764353
1!
#765467
0!
#765841
1!
#766213
0!
#767317
1!
#778149
0!
#778161
1!
#783529
0!
#783611
1!
#783991
0!
#785101
1!
#786215
0!
#786575
1!
#786951
0!
#788065
1!
#789181
0!
#789537
1!
#790659
0!
#791023
1!
#791395
0!
#802861
1!
#803938
0!
#804338
1!
#804472
0!
#804504
1!
#805426
0!
#805812
1!
#806172
0!
#807290
1!
#807652
0!
#808774
1!
#809140
0!
#810248
1!
#810628
0!
#811732
1!
#812842
0!
#813214
1!
#813582
0!
#814692
1!
#815802
0!
#816170
1!
#816548
0!
#817650
1!
#818024
0!
#819138
1!
#820254
0!
#820616
1!
#821732
0!
#822106
1!
#822476
0!
#823580
1!
#823958
0!
#825062
1!
#825434
0!
#826548
1!
#826918
0!
#828020
1!
#829144
0!
#829514
1!
#830624
0!
#830996
1!
#831358
0!
#832472
1!
#833586
0!
#833950
1!
#834322
0!
#835436
1!
#836550
0!
#836920
1!
#838032
0!
#838394
1!
#838764
0!
#850226
1!
#851291
0!
#851669
1!
#852769
0!
#853145
1!
#853513
0!
#854621
1!
#854993
0!
#856107
1!
#856479
0!
#857581
1!
#857957
0!
#859063
1!
#860179
0!
#860545
1!
#860927
0!
#862033
1!
#863151
0!
#863511
1!
#863881
0!
#864997
1!
#865371
0!
#866477
1!
#867585
0!
#867955
1!
#869067
0!
#869435
1!
#869809
0!
#870917
1!
#871295
0!
#872397
1!
#872773
0!
#873877
1!
#874259
0!
#875367
1!
#876481
0!
#876849
1!
#877959
0!
#878323
1!
#878697
0!
#879809
1!
#880919
0!
#881289
1!
#881661
0!
#882771
1!
#883889
0!
#884257
1!
#885371
0!
#885735
1!
#886109
0!
#897559
1!
#898626
0!
#899010
1!
#900112
0!
#900496
1!
#900852
0!
#901966
1!
#902338
0!
#903456
1!
#903826
0!
#904936
1!
#905308
0!
#906416
1!
#907528
0!
#907896
1!
#908270
0!
#909374
1!
#910492
0!
#910860
1!
#911232
0!
#912340
1!
#912714
0!
#913816
1!
#914942
0!
#915304
1!
#916416
0!
#916788
1!
#917152
0!
#918266
1!
#929060
0!
#929104
1!
#934444
0!
#943784
1!
#943836
0!
#943990
1!
#943990
0!
#944146
1!
#944258
0!
#944298
1!
#944340
0!
#944782
1!
#945908
0!
#946292
1!
#947394
0!
#947776
1!
#948138
0!
#949250
1!
#949626
0!
#950742
1!
#951104
0!
#952208
1!
#952590
0!
#953694
1!
#954806
0!
#955182
1!
#955546
0!
#956658
1!
#957770
0!
#958140
1!
#958510
0!
#959624
1!
#959990
0!
#961102
1!
#962220
0!
#962590
1!
#963700
0!
#964072
1!
#964438
0!
#965554
1!
#965928
0!
#967032
1!
#967402
0!
#968510
1!
#968878
0!
#969988
1!
#971106
0!
#971468
1!
#972586
0!
#972954
1!
#973324
0!
#974438
1!
#975550
0!
#975922
1!
#976294
0!
#977404
1!
#978520
0!
#978880
1!
#979992
0!
#980360
1!
#980736
0!
#990964
1!
#990974
0!
#991036
1!
#991048
0!
#992192
1!
#993273
0!
#993657
1!
#994763
0!
#995137
1!
#995509
0!
#996623
1!
#996993
0!
#998105
1!
#998475
0!
#999581
1!
#999953
0!
#1001055
1!
#1002173
0!
#1002545
1!
#1002919
0!
#1004021
1!
#1005139
0!
#1005509
1!
#1005879
0!
#1006981
1!
#1007361
0!
#1008471
1!
#1009585
0!
#1009945
1!
#1011065
0!
#1011437
1!
#1011803
0!
#1012909
1!
#1013283
0!
#1014399
1!
#1014773
0!
#1015877
1!
#1016247
0!
#1017355
1!
#1018469
0!
#1018841
1!
#1019951
0!
#1020323
1!
#1020693
0!
#1021805
1!
#1022915
0!
#1023287
1!
#1023659
0!
#1024765
1!
#1025885
0!
#1026245
1!
#1027365
0!
#1027735
1!
#1028107
0!
#1038877
1!
#1038907
0!
#1038949
1!
#1039001
0!
#1039561
1!
#1040634
0!
#1041028
1!
#1042120
0!
#1042496
1!
#1042864
0!
#1043978
1!
#1044352
0!
#1045462
1!
#1045830
0!
#1046936
1!
#1047318
0!
#1048416
1!
#1049534
0!
#1049908
1!
#1050274
0!
#1051380
1!
#1052494
0!
#1052866
1!
#1053240
0!
#1054350
1!
#1054724
0!
#1055826
1!
#1056944
0!
#1057308
1!
#1058422
0!
#1058796
1!
#1059170
0!
#1060274
1!
#1060654
0!
#1061758
1!
#1062130
0!
#1063234
1!
#1063614
0!
#1064716
1!
#1065838
0!
#1066202
1!
#1067312
0!
#1067680
1!
#1068056
0!
#1069160
1!
#1085334
0!
#1086940
1!
#1088054
0!
#1088428
1!
#1089536
0!
#1089908
1!
#1090278
0!
#1091388
1!
#1091756
0!
#1092868
1!
#1093238
0!
#1094352
1!
#1094724
0!
#1095828
1!
#1096942
0!
#1097312
1!
#1097684
0!
#1098796
1!
#1099912
0!
#1100272
1!
#1100650
0!
#1101754
1!
#1102136
0!
#1103238
1!
#1104348
0!
#1104728
1!
#1105830
0!
#1106210
1!
#1106572
0!
#1107688
1!
#1108060
0!
#1109164
1!
#1109536
0!
#1110642
1!
#1111018
0!
#1112130
1!
#1113244
0!
#1113612
1!
#1114724
0!
#1115096
1!
#1115460
0!
#1116576
1!
#1117686
0!
#1118060
1!
#1118432
0!
#1119542
1!
#1120654
0!
#1121024
1!
#1122130
0!
#1122504
1!
#1122872
0!
#1134332
1!
#1135450
0!
#1135850
1!
#1135982
0!
#1136014
1!
#1136936
0!
#1137324
1!
#1137680
0!
#1138806
1!
#1139166
0!
#1140282
1!
#1140656
0!
#1141766
1!
#1142138
0!
#1143242
1!
#1144360
0!
#1144720
1!
#1145100
0!
#1146206
1!
#1147320
0!
#1147690
1!
#1148066
0!
#1149174
1!
#1149544
0!
#1150646
1!
#1151766
0!
#1152138
1!
#1153248
0!
#1153614
1!
#1153992
0!
#1155098
1!
#1155474
0!
#1156576
1!
#1156950
0!
#1158064
1!
#1158436
0!
#1159538
1!
#1160654
0!
#1161020
1!
#1162142
0!
#1162504
1!
#1162882
0!
#1163986
1!
#1165104
0!
#1165468
1!
#1165842
0!
#1166948
1!
#1168062
0!
#1168434
1!
#1169546
0!
#1169916
1!
#1170288
0!
#1181280
1!
#1181330
0!
#1181360
1!
#1181372
0!
#1181372
1!
#1181382
0!
#1181454
1!
#1181464
0!
#1181744
1!
#1182803
0!
#1183179
1!
#1184291
0!
#1184663
1!
#1185025
0!
#1186145
1!
#1186515
0!
#1187617
1!
#1187987
0!
#1189097
1!
#1189475
0!
#1190585
1!
#1191699
0!
#1192063
1!
#1192443
0!
#1193549
1!
#1194665
0!
#1195027
1!
#1195399
0!
#1196505
1!
#1196881
0!
#1197989
1!
#1199103
0!
#1199471
1!
#1200593
0!
#1200955
1!
#1201329
0!
#1202437
1!
#1202815
0!
#1203919
1!
#1204289
0!
#1205399
1!
#1205771
0!
#1206881
1!
#1207995
0!
#1208355
1!
#1209479
0!
#1209849
1!
#1210221
0!
#1211321
1!
#1212443
0!
#1212809
1!
#1213181
0!
#1214293
1!
#1215399
0!
#1215773
1!
#1216887
0!
#1217259
1!
#1217631
0!
#1220335
1!
#1236327
0!
#1236521
1!
#1236885
0!
#1237999
1!
#1239111
0!
#1239483
1!
#1239857
0!
#1240961
1!
#1242071
0!
#1242447
1!
#1242815
0!
#1243929
1!
#1244299
0!
#1245403
1!
#1246515
0!
#1246889
1!
#1248001
0!
#1248369
1!
#1248743
0!
#1249847
1!
#1250223
0!
#1251329
1!
#1251709
0!
#1252819
1!
#1253187
0!
#1254291
1!
#1255413
0!
#1255781
1!
#1256893
0!
#1257263
1!
#1257631
0!
#1258745
1!
#1259853
0!
#1260223
1!
#1260595
0!
#1261707
1!
#1262819
0!
#1263193
1!
#1264295
0!
#1264669
1!
#1265043
0!
#1276487
1!
#1277572
0!
#1277964
1!
#1279066
0!
#1279444
1!
#1279800
0!
#1280916
1!
#1281286
0!
#1282400
1!
#1282772
0!
#1283882
1!
#1284250
0!
#1285366
1!
#1286474
0!
#1286842
1!
#1287212
0!
#1288328
1!
#1289442
0!
#1289806
1!
#1290180
0!
#1291292
1!
#1291662
0!
#1292772
1!
#1293890
0!
#1294254
1!
#1295368
0!
#1295734
1!
#1296110
0!
#1297212
1!
#1297592
0!
#1298700
1!
#1299070
0!
#1300178
1!
#1300546
0!
#1301658
1!
#1302772
0!
#1303142
1!
#1304252
0!
#1304628
1!
#1305000
0!
#1306110
1!
#1307220
0!
#1307592
1!
#1307964
0!
#1309066
1!
#1310184
0!
#1310546
1!
#1311670
0!
#1312032
1!
#1312032
0!
#1323184
1!
#1323194
0!
#1323612
1!
#1324697
0!
#1325089
1!
#1325089
0!
#1326193
1!
#1326557
0!
#1327663
1!
#1328039
0!
#1329151
1!
#1329519
0!
#1330629
1!
#1331007
0!
#1332113
1!
#1333227
0!
#1333591
1!
#1333967
0!
#1335071
1!
#1336193
0!
#1336557
1!
#1336925
0!
#1338039
1!
#1338411
0!
#1339521
1!
#1340635
0!
#1341003
1!
#1342121
0!
#1342481
1!
#1342853
0!
#1343969
1!
#1344341
0!
#1345449
1!
#1345819
0!
#1346925
1!
#1347303
0!
#1348411
1!
#1349523
0!
#1349891
1!
#1351011
0!
#1351375
1!
#1351745
0!
#1352857
1!
#1353975
0!
#1354337
1!
#1354709
0!
#1355815
1!
#1356939
0!
#1357301
1!
#1358413
0!
#1358787
1!
#1359161
0!
#1370615
1!
#1375688
0!
#1375720
1!
#1386678
0!
#1386906
1!
#1388028
0!
#1388390
1!
#1389508
0!
#1389876
1!
#1390254
0!
#1391348
1!
#1391728
0!
#1392830
1!
#1393206
0!
#1394320
1!
#1394692
0!
#1395800
1!
#1396912
0!
#1397284
1!
#1398392
0!
#1398762
1!
#1399138
0!
#1400240
1!
#1401358
0!
#1401730
1!
#1402100
0!
#1403212
1!
#1404318
0!
#1404692
1!
#1405810
0!
#1406172
1!
#1406544
0!
#1415868
1!
#1415878
0!
#1415878
1!
#1415898
0!
#1415940
1!
#1415970
0!
#1416294
1!
#1416314
0!
#1416430
1!
#1416430
0!
#1416492
1!
#1416566
0!
#1416698
1!
#1416740
0!
#1416832
1!
#1416956
0!
#1416998
1!
#1417060
0!
#1417206
1!
#1417340
0!
#1417394
1!
#1417436
0!
#1417774
1!
#1417826
0!
#1417838
1!
#1417902
0!
#1417954
1!
#1419029
0!
#1419421
1!
#1420527
0!
#1420895
1!
#1421259
0!
#1422373
1!
#1422745
0!
#1423855
1!
#1424235
0!
#1425337
1!
#1425709
0!
#1426821
1!
#1427929
0!
#1428299
1!
#1428299
0!
#1428679
1!
#1429791
0!
#1430165
1!
#1430535
0!
#1431647
1!
#1432021
0!
#1433129
1!
#1434243
0!
#1434613
1!
#1435723
0!
#1436091
1!
#1436461
0!
#1437575
1!
#1437943
0!
#1439049
1!
#1439431
0!
#1440537
1!
#1440907
0!
#1442013
1!
#1443129
0!
#1443501
1!
#1444613
0!
#1444987
1!
#1445353
0!
#1446461
1!
#1447577
0!
#1447943
1!
#1448313
0!
#1449427
1!
#1450537
0!
#1450907
1!
#1452021
0!
#1452389
1!
#1452767
0!
#1462915
1!
#1463061
0!
#1464229
1!
#1465322
0!
#1465710
1!
#1466804
0!
#1467180
1!
#1467552
0!
#1468664
1!
#1469036
0!
#1470142
1!
#1470514
0!
#1471630
1!
#1471994
0!
#1473108
1!
#1474224
0!
#1474588
1!
#1474964
0!
#1476072
1!
#1477182
0!
#1477550
1!
#1477930
0!
#1479034
1!
#1479406
0!
#1480512
1!
#1481636
0!
#1481996
1!
#1483110
0!
#1483484
1!
#1483852
0!
#1484968
1!
#1485340
0!
#1486444
1!
#1486816
0!
#1487932
1!
#1488306
0!
#1489408
1!
#1490524
0!
#1490888
1!
#1492000
0!
#1492370
1!
#1492746
0!
#1493850
1!
#1494966
0!
#1495334
1!
#1495704
0!
#1496816
1!
#1497932
0!
#1498296
1!
#1499418
0!
#1499780
1!
#1500160
0!
#1511230
1!
#1511240
0!
#1511620
1!
#1512682
0!
#1513072
1!
#1514176
0!
#1514550
1!
#1514912
0!
#1516024
1!
#1516396
0!
#1517510
1!
#1517882
0!
#1518992
1!
#1519360
0!
#1520472
1!
#1525486
0!
#1525508
1!
#1536470
0!
#1536776
1!
#1537882
0!
#1538254
1!
#1539366
0!
#1539734
1!
#1540112
0!
#1541216
1!
#1542336
0!
#1542696
1!
#1543072
0!
#1544184
1!
#1545296
0!
#1545662
1!
#1546776
0!
#1547144
1!
#1547520
0!
#1557166
1!
#1557176
0!
#1557840
1!
#1558905
0!
#1559279
1!
#1560391
0!
#1560759
1!
#1561129
0!
#1562241
1!
#1562615
0!
#1563727
1!
#1564099
0!
#1565203
1!
#1565575
0!
#1566689
1!
#1567799
0!
#1568173
1!
#1568541
0!
#1569645
1!
#1570759
0!
#1571135
1!
#1571505
0!
#1572615
1!
#1572985
0!
#1574101
1!
#1575213
0!
#1575577
1!
#1576689
0!
#1577057
1!
#1577431
0!
#1578545
1!
#1578919
0!
#1580027
1!
#1580399
0!
#1581503
1!
#1581883
0!
#1582991
1!
#1584101
0!
#1584469
1!
#1585583
0!
#1585955
1!
#1586323
0!
#1587431
1!
#1588553
0!
#1588913
1!
#1589293
0!
#1590401
1!
#1591515
0!
#1591875
1!
#1592991
0!
#1593363
1!
#1593733
0!
#1604391
1!
#1604401
0!
#1605189
1!
#1606272
0!
#1606652
1!
#1607756
0!
#1608132
1!
#1608500
0!
#1609618
1!
#1609988
0!
#1611094
1!
#1611466
0!
#1612578
1!
#1612952
0!
#1614060
1!
#1615174
0!
#1615538
1!
#1615908
0!
#1617022
1!
#1618138
0!
#1618500
1!
#1618878
0!
#1619984
1!
#1620356
0!
#1621462
1!
#1622586
0!
#1622946
1!
#1624062
0!
#1624434
1!
#1624804
0!
#1625908
1!
#1626290
0!
#1627392
1!
#1627764
0!
#1628872
1!
#1629254
0!
#1630356
1!
#1631478
0!
#1631842
1!
#1632956
0!
#1633322
1!
#1633692
0!
#1634806
1!
#1635918
0!
#1636288
1!
#1636658
0!
#1637770
1!
#1638878
0!
#1639248
1!
#1640364
0!
#1640732
1!
#1641102
0!
#1651960
1!
#1651960
0!
#1651980
1!
#1652002
0!
#1652380
1!
#1653457
0!
#1653837
1!
#1654949
0!
#1655319
1!
#1655681
0!
#1656803
1!
#1657171
0!
#1658273
1!
#1658657
0!
#1659765
1!
#1660137
0!
#1661237
1!
#1662359
0!
#1662731
1!
#1663099
0!
#1664211
1!
#1665321
0!
#1665685
1!
#1666065
0!
#1667171
1!
#1667543
0!
#1668653
1!
#1669769
0!
#1670049
1!
#1675091
0!
#1675133
1!
#1686073
0!
#1686435
1!
#1687553
0!
#1687925
1!
#1688295
0!
#1697953
1!
#1699060
0!
#1699440
1!
#1700538
0!
#1700920
1!
#1701294
0!
#1702398
1!
#1702772
0!
