lower.vcd
$timescale 1 us $end
$scope module Homey $end
$var wire 1 ! Recording $end
$upscope $end
$enddefinitions $end
#0
1!
#15887
0!
#22127
1!
#22181
0!
#22287
1!
#22307
0!
#23461
1!
#23619
0!
#23705
1!
#23705
0!
#23759
1!
#23843
0!
#23895
1!
#24073
0!
#24073
1!
#24315
0!
#24357
1!
#24453
0!
#24475
1!
#24559
0!
#24681
1!
#24723
0!
#24753
1!
#24775
0!
#24857
1!
#24867
0!
#24899
1!
#24909
0!
#24939
1!
#25227
0!
#25279
1!
#25311
0!
#25361
1!
#25463
0!
#25495
1!
#25683
0!
#25693
1!
#25703
0!
#25703
1!
#25775
0!
#25889
1!
#25931
0!
#26199
1!
#26231
0!
#26251
1!
#26399
0!
#26735
1!
#26757
0!
#27253
1!
#27273
0!
#28363
1!
#28395
0!
#28595
1!
#28605
0!
#28817
1!
#28839
0!
#29231
1!
#29241
0!
#29241
1!
#29261
0!
#31353
1!
#31365
0!
#32083
1!
#32093
0!
#32311
1!
#32435
0!
#32603
1!
#32745
0!
#33187
1!
#33199
0!
#33651
1!
#49598
0!
#57106
1!
#57116
0!
#58152
1!
#58182
0!
#59086
1!
#59138
0!
#59784
1!
#59826
0!
#60324
1!
#60334
0!
#60540
1!
#60572
0!
#61000
1!
#61020
0!
#62174
1!
#62206
0!
#62428
1!
#78427
0!
#83833
1!
#83875
0!
#84135
1!
#84217
0!
#84757
1!
#84777
0!
#84881
1!
#84881
0!
#84953
1!
#85129
0!
#85199
1!
#85271
0!
#85311
1!
#85333
0!
#85395
1!
#85541
0!
#85561
1!
#85783
0!
#85857
1!
#85889
0!
#85909
1!
#87062
0!
#87454
1!
#88544
0!
#88928
1!
#89290
0!
#90402
1!
#90774
0!
#91888
1!
#92258
0!
#93360
1!
#93740
0!
#94846
1!
#95962
0!
#96328
1!
#96702
0!
#97804
1!
#98914
0!
#99286
1!
#99656
0!
#100770
1!
#101146
0!
#102246
1!
#103358
0!
#103728
1!
#104840
0!
#105208
1!
#105582
0!
#106686
1!
#107066
0!
#108164
1!
#108546
0!
#109650
1!
#110028
0!
#111128
1!
#112242
0!
#112608
1!
#113726
0!
#114090
1!
#114464
0!
#115570
1!
#115942
0!
#117050
1!
#118162
0!
#118536
1!
#119640
0!
#120016
1!
#120390
0!
#121492
1!
#121874
0!
#131114
1!
#131144
0!
#131310
1!
#131516
0!
#131536
1!
#131588
0!
#131598
1!
#131608
0!
#131608
1!
#131720
0!
#131742
1!
#131782
0!
#131832
1!
#132026
0!
#132152
1!
#132224
0!
#132244
1!
#132336
0!
#132368
1!
#132636
0!
#132720
1!
#132740
0!
#132774
1!
#132806
0!
#133090
1!
#133122
0!
#133282
1!
#134437
0!
#134817
1!
#135921
0!
#136295
1!
#136665
0!
#137777
1!
#138143
0!
#139255
1!
#139635
0!
#140733
1!
#141105
0!
#142217
1!
#143329
0!
#143699
1!
#144069
0!
#145175
1!
#146289
0!
#146655
1!
#147037
0!
#148141
1!
#148509
0!
#149617
1!
#150737
0!
#151105
1!
#152213
0!
#152581
1!
#152951
0!
#154065
1!
#154439
0!
#155535
1!
#155913
0!
#157017
1!
#157389
0!
#158505
1!
#159623
0!
#159981
1!
#161093
0!
#161465
1!
#161841
0!
#162941
1!
#163325
0!
#164423
1!
#165537
0!
#165903
1!
#167021
0!
#167383
1!
#167757
0!
#168867
1!
#169245
0!
#176715
1!
#176745
0!
#179477
1!
#179477
0!
#179509
1!
#179541
0!
#180099
1!
#181166
0!
#181542
1!
#182648
0!
#183016
1!
#183386
0!
#184494
1!
#184864
0!
#185972
1!
#186354
0!
#187460
1!
#187832
0!
#188934
1!
#190056
0!
#190418
1!
#190790
0!
#191900
1!
#193014
0!
#193386
1!
#193752
0!
#194856
1!
#195228
0!
#196334
1!
#197450
0!
#197822
1!
#198934
0!
#199308
1!
#199676
0!
#200778
1!
#201158
0!
#202266
1!
#202638
0!
#203740
1!
#204118
0!
#205222
1!
#206338
0!
#206708
1!
#207814
0!
#208184
1!
#208562
0!
#209662
1!
#210034
0!
#211146
1!
#212260
0!
#212632
1!
#228824
0!
#228910
1!
#230028
0!
#230390
1!
#230764
0!
#231876
1!
#232242
0!
#233356
1!
#233728
0!
#234826
1!
#235202
0!
#236316
1!
#237426
0!
#237790
1!
#238172
0!
#239276
1!
#240388
0!
#240756
1!
#241124
0!
#242238
1!
#242608
0!
#243720
1!
#244840
0!
#245194
1!
#246318
0!
#246684
1!
#247054
0!
#248158
1!
#248536
0!
#249640
1!
#250014
0!
#251114
1!
#251490
0!
#252600
1!
#253714
0!
#254086
1!
#255192
0!
#255562
1!
#255936
0!
#257036
1!
#257412
0!
#258518
1!
#259640
0!
#260004
1!
#261114
0!
#261484
1!
#261856
0!
#262964
1!
#263336
0!
#270640
1!
#270660
0!
#270976
1!
#271008
0!
#271544
1!
#271554
0!
#272052
1!
#272106
0!
#272334
1!
#272366
0!
#272520
1!
#272572
0!
#272704
1!
#272724
0!
#273434
1!
#273486
0!
#274324
1!
#274346
0!
#274788
1!
#275889
0!
#276261
1!
#277369
0!
#277739
1!
#278105
0!
#279213
1!
#279585
0!
#280697
1!
#281071
0!
#282179
1!
#282549
0!
#283655
1!
#284767
0!
#285139
1!
#285523
0!
#286619
1!
#287733
0!
#288099
1!
#288473
0!
#289583
1!
#289955
0!
#291063
1!
#292175
0!
#292547
1!
#293655
0!
#294025
1!
#294397
0!
#295501
1!
#295873
0!
#296981
1!
#297355
0!
#298465
1!
#298835
0!
#299943
1!
#301055
0!
#301425
1!
#302533
0!
#302909
1!
#303277
0!
#304381
1!
#304763
0!
#305861
1!
#306977
0!
#307345
1!
#308457
0!
#308827
1!
#309199
0!
#310301
1!
#310683
0!
#317177
1!
#317291
0!
#318469
1!
#318521
0!
#319583
1!
#319605
0!
#319731
1!
#319763
0!
#319941
1!
#319995
0!
#320163
1!
#320173
0!
#320173
1!
#320173
0!
#320269
1!
#320425
0!
#320803
1!
#320815
0!
#321059
1!
#321081
0!
#321249
1!
#321249
0!
#321595
1!
#321903
0!
#321945
1!
#323131
0!
#323507
1!
#324603
0!
#324975
1!
#325347
0!
#326457
1!
#326835
0!
#327939
1!
#328319
0!
#329415
1!
#329789
0!
#330897
1!
#332015
0!
#332387
1!
#332749
0!
#333861
1!
#334975
0!
#335339
1!
#335713
0!
#336817
1!
#337201
0!
#338307
1!
#339413
0!
#339785
1!
#340899
0!
#341261
1!
#341643
0!
#342743
1!
#343121
0!
#344227
1!
#344599
0!
#345701
1!
#346077
0!
#347191
1!
#348303
0!
#348665
1!
#349783
0!
#350147
1!
#350521
0!
#351631
1!
#352001
0!
#353113
1!
#354221
0!
#354587
1!
#355703
0!
#356077
1!
#356445
0!
#357551
1!
#357923
0!
#363793
1!
#374343
0!
#374375
1!
#379727
0!
#379769
1!
#380127
0!
#381239
1!
#382353
0!
#382725
1!
#383097
0!
#384203
1!
#384575
0!
#385683
1!
#386803
0!
#387169
1!
#388277
0!
#388651
1!
#389023
0!
#390121
1!
#390501
0!
#391605
1!
#391975
0!
#393083
1!
#393461
0!
#394567
1!
#395679
0!
#396047
1!
#397161
0!
#397535
1!
#397907
0!
#399011
1!
#399381
0!
#400487
1!
#401607
0!
#401971
1!
#403087
0!
#403459
1!
#403823
0!
#404927
1!
#405303
0!
#414923
1!
#414975
0!
#415657
1!
#415667
0!
#415667
1!
#415689
0!
#415865
1!
#415907
0!
#415947
1!
#415957
0!
#416297
1!
#416329
0!
#416381
1!
#416413
0!
#416519
1!
#416529
0!
#416693
1!
#416705
0!
#416715
1!
#417870
0!
#418240
1!
#419348
0!
#419732
1!
#420100
0!
#421202
1!
#421576
0!
#422680
1!
#423058
0!
#424160
1!
#424540
0!
#425644
1!
#426758
0!
#427122
1!
#427498
0!
#428604
1!
#429722
0!
#430088
1!
#430466
0!
#431572
1!
#431944
0!
#433054
1!
#434164
0!
#434524
1!
#435640
0!
#436012
1!
#436386
0!
#437494
1!
#437868
0!
#438976
1!
#439350
0!
#440458
1!
#440822
0!
#441934
1!
#443052
0!
#443414
1!
#444530
0!
#444892
1!
#445264
0!
#446376
1!
#446752
0!
#447852
1!
#448974
0!
#449338
1!
#450450
0!
#450814
1!
#451192
0!
#452302
1!
#452672
0!
#462238
1!
#462260
0!
#462578
1!
#462608
0!
#462618
1!
#462630
0!
#462724
1!
#462734
0!
#462830
1!
#462862
0!
#463290
1!
#463364
0!
#463406
1!
#463428
0!
#463492
1!
#463534
0!
#463790
1!
#463918
0!
#464096
1!
#465253
0!
#465631
1!
#466727
0!
#467107
1!
#467467
0!
#468581
1!
#468953
0!
#470061
1!
#470441
0!
#471545
1!
#471921
0!
#473023
1!
#474135
0!
#474509
1!
#474881
0!
#475979
1!
#477105
0!
#477475
1!
#477847
0!
#478945
1!
#479327
0!
#480427
1!
#481539
0!
#481907
1!
#483029
0!
#483397
1!
#483769
0!
#484873
1!
#485247
0!
#486353
1!
#486725
0!
#487833
1!
#488205
0!
#489313
1!
#490429
0!
#490799
1!
#491909
0!
#492279
1!
#492651
0!
#493757
1!
#494137
0!
#495237
1!
#496353
0!
#496717
1!
#497831
0!
#498199
1!
#498575
0!
#499681
1!
#500055
0!
#509353
1!
#509385
0!
#509435
1!
#509485
0!
#509843
1!
#509865
0!
#510121
1!
#510195
0!
#510721
1!
#510773
0!
#510795
1!
#510815
0!
#511023
1!
#511035
0!
#511509
1!
#512566
0!
#512944
1!
#514048
0!
#514432
1!
#515384
0!
#515394
1!
#525340
0!
#525382
1!
#531082
0!
#532196
1!
#532572
0!
#533672
1!
#534046
0!
#535158
1!
#535528
0!
#536632
1!
#537748
0!
#538110
1!
#539228
0!
#539600
1!
#539972
0!
#541078
1!
#541452
0!
#542560
1!
#543674
0!
#544044
1!
#545152
0!
#545526
1!
#545890
0!
#546994
1!
#547372
0!
#557424
1!
#558513
0!
#558899
1!
#560003
0!
#560373
1!
#560743
0!
#561853
1!
#562221
0!
#563327
1!
#563709
0!
#564815
1!
#565189
0!
#566299
1!
#567411
0!
#567777
1!
#568151
0!
#569251
1!
#570371
0!
#570735
1!
#571107
0!
#572211
1!
#572585
0!
#573695
1!
#574815
0!
#575179
1!
#576295
0!
#576663
1!
#577031
0!
#578137
1!
#578517
0!
#579621
1!
#579993
0!
#581097
1!
#581483
0!
#582583
1!
#583697
0!
#584061
1!
#585181
0!
#585551
1!
#585923
0!
#587027
1!
#587397
0!
#588505
1!
#589619
0!
#589991
1!
#591097
0!
#591469
1!
#591839
0!
#592947
1!
#593323
0!
#602467
1!
#602477
0!
#602793
1!
#602813
0!
#603149
1!
#603213
0!
#603347
1!
#603367
0!
#603471
1!
#603533
0!
#603593
1!
#603675
0!
#603767
1!
#603799
0!
#603839
1!
#603861
0!
#604081
1!
#604091
0!
#604577
1!
#604609
0!
#604629
1!
#605814
0!
#606208
1!
#607304
0!
#607680
1!
#608048
0!
#609164
1!
#609528
0!
#610628
1!
#611010
0!
#612118
1!
#612486
0!
#613592
1!
#614712
0!
#615080
1!
#615458
0!
#616556
1!
#617672
0!
#618040
1!
#618412
0!
#619518
1!
#619896
0!
#621002
1!
#622116
0!
#622486
1!
#623598
0!
#623958
1!
#624336
0!
#625440
1!
#625814
0!
#626932
1!
#627294
0!
#628410
1!
#628784
0!
#629892
1!
#630998
0!
#631364
1!
#632486
0!
#632846
1!
#633224
0!
#634336
1!
#634704
0!
#635808
1!
#636920
0!
#637294
1!
#638408
0!
#638780
1!
#639142
0!
#640258
1!
#640630
0!
#650934
1!
#650996
0!
#651038
1!
#651082
0!
#651166
1!
#651188
0!
#651430
1!
#651462
0!
#651684
1!
#651746
0!
#651882
1!
#651892
0!
#651892
1!
#651912
0!
#651954
1!
#651984
0!
#652078
1!
#653157
0!
#653541
1!
#654639
0!
#655013
1!
#655387
0!
#656501
1!
#656859
0!
#657975
1!
#658347
0!
#659451
1!
#659823
0!
#660937
1!
#662055
0!
#662417
1!
#662791
0!
#663899
1!
#674867
0!
#674879
1!
#674889
0!
#674889
1!
#680557
0!
#681669
1!
#682041
0!
#683153
1!
#684265
0!
#684629
1!
#685743
0!
#686115
1!
#686481
0!
#687587
1!
#687969
0!
#698079
1!
#698109
0!
#698277
1!
#698309
0!
#699413
1!
#700512
0!
#700902
1!
#701994
0!
#702378
1!
#702746
0!
#703854
1!
#704224
0!
#705334
1!
#705706
0!
#706814
1!
#707184
0!
#708294
1!
#709412
0!
#709776
1!
#710144
0!
#711260
1!
#712374
0!
#712732
1!
#713112
0!
#714216
1!
#714594
0!
#715696
1!
#716810
0!
#717184
1!
#718298
0!
#718658
1!
#719036
0!
#720142
1!
#720514
0!
#721618
1!
#721998
0!
#723102
1!
#723478
0!
#724582
1!
#725704
0!
#726066
1!
#727178
0!
#727548
1!
#727916
0!
#729024
1!
#729402
0!
#730504
1!
#731620
0!
#731994
1!
#733108
0!
#733468
1!
#733844
0!
#734948
1!
#735330
0!
#744854
1!
#744886
0!
#745434
1!
#745444
0!
#745550
1!
#745560
0!
#745688
1!
#745740
0!
#745972
1!
#746068
0!
#746214
1!
#746214
0!
#746246
1!
#746320
0!
#746532
1!
#747687
0!
#748063
1!
#749173
0!
#749545
1!
#749917
0!
#751025
1!
#751397
0!
#752503
1!
#752881
0!
#753979
1!
#754361
0!
#755461
1!
#756579
0!
#756949
1!
#757317
0!
#758423
1!
#759537
0!
#759905
1!
#760285
0!
#761391
1!
#761763
0!
#762867
1!
#763983
0!
#764345
1!
#765469
0!
#765829
1!
#766209
0!
#767307
1!
#767683
0!
#768797
1!
#769163
0!
#770271
1!
#770653
0!
#771755
1!
#772865
0!
#773237
1!
#774349
0!
#774713
1!
#775095
0!
#776201
1!
#776575
0!
#777675
1!
#778797
0!
#779161
1!
#780277
0!
#780643
1!
#781011
0!
#782125
1!
#782495
0!
#792707
1!
#792727
0!
#793951
1!
#795048
0!
#795424
1!
#796526
0!
#796896
1!
#797262
0!
#798372
1!
#798750
0!
#799862
1!
#800234
0!
#801342
1!
#801712
0!
#802816
1!
#803934
0!
#804304
1!
#804676
0!
#805782
1!
#806896
0!
#807270
1!
#807634
0!
#808748
1!
#809120
0!
#810228
1!
#811340
0!
#811706
1!
#812824
0!
#813186
1!
#813564
0!
#814664
1!
#831060
0!
#841306
1!
#842389
0!
#842777
1!
#843869
0!
#844253
1!
#844613
0!
#845737
1!
#846099
0!
#847207
1!
#847583
0!
#848695
1!
#849069
0!
#850171
1!
#851289
0!
#851651
1!
#852023
0!
#853135
1!
#854247
0!
#854611
1!
#854987
0!
#856095
1!
#856475
0!
#857577
1!
#858687
0!
#859059
1!
#860173
0!
#860539
1!
#860913
0!
#862021
1!
#862391
0!
#863501
1!
#863875
0!
#864979
1!
#865361
0!
#866467
1!
#867577
0!
#867949
1!
#869057
0!
#869429
1!
#869803
0!
#870901
1!
#871277
0!
#872385
1!
#873507
0!
#873867
1!
#874987
0!
#875355
1!
#875725
0!
#876837
1!
#877209
0!
#886697
1!
#886697
0!
#886717
1!
#886809
0!
#887007
1!
#887017
0!
#887213
1!
#887265
0!
#887627
1!
#887669
0!
#887741
1!
#887771
0!
#887905
1!
#887989
0!
#888011
1!
#888021
0!
#888107
1!
#888181
0!
#888591
1!
#889682
0!
#890076
1!
#891170
0!
#891546
1!
#891914
0!
#893032
1!
#893400
0!
#894508
1!
#894880
0!
#895990
1!
#896360
0!
#897462
1!
#898578
0!
#898952
1!
#899322
0!
#900432
1!
#901542
0!
#901914
1!
#902286
0!
#903388
1!
#903770
0!
#904872
1!
#905988
0!
#906358
1!
#907468
0!
#907836
1!
#908204
0!
#909312
1!
#909686
0!
#910792
1!
#911170
0!
#912274
1!
#912652
0!
#913764
1!
#914874
0!
#915242
1!
#916352
0!
#916724
1!
#917096
0!
#918204
1!
#918574
0!
#919680
1!
#920800
0!
#921162
1!
#922276
0!
#922652
1!
#923024
0!
#924122
1!
#924504
0!
#933898
1!
#933918
0!
#934284
1!
#934294
0!
#934940
1!
#934982
0!
#934992
1!
#935004
0!
#935108
1!
#935140
0!
#935394
1!
#935426
0!
#935488
1!
#935488
0!
#935866
1!
#935908
0!
#935918
1!
#936998
0!
#937380
1!
#938486
0!
#938860
1!
#939222
0!
#940336
1!
#940704
0!
#941818
1!
#942186
0!
#943298
1!
#943664
0!
#944780
1!
#945886
0!
#946260
1!
#946630
0!
#947744
1!
#948856
0!
#949218
1!
#949592
0!
#950696
1!
#951072
0!
#952180
1!
#953294
0!
#953666
1!
#954778
0!
#955148
1!
#955518
0!
#956624
1!
#957000
0!
#958106
1!
#958480
0!
#959590
1!
#959964
0!
#961074
1!
#962184
0!
#962548
1!
#963670
0!
#964034
1!
#964404
0!
#965516
1!
#965888
0!
#965998
1!
#970938
0!
#970960
1!
#981916
0!
#983282
1!
#984398
0!
#984766
1!
#985876
0!
#986248
1!
#986622
0!
#987730
1!
#988106
0!
#989206
1!
#989584
0!
#990690
1!
#991064
0!
#992178
1!
#993292
0!
#993656
1!
#994028
0!
#995136
1!
#996246
0!
#996618
1!
#996992
0!
#998094
1!
#998466
0!
#999576
1!
#1000688
0!
#1001058
1!
#1002174
0!
#1002544
1!
#1002916
0!
#1004022
1!
#1004394
0!
#1005506
1!
#1005872
0!
#1006980
1!
#1007350
0!
#1008466
1!
#1009576
0!
#1009946
1!
#1011056
0!
#1011426
1!
#1011798
0!
#1012912
1!
#1013286
0!
#1014390
1!
#1015508
0!
#1015868
1!
#1016988
0!
#1017352
1!
#1017724
0!
#1018840
1!
#1019202
0!
#1029870
1!
#1029880
0!
#1030140
1!
#1030404
0!
#1030652
1!
#1031737
0!
#1032129
1!
#1033219
0!
#1033595
1!
#1033967
0!
#1035077
1!
#1035449
0!
#1036557
1!
#1036929
0!
#1038043
1!
#1038407
0!
#1039513
1!
#1040639
0!
#1041003
1!
#1041371
0!
#1042483
1!
#1043599
0!
#1043963
1!
#1044333
0!
#1045441
1!
#1045823
0!
#1046927
1!
#1048045
0!
#1048405
1!
#1049523
0!
#1049883
1!
#1050265
0!
#1051371
1!
#1051741
0!
#1052853
1!
#1053229
0!
#1054333
1!
#1054709
0!
#1055811
1!
#1056929
0!
#1057293
1!
#1058407
0!
#1058779
1!
#1059149
0!
#1060257
1!
#1060631
0!
#1061739
1!
#1062849
0!
#1063223
1!
#1064337
0!
#1064697
1!
#1065073
0!
#1066181
1!
#1066559
0!
#1077223
1!
#1077233
0!
#1077469
1!
#1077491
0!
#1077947
1!
#1077957
0!
#1078011
1!
#1079100
0!
#1079480
1!
#1080578
0!
#1080960
1!
#1081320
0!
#1082436
1!
#1082804
0!
#1083914
1!
#1084288
0!
#1085398
1!
#1085770
0!
#1086876
1!
#1087992
0!
#1088364
1!
#1088730
0!
#1089836
1!
#1090952
0!
#1091320
1!
#1091692
0!
#1092798
1!
#1093174
0!
#1094286
1!
#1095400
0!
#1095764
1!
#1096880
0!
#1097242
1!
#1097626
0!
#1098730
1!
#1099100
0!
#1100206
1!
#1100582
0!
#1101694
1!
#1102066
0!
#1103164
1!
#1104282
0!
#1104654
1!
#1105762
0!
#1106134
1!
#1106504
0!
#1107608
1!
#1107988
0!
#1109090
1!
#1110218
0!
#1110580
1!
#1111694
0!
#1112060
1!
#1112434
0!
#1113534
1!
#1113916
0!
#1116924
1!
#1133160
0!
#1134276
1!
#1135384
0!
#1135758
1!
#1136132
0!
#1137238
1!
#1138352
0!
#1138720
1!
#1139098
0!
#1140202
1!
#1140574
0!
#1141678
1!
#1142794
0!
#1143166
1!
#1144276
0!
#1144642
1!
#1145022
0!
#1146124
1!
#1146502
0!
#1147606
1!
#1147980
0!
#1149084
1!
#1149466
0!
#1150566
1!
#1151686
0!
#1152046
1!
#1153162
0!
#1153534
1!
#1153904
0!
#1155012
1!
#1155390
0!
#1156498
1!
#1157610
0!
#1157972
1!
#1159092
0!
#1159464
1!
#1159836
0!
#1160942
1!
#1161314
0!
#1170024
1!
#1170078
0!
#1170322
1!
#1170332
0!
#1170910
1!
#1170972
0!
#1171300
1!
#1171320
0!
#1171438
1!
#1171492
0!
#1171536
1!
#1171624
0!
#1171644
1!
#1171740
0!
#1171772
1!
#1171782
0!
#1171782
1!
#1171804
0!
#1171836
1!
#1171878
0!
#1172036
1!
#1172400
0!
#1172474
1!
#1172630
0!
#1172772
1!
#1173865
0!
#1174251
1!
#1175349
0!
#1175721
1!
#1176093
0!
#1177207
1!
#1177571
0!
#1178689
1!
#1179061
0!
#1180167
1!
#1180539
0!
#1181639
1!
#1182759
0!
#1183129
1!
#1183501
0!
#1184605
1!
#1185729
0!
#1186091
1!
#1186459
0!
#1187571
1!
#1187945
0!
#1189051
1!
#1190169
0!
#1190539
1!
#1191655
0!
#1192017
1!
#1192387
0!
#1193495
1!
#1193875
0!
#1194975
1!
#1195349
0!
#1196459
1!
#1196829
0!
#1197939
1!
#1199055
0!
#1199427
1!
#1200541
0!
#1200903
1!
#1201277
0!
#1202381
1!
#1202765
0!
#1203869
1!
#1204987
0!
#1205347
1!
#1206461
0!
#1206825
1!
#1207201
0!
#1208309
1!
#1208679
0!
#1219757
1!
#1219779
0!
#1220145
1!
#1221226
0!
#1221614
1!
#1222706
0!
#1223086
1!
#1223456
0!
#1224558
1!
#1224938
0!
#1226048
1!
#1226416
0!
#1227532
1!
#1227902
0!
#1229004
1!
#1230130
0!
#1230492
1!
#1230870
0!
#1231966
1!
#1233090
0!
#1233450
1!
#1233826
0!
#1234938
1!
#1235310
0!
#1236416
1!
#1237528
0!
#1237900
1!
#1239014
0!
#1239376
1!
#1239752
0!
#1240856
1!
#1241230
0!
#1242344
1!
#1242716
0!
#1243824
1!
#1244196
0!
#1245302
1!
#1246422
0!
#1246782
1!
#1247906
0!
#1248270
1!
#1248640
0!
#1249744
1!
#1250122
0!
#1251234
1!
#1252350
0!
#1252716
1!
#1253822
0!
#1254194
1!
#1254570
0!
#1255676
1!
#1256050
0!
#1266312
1!
#1266332
0!
#1266374
1!
#1266404
0!
#1266560
1!
#1266580
0!
#1267500
1!
#1267825
0!
#1267835
1!
#1268549
0!
#1268725
1!
#1268735
0!
#1268923
1!
#1272867
0!
#1272911
1!
#1284865
0!
#1285237
1!
#1286351
0!
#1286709
1!
#1287089
0!
#1288191
1!
#1288565
0!
#1289677
1!
#1290051
0!
#1291159
1!
#1291531
0!
#1292635
1!
#1293753
0!
#1294123
1!
#1295239
0!
#1295605
1!
#1295977
0!
#1297077
1!
#1297453
0!
#1298565
1!
#1299681
0!
#1300045
1!
#1301163
0!
#1301525
1!
#1301899
0!
#1303011
1!
#1303383
0!
#1313837
1!
#1313847
0!
#1314119
1!
#1314129
0!
#1314835
1!
#1315924
0!
#1316308
1!
#1317404
0!
#1317786
1!
#1318146
0!
#1319270
1!
#1319636
0!
#1320744
1!
#1321114
0!
#1322228
1!
#1322596
0!
#1323710
1!
#1324820
0!
#1325190
1!
#1325562
0!
#1326668
1!
#1327786
0!
#1328150
1!
#1328524
0!
#1329632
1!
#1330006
0!
#1331108
1!
#1332222
0!
#1332590
1!
#1333704
0!
#1334076
1!
#1334448
0!
#1335554
1!
#1335930
0!
#1337040
1!
#1337418
0!
#1338524
1!
#1338898
0!
#1340000
1!
#1341118
0!
#1341484
1!
#1342598
0!
#1342962
1!
#1343334
0!
#1344446
1!
#1344822
0!
#1345932
1!
#1347040
0!
#1347404
1!
#1348526
0!
#1348892
1!
#1349260
0!
#1350374
1!
#1350748
0!
#1361178
1!
#1361188
0!
#1361796
1!
#1361806
0!
#1362202
1!
#1363257
0!
#1363649
1!
#1364743
0!
#1365133
1!
#1365489
0!
#1366605
1!
#1366967
0!
#1368087
1!
#1368457
0!
#1369559
1!
#1369935
0!
#1371045
1!
#1372163
0!
#1372531
1!
#1372901
0!
#1374013
1!
#1375123
0!
#1375495
1!
#1375865
0!
#1376967
1!
#1377343
0!
#1378451
1!
#1379571
0!
#1379931
1!
#1381053
0!
#1381413
1!
#1381789
0!
#1382895
1!
#1383273
0!
#1384377
1!
#1384749
0!
#1385857
1!
#1386233
0!
#1387339
1!
#1388461
0!
#1388823
1!
#1389939
0!
#1390311
1!
#1390677
0!
#1391781
1!
#1392165
0!
#1393269
1!
#1394385
0!
#1394747
1!
#1395869
0!
#1396235
1!
#1396603
0!
#1397713
1!
#1398085
0!
#1408379
1!
#1408409
0!
#1408533
1!
#1408555
0!
#1408927
1!
#1408949
0!
#1409517
1!
#1410606
0!
#1410996
1!
#1412088
0!
#1412472
1!
#1412840
0!
#1413948
1!
#1414314
0!
#1415426
1!
#1415806
0!
#1416910
1!
#1417286
0!
#1418386
1!
#1423798
0!
#1423818
1!
#1435804
0!
#1436176
1!
#1437280
0!
#1437650
1!
#1438022
0!
#1439128
1!
#1439508
0!
#1440610
1!
#1441730
0!
#1442092
1!
#1443210
0!
#1443574
1!
#1443956
0!
#1445064
1!
#1445438
0!
#1456492
1!
#1456502
0!
#1456890
1!
#1457961
0!
#1458341
1!
#1459445
0!
#1459827
1!
#1460189
0!
#1461301
1!
#1461669
0!
#1462777
1!
#1463159
0!
#1464265
1!
#1464635
0!
#1465747
1!
#1466857
0!
#1467229
1!
#1467603
0!
#1468707
1!
#1469821
0!
#1470193
1!
#1470563
0!
#1471673
1!
#1472041
0!
#1473149
1!
#1474261
0!
#1474631
1!
#1475745
0!
#1476117
1!
#1476487
0!
#1477601
1!
#1477969
0!
#1479075
1!
#1479455
0!
#1480557
1!
#1480929
0!
#1482039
1!
#1483155
0!
#1483519
1!
#1484643
0!
#1485005
1!
#1485379
0!
#1486485
1!
#1486859
0!
#1487973
1!
#1489087
0!
#1489453
1!
#1490565
0!
#1490927
1!
#1491303
0!
#1492407
1!
#1492791
0!
#1503463
1!
#1503485
0!
#1504023
1!
#1504033
0!
#1504245
1!
#1505344
0!
#1505722
1!
#1506826
0!
#1507198
1!
#1507570
0!
#1508674
1!
#1509046
0!
#1510156
1!
#1510536
0!
#1511638
1!
#1512014
0!
#1513126
1!
#1514244
0!
#1514606
1!
#1514978
0!
#1516090
1!
#1517206
0!
#1517566
1!
#1517944
0!
#1519054
1!
#1519424
0!
#1520532
1!
#1521648
0!
#1522020
1!
#1523128
0!
#1523498
1!
#1523870
0!
#1524980
1!
#1525348
0!
#1526460
1!
#1526830
0!
#1527942
1!
#1528318
0!
#1529422
1!
#1530540
0!
#1530898
1!
#1532022
0!
#1532380
1!
#1532758
0!
#1533864
1!
#1534244
0!
#1535348
1!
#1536466
0!
#1536828
1!
#1537944
0!
#1538314
1!
#1538684
0!
#1539794
1!
#1540162
0!
#1550304
1!
#1550326
0!
#1551616
1!
#1552699
0!
#1553083
1!
#1554177
0!
#1554561
1!
#1554921
0!
#1556033
1!
#1556407
0!
#1557521
1!
#1557893
0!
#1558997
1!
#1559373
0!
#1560475
1!
#1561599
0!
#1561955
1!
#1562337
0!
#1563445
1!
#1564553
0!
#1564925
1!
#1565299
0!
#1566403
1!
#1566781
0!
#1567887
1!
#1569001
0!
#1569373
1!
#1586045
0!
#1587157
1!
#1587519
0!
#1597193
1!
#1597193
0!
#1598451
1!
#1598515
0!
#1598547
1!
#1599632
0!
#1600022
1!
#1601122
0!
#1601500
1!
#1601866
0!
#1602974
1!
#1603346
0!
#1604460
1!
#1604830
0!
#1605934
1!
#1606312
0!
#1607422
1!
#1608534
0!
#1608898
1!
#1609272
0!
#1610378
1!
#1611502
0!
#1611860
1!
#1612238
0!
#1613348
1!
#1613724
0!
#1614828
1!
#1615946
0!
#1616308
1!
#1617424
0!
#1617794
1!
#1618166
0!
#1619276
1!
#1619642
0!
#1620750
1!
#1621132
0!
#1622236
1!
#1622612
0!
#1623714
1!
#1624834
0!
#1625198
1!
#1626308
0!
#1626678
1!
#1627056
0!
#1628160
1!
#1628532
0!
#1629648
1!
#1630760
0!
#1631130
1!
#1632236
0!
#1632606
1!
#1632978
0!
#1634084
1!
#1634466
0!
#1644724
1!
#1644786
0!
#1644902
1!
#1644964
0!
#1644984
1!
#1645006
0!
#1645636
1!
#1645658
0!
#1645678
1!
#1645708
0!
#1645926
1!
#1646999
0!
#1647399
1!
#1648497
0!
#1648869
1!
#1649239
0!
#1650351
1!
#1650717
0!
#1651835
1!
#1652197
0!
#1653311
1!
#1653685
0!
#1654789
1!
#1655909
0!
#1656271
1!
#1656645
0!
#1657753
1!
#1658863
0!
#1659231
1!
#1659607
0!
#1660713
1!
#1661093
0!
#1662193
1!
#1663309
0!
#1663681
1!
#1664799
0!
#1665163
1!
#1665533
0!
#1666641
1!
#1667019
0!
#1668125
1!
#1668499
0!
#1669605
1!
#1669977
0!
#1671083
1!
#1672199
0!
#1672569
1!
#1673681
0!
#1674049
1!
#1674431
0!
#1675539
1!
#1675913
0!
#1677015
1!
#1678127
0!
#1678503
1!
#1679613
0!
#1679973
1!
#1680359
0!
#1681459
1!
#1681831
0!
#1689893
1!
#1689903
0!
#1692595
1!
#1692625
0!
#1693293
1!
#1694386
0!
#1694778
1!
#1695878
0!
#1696250
1!
#1696610
0!
#1697730
1!
#1698098
0!
#1699216
1!
#1699580
0!
#1700692
1!
#1701066
0!
#1702172
1!
#1703294
0!
#1703656
1!
#1704024
0!
#1705134
1!
#1706256
0!
#1706614
1!
#1706988
0!
#1708100
1!
#1708472
0!
#1709582
1!
#1710696
0!
#1711066
1!
#1712182
0!
#1712548
1!
#1712918
0!
#1714030
1!
#1714400
0!
#1715510
1!
#1715884
0!
#1716990
1!
#1717362
0!
#1718468
1!
#1719586
0!
#1719958
1!
#1736284
0!
#1740680
1!
#1741802
0!
#1742178
1!
#1743286
0!
#1743658
1!
#1744032
0!
#1745144
1!
#1745510
0!
#1746618
1!
#1747000
0!
#1748106
1!
#1748482
0!
#1749586
1!
#1750704
0!
#1751062
1!
#1751446
0!
#1752546
1!
#1753664
0!
