off.vcd
$timescale 1 us $end
$scope module Homey $end
$var wire 1 ! Recording $end
$upscope $end
$enddefinitions $end
#0
1!
#15979
0!
#22791
1!
#22823
0!
#24575
1!
#24595
0!
#24865
1!
#24907
0!
#25175
1!
#25175
0!
#25529
1!
#25539
0!
#25685
1!
#25717
0!
#25759
1!
#25769
0!
#26591
1!
#26601
0!
#26601
1!
#26621
0!
#26771
1!
#26791
0!
#26919
1!
#26951
0!
#27079
1!
#43037
0!
#49439
1!
#49483
0!
#50417
1!
#50469
0!
#50991
1!
#51033
0!
#51193
1!
#51235
0!
#51363
1!
#51373
0!
#51519
1!
#51551
0!
#51721
1!
#51751
0!
#52567
1!
#52607
0!
#52743
1!
#52783
0!
#52847
1!
#52911
0!
#52955
1!
#52975
0!
#53623
1!
#53672
0!
#75018
1!
#75050
0!
#75122
1!
#75194
0!
#75298
1!
#75350
0!
#75474
1!
#75514
0!
#75566
1!
#75608
0!
#75618
1!
#75700
0!
#75908
1!
#75928
0!
#76052
1!
#76072
0!
#76674
1!
#76694
0!
#76758
1!
#76800
0!
#77060
1!
#77102
0!
#77308
1!
#77318
0!
#77318
1!
#77340
0!
#77510
1!
#77582
0!
#77846
1!
#77886
0!
#77960
1!
#77990
0!
#78206
1!
#78268
0!
#78402
1!
#78434
0!
#78464
1!
#78506
0!
#78606
1!
#78638
0!
#78698
1!
#78760
0!
#78986
1!
#79018
0!
#79090
1!
#79112
0!
#79692
1!
#95653
0!
#102087
1!
#102109
0!
#102151
1!
#102183
0!
#102235
1!
#102277
0!
#102597
1!
#102627
0!
#102925
1!
#102945
0!
#103039
1!
#103059
0!
#103603
1!
#103613
0!
#103801
1!
#103841
0!
#105091
1!
#105123
0!
#105451
1!
#105493
0!
#105577
1!
#106692
0!
#107074
1!
#108174
0!
#108540
1!
#108908
0!
#110024
1!
#110394
0!
#111506
1!
#111874
0!
#112992
1!
#113364
0!
#114464
1!
#115578
0!
#115950
1!
#116318
0!
#117426
1!
#118546
0!
#118906
1!
#119280
0!
#120394
1!
#120766
0!
#121870
1!
#122982
0!
#123354
1!
#124462
0!
#124838
1!
#125212
0!
#126312
1!
#126692
0!
#127796
1!
#128168
0!
#129272
1!
#129650
0!
#130752
1!
#131868
0!
#132242
1!
#133354
0!
#133714
1!
#134088
0!
#135200
1!
#135570
0!
#136684
1!
#137796
0!
#138156
1!
#139278
0!
#139644
1!
#140762
0!
#141122
1!
#141502
0!
#152952
1!
#154066
0!
#154464
1!
#155564
0!
#155936
1!
#156304
0!
#157412
1!
#157786
0!
#158894
1!
#159262
0!
#160378
1!
#160742
0!
#161854
1!
#162974
0!
#163334
1!
#163714
0!
#164816
1!
#165934
0!
#166294
1!
#166666
0!
#167772
1!
#168154
0!
#169256
1!
#170376
0!
#170736
1!
#171860
0!
#172224
1!
#172598
0!
#173700
1!
#174072
0!
#175184
1!
#175554
0!
#176666
1!
#177034
0!
#178150
1!
#179260
0!
#179626
1!
#180736
0!
#181106
1!
#181476
0!
#182592
1!
#182964
0!
#184074
1!
#185184
0!
#185550
1!
#186660
0!
#187030
1!
#188144
0!
#188510
1!
#188882
0!
#200348
1!
#201454
0!
#201848
1!
#202940
0!
#203324
1!
#203692
0!
#204804
1!
#205168
0!
#206286
1!
#206650
0!
#207762
1!
#208130
0!
#209240
1!
#210360
0!
#210720
1!
#211096
0!
#212200
1!
#213316
0!
#213684
1!
#214066
0!
#215164
1!
#215542
0!
#216642
1!
#217762
0!
#218132
1!
#219246
0!
#219608
1!
#219980
0!
#221096
1!
#221462
0!
#222566
1!
#222950
0!
#224052
1!
#224428
0!
#225536
1!
#226648
0!
#227014
1!
#228130
0!
#228498
1!
#228870
0!
#229978
1!
#230350
0!
#230732
1!
#230744
0!
#230862
1!
#230872
0!
#230872
1!
#230882
0!
#230966
1!
#230998
0!
#231040
1!
#231114
0!
#231208
1!
#231240
0!
#231344
1!
#232594
0!
#232626
1!
#232670
0!
#232714
1!
#232798
0!
#232820
1!
#232862
0!
#232914
1!
#234072
0!
#234412
1!
#235550
0!
#235884
1!
#236286
0!
#236878
1!
#236898
0!
#237400
1!
#237474
0!
#237494
1!
#237546
0!
#237598
1!
#237660
0!
#237692
1!
#237754
0!
#237796
1!
#237858
0!
#237962
1!
#246712
0!
#247728
1!
#248850
0!
#249230
1!
#250336
0!
#250712
1!
#251080
0!
#252190
1!
#252562
0!
#253672
1!
#254046
0!
#255148
1!
#255526
0!
#256628
1!
#257748
0!
#258118
1!
#258492
0!
#259596
1!
#260712
0!
#261074
1!
#261448
0!
#262554
1!
#262926
0!
#264040
1!
#265154
0!
#265514
1!
#266638
0!
#267002
1!
#267370
0!
#268478
1!
#268852
0!
#269958
1!
#270338
0!
#271440
1!
#271814
0!
#272928
1!
#274040
0!
#274400
1!
#275522
0!
#275882
1!
#276256
0!
#277370
1!
#277742
0!
#278846
1!
#279968
0!
#280330
1!
#281446
0!
#281806
1!
#282930
0!
#283290
1!
#283670
0!
#295124
1!
#296240
0!
#296638
1!
#297722
0!
#298104
1!
#298462
0!
#299584
1!
#299948
0!
#301056
1!
#301428
0!
#302542
1!
#302916
0!
#304024
1!
#305136
0!
#305504
1!
#305872
0!
#306980
1!
#308102
0!
#308462
1!
#308838
0!
#309944
1!
#310316
0!
#311430
1!
#312544
0!
#312908
1!
#314020
0!
#314394
1!
#314764
0!
#315874
1!
#316244
0!
#317352
1!
#317726
0!
#318830
1!
#319202
0!
#320314
1!
#321432
0!
#321794
1!
#322908
0!
#323280
1!
#323654
0!
#324758
1!
#325130
0!
#326234
1!
#327356
0!
#327716
1!
#328840
0!
#329198
1!
#330322
0!
#330686
1!
#331056
0!
#342516
1!
#343628
0!
#344028
1!
#345120
0!
#345502
1!
#345862
0!
#346976
1!
#347338
0!
#348452
1!
#348826
0!
#349936
1!
#350312
0!
#351416
1!
#352532
0!
#352894
1!
#353266
0!
#354376
1!
#355488
0!
#355862
1!
#356234
0!
#357338
1!
#357712
0!
#358820
1!
#359936
0!
#360300
1!
#361412
0!
#361784
1!
#362160
0!
#363266
1!
#363640
0!
#364742
1!
#365118
0!
#366228
1!
#366598
0!
#367708
1!
#368818
0!
#369190
1!
#370304
0!
#370672
1!
#371042
0!
#372156
1!
#372520
0!
#373624
1!
#374742
0!
#375108
1!
#376220
0!
#376592
1!
#377710
0!
#378076
1!
#378444
0!
#381806
1!
#391044
0!
#391408
1!
#392518
0!
#392876
1!
#393264
0!
#394112
1!
#394186
0!
#394218
1!
#394290
0!
#394312
1!
#394748
0!
#394768
1!
#394812
0!
#394920
1!
#394962
0!
#394972
1!
#395034
0!
#395318
1!
#395350
0!
#395422
1!
#395464
0!
#395546
1!
#395588
0!
#395628
1!
#395638
0!
#395638
1!
#395722
0!
#395784
1!
#396238
0!
#396952
1!
#396974
0!
#397182
1!
#397266
0!
#397298
1!
#397718
0!
#397740
1!
#397772
0!
#398808
1!
#399924
0!
#400290
1!
#400662
0!
#401770
1!
#402884
0!
#403244
1!
#403620
0!
#404734
1!
#405104
0!
#406208
1!
#407324
0!
#407694
1!
#408806
0!
#409178
1!
#409548
0!
#410660
1!
#411032
0!
#412138
1!
#412510
0!
#413614
1!
#413988
0!
#415100
1!
#416212
0!
#416580
1!
#417692
0!
#418064
1!
#418438
0!
#419544
1!
#419918
0!
#421020
1!
#422136
0!
#422508
1!
#423618
0!
#423986
1!
#425102
0!
#425462
1!
#425846
0!
#437304
1!
#438416
0!
#438808
1!
#439900
0!
#440286
1!
#440642
0!
#441764
1!
#442126
0!
#443238
1!
#443612
0!
#444722
1!
#445094
0!
#446198
1!
#447310
0!
#447678
1!
#448060
0!
#449168
1!
#450278
0!
#450638
1!
#451012
0!
#452126
1!
#452498
0!
#453602
1!
#454722
0!
#455092
1!
#456198
0!
#456568
1!
#456938
0!
#458050
1!
#458418
0!
#459532
1!
#459902
0!
#461014
1!
#461380
0!
#462494
1!
#463604
0!
#463978
1!
#465086
0!
#465456
1!
#465824
0!
#466938
1!
#467314
0!
#468416
1!
#469526
0!
#469900
1!
#471014
0!
#471380
1!
#472498
0!
#472858
1!
#473230
0!
#484692
1!
#485804
0!
#486200
1!
#487290
0!
#487672
1!
#488034
0!
#489158
1!
#489522
0!
#490630
1!
#491000
0!
#492116
1!
#492490
0!
#493590
1!
#494712
0!
#495080
1!
#495452
0!
#496552
1!
#497666
0!
#498042
1!
#498406
0!
#499516
1!
#499896
0!
#501000
1!
#502110
0!
#502480
1!
#503596
0!
#503956
1!
#504338
0!
#505444
1!
#505816
0!
#506920
1!
#507294
0!
#508402
1!
#508782
0!
#509890
1!
#511002
0!
#511362
1!
#512480
0!
#512850
1!
#513224
0!
#514324
1!
#514700
0!
#515808
1!
#516928
0!
#517292
1!
#518408
0!
#518770
1!
#519890
0!
#520250
1!
#520632
0!
#532084
1!
#532850
0!
#532862
1!
#532914
0!
#532924
1!
#533204
0!
#533596
1!
#534690
0!
#535070
1!
#535442
0!
#536538
1!
#536922
0!
#538014
1!
#538422
0!
#539388
1!
#539420
0!
#539472
1!
#539894
0!
#540870
1!
#540882
0!
#540902
1!
#540944
0!
#540966
1!
#542114
0!
#542210
1!
#542220
0!
#542458
1!
#542856
0!
#543898
1!
#545078
0!
#545426
1!
#545816
0!
#546006
1!
#546036
0!
#546510
1!
#546562
0!
#546636
1!
#546668
0!
#546794
1!
#546814
0!
#546866
1!
#547318
0!
#547400
1!
#547442
0!
#547484
1!
#547526
0!
#547630
1!
#547652
0!
#547704
1!
#547724
0!
#547828
1!
#547954
0!
#547996
1!
#548048
0!
#548276
1!
#549504
0!
#549880
1!
#550990
0!
#551358
1!
#551726
0!
#552836
1!
#553210
0!
#554324
1!
#554696
0!
#555796
1!
#556176
0!
#557276
1!
#558392
0!
#558766
1!
#559872
0!
#560242
1!
#560614
0!
#561726
1!
#562094
0!
#563204
1!
#564318
0!
#564682
1!
#565804
0!
#566174
1!
#567278
0!
#567650
1!
#568026
0!
#579482
1!
#580602
0!
#580992
1!
#582084
0!
#582464
1!
#582826
0!
#583950
1!
#584310
0!
#585424
1!
#585798
0!
#586904
1!
#587276
0!
#588384
1!
#589496
0!
#589864
1!
#590244
0!
#591352
1!
#592464
0!
#592824
1!
#593200
0!
#594306
1!
#594680
0!
#595786
1!
#596900
0!
#597272
1!
#598386
0!
#598750
1!
#599124
0!
#600234
1!
#600604
0!
#601720
1!
#602088
0!
#603200
1!
#603568
0!
#604676
1!
#605798
0!
#606160
1!
#607270
0!
#607644
1!
#608016
0!
#609126
1!
#609496
0!
#610608
1!
#611720
0!
#612080
1!
#613202
0!
#613562
1!
#614682
0!
#615046
1!
#615416
0!
#626880
1!
#627990
0!
#628390
1!
#629482
0!
#629868
1!
#630228
0!
#631342
1!
#631712
0!
#632824
1!
#633190
0!
#634304
1!
#634674
0!
#635784
1!
#636898
0!
#637258
1!
#637640
0!
#638744
1!
#639862
0!
#640222
1!
#640598
0!
#641712
1!
#642076
0!
#643188
1!
#644304
0!
#644668
1!
#645782
0!
#646156
1!
#646520
0!
#647632
1!
#648000
0!
#649118
1!
#649490
0!
#650596
1!
#650972
0!
#652078
1!
#653190
0!
#653554
1!
#654676
0!
#655038
1!
#655412
0!
#656522
1!
#656892
0!
#657996
1!
#659112
0!
#659482
1!
#660602
0!
#660960
1!
#662078
0!
#662440
1!
#662818
0!
#674280
1!
#675398
0!
#675778
1!
#676878
0!
#677258
1!
#677628
0!
#678742
1!
#679106
0!
#680212
1!
#680594
0!
#681694
1!
#682070
0!
#683180
1!
#684310
0!
#684646
1!
#685050
0!
#686098
1!
#686098
0!
#687342
1!
#687382
0!
#687456
1!
#687498
0!
#687508
1!
#687982
0!
#688004
1!
#688046
0!
#688162
1!
#688182
0!
#688214
1!
#688308
0!
#688422
1!
#688538
0!
#688674
1!
#688694
0!
#688778
1!
#688810
0!
#688832
1!
#688872
0!
#689030
1!
#689460
0!
#689556
1!
#689556
0!
#689588
1!
#689608
0!
#689662
1!
#689672
0!
#689714
1!
#689724
0!
#689756
1!
#689786
0!
#689818
1!
#689880
0!
#689912
1!
#689952
0!
#689984
1!
#690046
0!
#690088
1!
#690118
0!
#690170
1!
#690222
0!
#690346
1!
#690388
0!
#690514
1!
#691660
0!
#692000
1!
#693150
0!
#693476
1!
#693896
0!
#694610
1!
#694632
0!
#694652
1!
#694694
0!
#694766
1!
#694798
0!
#694818
1!
#694860
0!
#694954
1!
#695388
0!
#695532
1!
#695606
0!
#695658
1!
#695668
0!
#695700
1!
#695752
0!
#695858
1!
#695974
0!
#696014
1!
#696068
0!
#696108
1!
#696108
0!
#696192
1!
#696244
0!
#696390
1!
#696808
0!
#697886
1!
#698294
0!
#699350
1!
#700490
0!
#700866
1!
#701974
0!
#702344
1!
#702714
0!
#703822
1!
#704196
0!
#705306
1!
#706418
0!
#706790
1!
#707896
0!
#708270
1!
#709386
0!
#709750
1!
#710124
0!
#721590
1!
#722694
0!
#723092
1!
#724188
0!
#724570
1!
#724930
0!
#726044
1!
#726406
0!
#727520
1!
#727892
0!
#729000
1!
#729378
0!
#730482
1!
#731598
0!
#731966
1!
#732336
0!
#733448
1!
#734562
0!
#734924
1!
#735302
0!
#736416
1!
#736788
0!
#737892
1!
#739004
0!
#739374
1!
#740484
0!
#740854
1!
#741230
0!
#742332
1!
#742714
0!
#743814
1!
#744190
0!
#745300
1!
#745672
0!
#746776
1!
#747896
0!
#748266
1!
#749376
0!
#749746
1!
#750112
0!
#751228
1!
#751600
0!
#752702
1!
#753818
0!
#754186
1!
#755306
0!
#755670
1!
#756780
0!
#757148
1!
#757524
0!
#768988
1!
#770092
0!
#770496
1!
#771588
0!
#771970
1!
#772330
0!
#773442
1!
#773816
0!
#774930
1!
#775294
0!
#776400
1!
#776782
0!
#777886
1!
#779000
0!
#779372
1!
#779742
0!
#780844
1!
#781962
0!
#782332
1!
#782704
0!
#783812
1!
#784180
0!
#785288
1!
#786412
0!
#786774
1!
#787890
0!
#788262
1!
#788628
0!
#789740
1!
#790112
0!
#791214
1!
#791590
0!
#792696
1!
#793078
0!
#794180
1!
#795296
0!
#795658
1!
#796778
0!
#797142
1!
#797514
0!
#798626
1!
#799004
0!
#800108
1!
#801220
0!
#801588
1!
#802698
0!
#803072
1!
#804184
0!
#804552
1!
#804928
0!
#816384
1!
#817502
0!
#817892
1!
#818986
0!
#819374
1!
#819730
0!
#820844
1!
#821216
0!
#822322
1!
#822694
0!
#823810
1!
#824174
0!
#825288
1!
#826402
0!
#826768
1!
#827138
0!
#828252
1!
#829362
0!
#829734
1!
#830106
0!
#831214
1!
#831586
0!
#832696
1!
#833810
0!
#834174
1!
#835308
0!
#835648
1!
#836048
0!
#836932
1!
#836974
0!
#837120
1!
#837120
0!
#837606
1!
#837646
0!
#837678
1!
#837730
0!
#837794
1!
#837846
0!
#837920
1!
#837982
0!
#838046
1!
#838056
0!
#838056
1!
#838066
0!
#838318
1!
#838360
0!
#838382
1!
#838444
0!
#838476
1!
#838528
0!
#838570
1!
#838996
0!
#840046
1!
#840520
0!
#840646
1!
#840718
0!
#840728
1!
#840770
0!
#840834
1!
#840854
0!
#840876
1!
#840908
0!
#841002
1!
#841064
0!
#841116
1!
#841146
0!
#841240
1!
#841292
0!
#841322
1!
#841418
0!
#841544
1!
#842732
0!
#842906
1!
#842918
0!
#843002
1!
#844192
0!
#844516
1!
#844930
0!
#846004
1!
#846458
0!
#846478
1!
#846540
0!
#846592
1!
#846998
0!
#847072
1!
#847114
0!
#847208
1!
#847230
0!
#847344
1!
#847398
0!
#847470
1!
#848708
0!
#848738
1!
#848926
0!
#848956
1!
#850116
0!
#850442
1!
#851572
0!
#851946
1!
#852310
0!
#863774
1!
#864894
0!
#865286
1!
#866380
0!
#866766
1!
#867126
0!
#868240
1!
#868612
0!
#869714
1!
#870090
0!
#871196
1!
#871568
0!
#872678
1!
#873800
0!
#874160
1!
#874540
0!
#875648
1!
#876758
0!
#877126
1!
#877500
0!
#878602
1!
#878982
0!
#880090
1!
#881200
0!
#881572
1!
#882688
0!
#883048
1!
#883422
0!
#884536
1!
#884908
0!
#886014
1!
#886388
0!
#887498
1!
#887870
0!
#888970
1!
#890088
0!
#890460
1!
#891572
0!
#891940
1!
#892318
0!
#893422
1!
#893796
0!
#894898
1!
#896022
0!
#896384
1!
#897498
0!
#897870
1!
#898978
0!
#899350
1!
#899718
0!
#911182
1!
#912298
0!
#912696
1!
#913780
0!
#914172
1!
#914530
0!
#915642
1!
#916010
0!
#917128
1!
#917500
0!
#918600
1!
#918972
0!
#920086
1!
#921202
0!
#921566
1!
#921940
0!
#923048
1!
#924158
0!
#924526
1!
#924902
0!
#926006
1!
#926388
0!
#927496
1!
#928606
0!
#928980
1!
#930094
0!
#930458
1!
#930828
0!
#931942
1!
#932312
0!
#933418
1!
#933790
0!
#934894
1!
#935270
0!
#936384
1!
#937502
0!
#937866
1!
#938978
0!
#939350
1!
#939722
0!
#940822
1!
#941204
0!
#942306
1!
#943426
0!
#943792
1!
#944904
0!
#945272
1!
#946390
0!
#946750
1!
#947124
0!
#958588
1!
#959700
0!
#960100
1!
#961190
0!
#961572
1!
#961930
0!
#963050
1!
#963418
0!
#964532
1!
#964902
0!
#966012
1!
#966386
0!
#967490
1!
#968610
0!
#968972
1!
#969344
0!
#970454
1!
#971572
0!
#971932
1!
#972304
0!
#973420
1!
#973792
0!
#974898
1!
#976012
0!
#976376
1!
#977490
0!
#977864
1!
#978236
0!
#979344
1!
#979716
0!
#980820
1!
#981198
0!
#982306
1!
#982682
0!
#983784
1!
#984902
0!
#985272
1!
#986418
0!
#986502
1!
#986544
0!
#986606
1!
#987194
0!
#987214
1!
#987214
0!
#987474
1!
#987610
0!
#987702
1!
#987734
0!
#987796
1!
#987880
0!
#987982
1!
#988108
0!
#988138
1!
#988614
0!
#988810
1!
#988820
0!
#988820
1!
#988862
0!
#988882
1!
#989048
0!
#989164
1!
#989206
0!
#989238
1!
#989280
0!
#989332
1!
#989364
0!
#989386
1!
#989416
0!
#989480
1!
#989500
0!
#989552
1!
#989564
0!
#989658
1!
#990812
0!
#991138
1!
#992288
0!
#992634
1!
#993774
0!
#994106
1!
#994514
0!
#995366
1!
#995386
0!
#995616
1!
#995678
0!
#995730
1!
#995742
0!
#995742
1!
#995794
0!
#995846
1!
#996586
0!
#996670
1!
#1002004
0!
#1005968
1!
#1007074
0!
#1007474
1!
#1008560
0!
#1008946
1!
#1009308
0!
#1010420
1!
#1010788
0!
#1011902
1!
#1012274
0!
#1013386
1!
#1013752
0!
#1014864
1!
#1015976
0!
#1016348
1!
#1016718
0!
#1017830
1!
#1018938
0!
#1019310
1!
#1019684
0!
#1020788
1!
#1021162
0!
#1022270
1!
#1023392
0!
#1023752
1!
#1024872
0!
#1025236
1!
#1025614
0!
#1026716
1!
#1027090
0!
#1028194
1!
#1028576
0!
#1029676
1!
#1030050
0!
#1031162
1!
#1032274
0!
#1032646
1!
#1033760
0!
#1034122
1!
#1034494
0!
#1035604
1!
#1035978
0!
#1037088
1!
#1038208
0!
#1038572
1!
#1039686
0!
#1040052
1!
#1041162
0!
#1041534
1!
#1041906
0!
#1053376
1!
#1054482
0!
#1054884
1!
#1055974
0!
#1056352
1!
#1056718
0!
#1057830
1!
#1058194
0!
#1059306
1!
#1059682
0!
#1060792
1!
#1061162
0!
#1062272
1!
#1063390
0!
#1063752
1!
#1064132
0!
#1065232
1!
#1066352
0!
#1066716
1!
#1067096
0!
#1068200
1!
#1068568
0!
#1069682
1!
#1070796
0!
#1071160
1!
#1072280
0!
#1072650
1!
#1073014
0!
#1074128
1!
#1074502
0!
#1075610
1!
#1075976
0!
#1077094
1!
#1077466
0!
#1078568
1!
#1079684
0!
#1080048
1!
#1081166
0!
#1081538
1!
#1081910
0!
#1083020
1!
#1083386
0!
#1084500
1!
#1085612
0!
#1085976
1!
#1087092
0!
#1087466
1!
#1088578
0!
#1088944
1!
#1089314
0!
#1100782
1!
#1100988
0!
#1101686
1!
#1101770
0!
#1101800
1!
#1101822
0!
#1102316
1!
#1102348
0!
#1102442
1!
#1102548
0!
#1102558
1!
#1102600
0!
#1102620
1!
#1102682
0!
#1102776
1!
#1102808
0!
#1102840
1!
#1103372
0!
#1103772
1!
#1104114
0!
#1105244
1!
#1105602
0!
#1106724
1!
#1107092
0!
#1108202
1!
#1108574
0!
#1109682
1!
#1110800
0!
#1111160
1!
#1111538
0!
#1112646
1!
#1113758
0!
#1114122
1!
#1114498
0!
#1115604
1!
#1115976
0!
#1117088
1!
#1118206
0!
#1118576
1!
#1119688
0!
#1120054
1!
#1120428
0!
#1121536
1!
#1121908
0!
#1123012
1!
#1123390
0!
#1124504
1!
#1124874
0!
#1125984
1!
#1127094
0!
#1127466
1!
#1128580
0!
#1128944
1!
#1129312
0!
#1130428
1!
#1130802
0!
#1131902
1!
#1133020
0!
#1133394
1!
#1134506
0!
#1134872
1!
#1135982
0!
#1136352
1!
#1136724
0!
#1137228
1!
#1137290
0!
#1137330
1!
#1137372
0!
#1137404
1!
#1137486
0!
#1137496
1!
#1137528
0!
#1137590
1!
#1137642
0!
#1137674
1!
#1137758
0!
#1137822
1!
#1137854
0!
#1137874
1!
#1137884
0!
#1137884
1!
#1137916
0!
#1137936
1!
#1149320
0!
#1149684
1!
#1150806
0!
#1151164
1!
#1151544
0!
#1152488
1!
#1152552
0!
#1152604
1!
#1153046
0!
#1154126
1!
#1154506
0!
#1155614
1!
#1155984
0!
#1157086
1!
#1158204
0!
#1158578
1!
#1158942
0!
#1160050
1!
#1161174
0!
#1161536
1!
#1161908
0!
#1163016
1!
#1163396
0!
#1164498
1!
#1165618
0!
#1165978
1!
#1167100
0!
#1167460
1!
#1167836
0!
#1168950
1!
#1169324
0!
#1170426
1!
#1170800
0!
#1171910
1!
#1172282
0!
#1173394
1!
#1174502
0!
#1174872
1!
#1175984
0!
#1176360
1!
#1176730
0!
#1177832
1!
#1178210
0!
#1179314
1!
#1180430
0!
#1180798
1!
#1181910
0!
#1182282
1!
#1183400
0!
#1183758
1!
#1184130
0!
#1195598
1!
#1196708
0!
#1197110
1!
#1198200
0!
#1198586
1!
#1198946
0!
#1200060
1!
#1200434
0!
#1201544
1!
#1201910
0!
#1203016
1!
#1203398
0!
#1204498
1!
#1205616
0!
#1205988
1!
#1206362
0!
#1207466
1!
#1208582
0!
#1208944
1!
#1209326
0!
#1210426
1!
#1210800
0!
#1211912
1!
#1213022
0!
#1213392
1!
#1214504
0!
#1214872
1!
#1215248
0!
#1216360
1!
#1216732
0!
#1217838
1!
#1218208
0!
#1219322
1!
#1219690
0!
#1220802
1!
#1221916
0!
#1222280
1!
#1223398
0!
#1223760
1!
#1224144
0!
#1225244
1!
#1225618
0!
#1226724
1!
#1227842
0!
#1228214
1!
#1229324
0!
#1229692
1!
#1230806
0!
#1231176
1!
#1231548
0!
#1241428
1!
#1241460
0!
#1242846
1!
#1242910
0!
#1242994
1!
#1244120
0!
#1244526
1!
#1245614
0!
#1245996
1!
#1246354
0!
#1247480
1!
#1247840
0!
#1248952
1!
#1249324
0!
#1250434
1!
#1250806
0!
#1251920
1!
#1253028
0!
#1253398
1!
#1253768
0!
#1254882
1!
#1255990
0!
#1256362
1!
#1256734
0!
#1257846
1!
#1258214
0!
#1259320
1!
#1260440
0!
#1260808
1!
#1261926
0!
#1262286
1!
#1262658
0!
#1263774
1!
#1264148
0!
#1265250
1!
#1265622
0!
#1266732
1!
#1267106
0!
#1268220
1!
#1269328
0!
#1269700
1!
#1270810
0!
#1271176
1!
#1271552
0!
#1272666
1!
#1273036
0!
#1274140
1!
#1275252
0!
#1275624
1!
#1276744
0!
#1277108
1!
#1278216
0!
#1278590
1!
#1278958
0!
#1288206
1!
#1291546
0!
#1291942
1!
#1293034
0!
#1293404
1!
#1293782
0!
#1294880
1!
#1295262
0!
#1296204
1!
#1296226
0!
#1296310
1!
#1296760
0!
#1297794
1!
#1297794
0!
#1298442
1!
#1298464
0!
#1298494
1!
#1298546
0!
#1298568
1!
#1298588
0!
#1298734
1!
#1298806
0!
#1298828
1!
#1298848
0!
#1298868
1!
#1299110
0!
#1299140
1!
#1300324
0!
#1300660
1!
#1301062
0!
#1302102
1!
#1302112
0!
#1302112
1!
#1303296
0!
#1303626
1!
#1304024
0!
#1305124
1!
#1305496
0!
#1306610
1!
#1307724
0!
#1308084
1!
#1309206
0!
#1309570
1!
#1309944
0!
#1311050
1!
#1311424
0!
#1312536
1!
#1312910
0!
#1314014
1!
#1314388
0!
#1315496
1!
#1316610
0!
#1316982
1!
#1318098
0!
#1318458
1!
#1318832
0!
#1319946
1!
#1320312
0!
#1321422
1!
#1322536
0!
#1322904
1!
#1324022
0!
#1324384
1!
#1325502
0!
#1325872
1!
#1326244
0!
#1337710
1!
#1338824
0!
#1339220
1!
#1340314
0!
#1340696
1!
#1341056
0!
#1342176
1!
#1342536
0!
#1343652
1!
#1344022
0!
#1345126
1!
#1345502
0!
#1346616
1!
#1347726
0!
#1348094
1!
#1348464
0!
#1349580
1!
#1350686
0!
#1351058
1!
#1351430
0!
#1352538
1!
#1352912
0!
#1354022
1!
#1355132
0!
#1355500
1!
#1356618
0!
#1356988
1!
#1357358
0!
#1358462
1!
#1358840
0!
#1359946
1!
#1360320
0!
#1361430
1!
#1361804
0!
#1362906
1!
#1364026
0!
#1364388
1!
#1365512
0!
#1365878
1!
#1366246
0!
#1367360
1!
#1367732
0!
#1368842
1!
#1369958
0!
#1370318
1!
#1371440
0!
#1371800
1!
#1372914
0!
#1373284
1!
#1373656
0!
#1385122
1!
#1386240
0!
#1386632
1!
#1387728
0!
#1388110
1!
#1388472
0!
#1389580
1!
#1389950
0!
#1391062
1!
#1391442
0!
#1392550
1!
#1392920
0!
#1394024
1!
#1395148
0!
#1395508
1!
#1395888
0!
#1396994
1!
#1398106
0!
#1398478
1!
#1398842
0!
#1399956
1!
#1400330
0!
#1401434
1!
#1402552
0!
#1402916
1!
#1404030
0!
#1404404
1!
#1404772
0!
#1405886
1!
#1406258
0!
#1407366
1!
#1407736
0!
#1408848
1!
#1409216
0!
#1410324
1!
#1411444
0!
#1411814
1!
#1412928
0!
#1413294
1!
#1413666
0!
#1414774
1!
#1415144
0!
#1416258
1!
#1417366
0!
#1417740
1!
#1418848
0!
#1419220
1!
#1420334
0!
#1420696
1!
#1421074
0!
#1432546
1!
#1433658
0!
#1434048
1!
#1435142
0!
#1435526
1!
#1435884
0!
#1437006
1!
#1437366
0!
#1438484
1!
#1438856
0!
#1439570
1!
#1439592
0!
#1439654
1!
#1439674
0!
#1439686
1!
#1439716
0!
#1439790
1!
#1439862
0!
#1439892
1!
#1439924
0!
#1439944
1!
#1440360
0!
#1441326
1!
#1442568
0!
#1442908
1!
#1443316
0!
#1444282
1!
#1444334
0!
#1444376
1!
#1445536
0!
#1445866
1!
#1446280
0!
#1446486
1!
#1446516
0!
#1447120
1!
#1447214
0!
#1447286
1!
#1447776
0!
#1447828
1!
#1447860
0!
#1447894
1!
#1447926
0!
#1447966
1!
#1447978
0!
#1447998
1!
#1448030
0!
#1448082
1!
#1448092
0!
#1448092
1!
#1448124
0!
#1448144
1!
#1448196
0!
#1448258
1!
#1448290
0!
#1448332
1!
#1448362
0!
#1448478
1!
#1448540
0!
#1448572
1!
#1448656
0!
#1448698
1!
#1448740
0!
#1448782
1!
#1448792
0!
#1448792
1!
#1449982
0!
#1450322
1!
#1451470
0!
#1451804
1!
#1452212
0!
#1453034
1!
#1453054
0!
#1453086
1!
#1453116
0!
#1453180
1!
#1453222
0!
#1453284
1!
#1453730
0!
#1453822
1!
#1453938
0!
#1454032
1!
#1454052
0!
#1454104
1!
#1454126
0!
#1454252
1!
#1454304
0!
#1454314
1!
#1454388
0!
#1454462
1!
#1454462
0!
#1454586
1!
#1454992
0!
#1456098
1!
#1456472
0!
#1457578
1!
#1458690
0!
#1459064
1!
#1460168
0!
#1460538
1!
#1460920
0!
#1462024
1!
#1462398
0!
#1463500
1!
#1464622
0!
#1464990
1!
#1466104
0!
#1466466
1!
#1467588
0!
#1467952
1!
#1468320
0!
#1479796
1!
#1480910
0!
#1481296
1!
#1482392
0!
#1482772
1!
#1483136
0!
#1484256
1!
#1484256
0!
#1484624
1!
#1484996
0!
#1486102
1!
#1486472
0!
#1487586
1!
#1488692
0!
#1489066
1!
#1489434
0!
#1490542
1!
#1491656
0!
#1492028
1!
#1492402
0!
#1493508
1!
#1493878
0!
#1494990
1!
#1496110
0!
#1496476
1!
#1497588
0!
#1497954
1!
#1498332
0!
#1499438
1!
#1499808
0!
#1500918
1!
#1501298
0!
#1502404
1!
#1502776
0!
#1503888
1!
#1504998
0!
#1505368
1!
#1506480
0!
#1506844
1!
#1507224
0!
#1508330
1!
#1508708
0!
#1509810
1!
#1510922
0!
#1511298
1!
#1512408
0!
#1512778
1!
#1513888
0!
#1514262
1!
#1514630
0!
#1526100
1!
#1527212
0!
#1527606
1!
#1528702
0!
#1529080
1!
#1529440
0!
#1530564
1!
#1530924
0!
#1532034
1!
#1532408
0!
#1533520
1!
#1533888
0!
#1534998
1!
#1536118
0!
#1536488
1!
#1536856
0!
#1537964
1!
#1539078
0!
#1539452
1!
#1539818
0!
#1540932
1!
#1541300
0!
#1542412
1!
#1543522
0!
#1543894
1!
#1545004
0!
#1545372
1!
#1545752
0!
#1546858
1!
#1547228
0!
#1548334
1!
#1548708
0!
#1549822
1!
#1550194
0!
#1551296
1!
#1552418
0!
#1552780
1!
#1553894
0!
#1554268
1!
#1554636
0!
#1555750
1!
#1556122
0!
#1557226
1!
#1558340
0!
#1558708
1!
#1559828
0!
#1560198
1!
#1561304
0!
#1561678
1!
#1562050
0!
#1573512
1!
#1574628
0!
#1575022
1!
#1576122
0!
#1576506
1!
