on.vcd
$timescale 1 us $end
$scope module Homey $end
$var wire 1 ! Recording $end
$upscope $end
$enddefinitions $end
#0
1!
#15915
0!
#21671
1!
#21703
0!
#21745
1!
#21777
0!
#21883
1!
#21937
0!
#22367
1!
#22543
0!
#23337
1!
#23367
0!
#23399
1!
#23421
0!
#23939
1!
#24001
0!
#24011
1!
#24021
0!
#24021
1!
#24041
0!
#24061
1!
#24083
0!
#24125
1!
#24273
0!
#24325
1!
#24413
0!
#24435
1!
#25109
0!
#25141
1!
#25447
0!
#25457
1!
#25457
0!
#25509
1!
#25509
0!
#25685
1!
#25785
0!
#25847
1!
#25941
0!
#25961
1!
#25981
0!
#26033
1!
#26199
0!
#26273
1!
#26305
0!
#26337
1!
#26501
0!
#26533
1!
#26543
0!
#26543
1!
#26543
0!
#26765
1!
#26881
0!
#26901
1!
#26911
0!
#26911
1!
#27689
0!
#27721
1!
#27999
0!
#28053
1!
#28199
0!
#28241
1!
#28373
0!
#28393
1!
#28537
0!
#28557
1!
#28857
0!
#28887
1!
#29309
0!
#29341
1!
#29539
0!
#29591
1!
#30247
0!
#30269
1!
#30441
0!
#30493
1!
#30493
0!
#30525
1!
#30535
0!
#30599
1!
#30821
0!
#30929
1!
#30981
0!
#31013
1!
#31013
0!
#31077
1!
#31377
0!
#31417
1!
#31427
0!
#31427
1!
#31447
0!
#31477
1!
#31509
0!
#31519
1!
#31529
0!
#31529
1!
#31529
0!
#31559
1!
#31685
0!
#31747
1!
#31941
0!
#31981
1!
#32053
0!
#32063
1!
#32073
0!
#32073
1!
#32113
0!
#32155
1!
#32185
0!
#32247
1!
#32257
0!
#32257
1!
#32619
0!
#32629
1!
#32639
0!
#32639
1!
#32743
0!
#32795
1!
#32825
0!
#32845
1!
#32845
0!
#34835
1!
#34884
0!
#55550
1!
#55664
0!
#55674
1!
#55878
0!
#55900
1!
#55930
0!
#55972
1!
#56128
0!
#56190
1!
#56470
0!
#56522
1!
#56688
0!
#56730
1!
#57558
0!
#57588
1!
#58124
0!
#58226
1!
#58512
0!
#58554
1!
#58594
0!
#58604
1!
#60300
0!
#60310
1!
#61276
0!
#61308
1!
#61615
0!
#61825
1!
#62159
0!
#62169
1!
#62747
0!
#62809
1!
#78818
0!
#82632
1!
#82662
0!
#82684
1!
#82706
0!
#82854
1!
#82940
0!
#83172
1!
#83268
0!
#84426
1!
#84458
0!
#84644
1!
#84686
0!
#84922
1!
#84994
0!
#85126
1!
#85240
0!
#85314
1!
#85324
0!
#85366
1!
#85450
0!
#85482
1!
#85514
0!
#85546
1!
#85578
0!
#85682
1!
#85694
0!
#85808
1!
#86912
0!
#87280
1!
#88392
0!
#88762
1!
#89134
0!
#90238
1!
#90620
0!
#91716
1!
#92100
0!
#93202
1!
#93576
0!
#94678
1!
#95804
0!
#95856
1!
#95886
0!
#95936
1!
#95956
0!
#96050
1!
#96070
0!
#96162
1!
#96542
0!
#97644
1!
#98762
0!
#99122
1!
#99504
0!
#100274
1!
#100306
0!
#100538
1!
#100570
0!
#100580
1!
#100984
0!
#102090
1!
#103206
0!
#103562
1!
#104684
0!
#105052
1!
#105426
0!
#106534
1!
#106916
0!
#108000
1!
#108398
0!
#108526
1!
#108546
0!
#108758
1!
#108854
0!
#109208
1!
#109240
0!
#109492
1!
#109878
0!
#110972
1!
#112090
0!
#112442
1!
#113570
0!
#113930
1!
#114324
0!
#115414
1!
#116536
0!
#116894
1!
#118026
0!
#118384
1!
#118760
0!
#119854
1!
#120984
0!
#121334
1!
#121716
0!
#122148
1!
#122222
0!
#122924
1!
#122934
0!
#125368
1!
#126449
0!
#126817
1!
#127931
0!
#128301
1!
#128301
0!
#129175
1!
#129559
0!
#130451
1!
#130493
0!
#130619
1!
#131109
0!
#131849
1!
#131871
0!
#131935
1!
#131955
0!
#132137
1!
#132549
0!
#132909
1!
#132951
0!
#133623
1!
#134741
0!
#135097
1!
#135489
0!
#136583
1!
#137707
0!
#137815
1!
#137827
0!
#137827
1!
#137837
0!
#138059
1!
#138443
0!
#139533
1!
#139935
0!
#139979
1!
#139989
0!
#139989
1!
#140043
0!
#141021
1!
#142147
0!
#142511
1!
#143623
0!
#143959
1!
#144365
0!
#144571
1!
#144591
0!
#145463
1!
#145845
0!
#146957
1!
#147331
0!
#148429
1!
#148813
0!
#149915
1!
#151025
0!
#151397
1!
#152517
0!
#152877
1!
#153257
0!
#154351
1!
#155479
0!
#155819
1!
#156959
0!
#157321
1!
#157697
0!
#158797
1!
#159915
0!
#160285
1!
#160659
0!
#161363
1!
#161407
0!
#161575
1!
#161617
0!
#161843
1!
#161853
0!
#162127
1!
#162159
0!
#162179
1!
#162243
0!
#162967
1!
#163007
0!
#163263
1!
#163355
0!
#163385
1!
#163551
0!
#163561
1!
#163633
0!
#163849
1!
#163869
0!
#163953
1!
#163993
0!
#164065
1!
#164075
0!
#164187
1!
#164303
0!
#164395
1!
#165520
0!
#165864
1!
#166994
0!
#167354
1!
#167730
0!
#168844
1!
#169222
0!
#170310
1!
#170698
0!
#171798
1!
#172170
0!
#173276
1!
#174400
0!
#174758
1!
#175136
0!
#176234
1!
#177350
0!
#177718
1!
#178096
0!
#179204
1!
#179578
0!
#180684
1!
#181802
0!
#182164
1!
#183278
0!
#183638
1!
#184018
0!
#184864
1!
#184874
0!
#185118
1!
#185508
0!
#186596
1!
#186982
0!
#188080
1!
#188470
0!
#189556
1!
#190686
0!
#191054
1!
#192170
0!
#192536
1!
#192908
0!
#194016
1!
#195128
0!
#195488
1!
#196606
0!
#196974
1!
#197352
0!
#197770
1!
#214378
0!
#214744
1!
#215114
0!
#216232
1!
#216610
0!
#217074
1!
#217096
0!
#217706
1!
#218080
0!
#219188
1!
#219558
0!
#220670
1!
#221786
0!
#222148
1!
#222528
0!
#223628
1!
#224744
0!
#225116
1!
#225478
0!
#226590
1!
#226966
0!
#228056
1!
#229182
0!
#229550
1!
#230672
0!
#231034
1!
#231418
0!
#232518
1!
#232888
0!
#233988
1!
#234372
0!
#235470
1!
#235858
0!
#236958
1!
#238076
0!
#238436
1!
#239552
0!
#239922
1!
#240304
0!
#241400
1!
#242514
0!
#242890
1!
#244002
0!
#244358
1!
#244742
0!
#245842
1!
#246964
0!
#247326
1!
#247700
0!
#249300
1!
#249342
0!
#250678
1!
#250700
0!
#253846
1!
#253876
0!
#253886
1!
#253948
0!
#254050
1!
#254184
0!
#254226
1!
#254492
0!
#254578
1!
#254610
0!
#254956
1!
#254968
0!
#255166
1!
#255178
0!
#255580
1!
#255642
0!
#255862
1!
#255926
0!
#255968
1!
#256000
0!
#256042
1!
#256156
0!
#256324
1!
#256354
0!
#256376
1!
#256398
0!
#256430
1!
#256430
0!
#256450
1!
#256494
0!
#256780
1!
#256970
0!
#257014
1!
#257142
0!
#257228
1!
#257356
0!
#257410
1!
#257420
0!
#257470
1!
#257546
0!
#257566
1!
#257914
0!
#257978
1!
#258084
0!
#258260
1!
#258260
0!
#258488
1!
#258686
0!
#258750
1!
#259996
0!
#260366
1!
#261482
0!
#261854
1!
#262220
0!
#263328
1!
#263698
0!
#264808
1!
#265188
0!
#266290
1!
#266662
0!
#267770
1!
#268882
0!
#269250
1!
#269630
0!
#270736
1!
#271852
0!
#272212
1!
#272594
0!
#273698
1!
#274072
0!
#275168
1!
#276290
0!
#276650
1!
#277772
0!
#278140
1!
#278508
0!
#279614
1!
#279992
0!
#281100
1!
#281474
0!
#282576
1!
#282958
0!
#284060
1!
#285176
0!
#285546
1!
#286664
0!
#287022
1!
#287400
0!
#288504
1!
#289622
0!
#289986
1!
#291108
0!
#291468
1!
#291842
0!
#292950
1!
#294064
0!
#294428
1!
#294802
0!
#298316
1!
#298348
0!
#299678
1!
#299698
0!
#300162
1!
#300254
0!
#300274
1!
#300274
0!
#300304
1!
#300314
0!
#300314
1!
#300438
0!
#300820
1!
#300830
0!
#301136
1!
#301178
0!
#301210
1!
#301538
0!
#301654
1!
#301666
0!
#301782
1!
#301794
0!
#301814
1!
#304136
0!
#304178
1!
#305263
0!
#305653
1!
#306761
0!
#307121
1!
#307503
0!
#308601
1!
#308977
0!
#310083
1!
#310457
0!
#311557
1!
#311941
0!
#313041
1!
#314159
0!
#314523
1!
#314905
0!
#316005
1!
#317121
0!
#317485
1!
#317861
0!
#318973
1!
#319345
0!
#320449
1!
#321567
0!
#321937
1!
#323049
0!
#323411
1!
#323783
0!
#324897
1!
#325273
0!
#326373
1!
#326743
0!
#327859
1!
#328227
0!
#329327
1!
#330449
0!
#330819
1!
#331935
0!
#332299
1!
#332679
0!
#333783
1!
#334895
0!
#335255
1!
#336373
0!
#336745
1!
#337119
0!
#338227
1!
#339333
0!
#339701
1!
#339701
0!
#345205
1!
#345311
0!
#346179
1!
#362159
0!
#363187
1!
#364297
0!
#364671
1!
#365045
0!
#366145
1!
#366527
0!
#367627
1!
#368749
0!
#369111
1!
#370231
0!
#370595
1!
#370967
0!
#372073
1!
#372453
0!
#373545
1!
#373937
0!
#375033
1!
#375407
0!
#376513
1!
#377639
0!
#378001
1!
#379115
0!
#379481
1!
#379853
0!
#380961
1!
#382077
0!
#382443
1!
#383559
0!
#383923
1!
#384295
0!
#385407
1!
#386525
0!
#386889
1!
#387261
0!
#391897
1!
#391959
0!
#394567
1!
#394681
0!
#394763
1!
#394891
0!
#394921
1!
#395197
0!
#395735
1!
#395877
0!
#395957
1!
#397040
0!
#397428
1!
#398532
0!
#398906
1!
#399274
0!
#400380
1!
#400752
0!
#401856
1!
#402228
0!
#403342
1!
#403714
0!
#404812
1!
#405934
0!
#406302
1!
#406678
0!
#407776
1!
#408896
0!
#409260
1!
#409642
0!
#410748
1!
#411116
0!
#412230
1!
#413342
0!
#413712
1!
#414820
0!
#415192
1!
#415566
0!
#416670
1!
#417040
0!
#418148
1!
#418528
0!
#419632
1!
#420002
0!
#421106
1!
#422226
0!
#422600
1!
#423712
0!
#424076
1!
#424450
0!
#424524
1!
#424534
0!
#425558
1!
#426662
0!
#427018
1!
#428150
0!
#428520
1!
#428898
0!
#429994
1!
#431108
0!
#431420
1!
#431854
0!
#434294
1!
#434378
0!
#435142
1!
#435206
0!
#435804
1!
#435836
0!
#435898
1!
#435998
0!
#438008
1!
#438040
0!
#438150
1!
#438214
0!
#438776
1!
#438796
0!
#438870
1!
#438956
0!
#439236
1!
#440311
0!
#440683
1!
#441787
0!
#442161
1!
#442533
0!
#443641
1!
#444015
0!
#444331
1!
#444363
0!
#445125
1!
#445495
0!
#446607
1!
#446977
0!
#448081
1!
#449195
0!
#449567
1!
#449939
0!
#451051
1!
#452171
0!
#452353
1!
#452407
0!
#452527
1!
#452907
0!
#454007
1!
#454387
0!
#455495
1!
#456609
0!
#456973
1!
#458089
0!
#458457
1!
#458825
0!
#459929
1!
#460311
0!
#461417
1!
#461789
0!
#462891
1!
#463271
0!
#464375
1!
#465497
0!
#465857
1!
#466979
0!
#467341
1!
#467717
0!
#468817
1!
#469931
0!
#470297
1!
#471411
0!
#471787
1!
#472161
0!
#473263
1!
#474377
0!
#474751
1!
#475123
0!
#482447
1!
#482521
0!
#482685
1!
#483764
0!
#484142
1!
#485244
0!
#485620
1!
#485982
0!
#486440
1!
#502390
0!
#503390
1!
#503762
0!
#504866
1!
#505252
0!
#506348
1!
#506722
0!
#507828
1!
#508940
0!
#509314
1!
#510426
0!
#510798
1!
#511172
0!
#512278
1!
#513392
0!
#513756
1!
#514872
0!
#515236
1!
#515606
0!
#516720
1!
#517838
0!
#518200
1!
#518568
0!
#523714
1!
#523746
0!
#524226
1!
#524258
0!
#524364
1!
#524374
0!
#524458
1!
#524520
0!
#524550
1!
#524582
0!
#524944
1!
#525164
0!
#525322
1!
#525354
0!
#525394
1!
#525484
0!
#526052
1!
#526124
0!
#526572
1!
#526604
0!
#526878
1!
#526898
0!
#527118
1!
#527180
0!
#527444
1!
#527476
0!
#527834
1!
#527866
0!
#528322
1!
#528352
0!
#528554
1!
#528630
0!
#528766
1!
#528788
0!
#528940
1!
#528972
0!
#529148
1!
#529160
0!
#530022
1!
#531093
0!
#531473
1!
#532569
0!
#532949
1!
#533319
0!
#534419
1!
#534797
0!
#535903
1!
#536283
0!
#537391
1!
#537763
0!
#538861
1!
#539983
0!
#540351
1!
#540721
0!
#541825
1!
#542949
0!
#543315
1!
#543689
0!
#544789
1!
#545161
0!
#546275
1!
#547391
0!
#547753
1!
#548869
0!
#549243
1!
#549615
0!
#550717
1!
#551095
0!
#552199
1!
#552573
0!
#553681
1!
#554051
0!
#555155
1!
#556273
0!
#556645
1!
#557757
0!
#558121
1!
#558493
0!
#559601
1!
#560723
0!
#561081
1!
#562197
0!
#562563
1!
#562945
0!
#564047
1!
#565165
0!
#565535
1!
#565899
0!
#573369
1!
#573379
0!
#573455
1!
#573505
0!
#573753
1!
#573773
0!
#573835
1!
#573845
0!
#573845
1!
#573857
0!
#574279
1!
#574311
0!
#574519
1!
#574539
0!
#574755
1!
#574809
0!
#575231
1!
#575295
0!
#575305
1!
#575349
0!
#575995
1!
#576005
0!
#576101
1!
#577202
0!
#577566
1!
#578686
0!
#579052
1!
#579420
0!
#580528
1!
#580908
0!
#582014
1!
#582386
0!
#583492
1!
#583864
0!
#584980
1!
#586086
0!
#586454
1!
#586824
0!
#587934
1!
#589054
0!
#589414
1!
#589788
0!
#590900
1!
#591278
0!
#592378
1!
#593496
0!
#593856
1!
#594972
0!
#595344
1!
#595716
0!
#596818
1!
#597200
0!
#598304
1!
#598680
0!
#599788
1!
#600160
0!
#601264
1!
#602380
0!
#602744
1!
#603858
0!
#604234
1!
#604602
0!
#605712
1!
#606824
0!
#607188
1!
#608310
0!
#608670
1!
#609046
0!
#610150
1!
#611262
0!
#611636
1!
#612006
0!
#618934
1!
#618986
0!
#619420
1!
#619470
0!
#619852
1!
#619874
0!
#620136
1!
#620190
0!
#620368
1!
#620440
0!
#620504
1!
#620524
0!
#620972
1!
#621014
0!
#621272
1!
#621282
0!
#621396
1!
#621406
0!
#621522
1!
#621562
0!
#621768
1!
#621790
0!
#621810
1!
#621820
0!
#621820
1!
#621852
0!
#621882
1!
#622338
0!
#622338
1!
#622380
0!
#622486
1!
#622496
0!
#622528
1!
#622742
0!
#622762
1!
#622906
0!
#622918
1!
#622948
0!
#622990
1!
#623012
0!
#623166
1!
#623196
0!
#623258
1!
#623340
0!
#623434
1!
#624493
0!
#624855
1!
#625967
0!
#626345
1!
#626707
0!
#627819
1!
#628197
0!
#629301
1!
#629675
0!
#630783
1!
#631155
0!
#632263
1!
#633383
0!
#633745
1!
#634113
0!
#635227
1!
#652013
0!
#653001
1!
#654115
0!
#654487
1!
#655591
0!
#655967
1!
#656335
0!
#657447
1!
#658561
0!
#658929
1!
#659295
0!
#666643
1!
#666695
0!
#666833
1!
#667892
0!
#668274
1!
#669384
0!
#669758
1!
#670120
0!
#671226
1!
#671602
0!
#672706
1!
#673088
0!
#674194
1!
#674570
0!
#675674
1!
#676792
0!
#677154
1!
#677526
0!
#678632
1!
#679748
0!
#680118
1!
#680490
0!
#681596
1!
#681976
0!
#683072
1!
#684198
0!
#684558
1!
#685670
0!
#686040
1!
#686416
0!
#687520
1!
#687894
0!
#689000
1!
#689382
0!
#690488
1!
#690856
0!
#691968
1!
#693082
0!
#693448
1!
#694562
0!
#694930
1!
#695304
0!
#696414
1!
#697528
0!
#697892
1!
#699006
0!
#699372
1!
#699748
0!
#700856
1!
#701968
0!
#702334
1!
#702704
0!
#710138
1!
#710138
0!
#710170
1!
#710202
0!
#710410
1!
#710450
0!
#710554
1!
#710606
0!
#710628
1!
#710660
0!
#710784
1!
#710824
0!
#710980
1!
#711020
0!
#711340
1!
#711360
0!
#711472
1!
#711472
0!
#711504
1!
#711546
0!
#711608
1!
#711628
0!
#711786
1!
#711806
0!
#711940
1!
#711950
0!
#712002
1!
#712044
0!
#712054
1!
#712064
0!
#712064
1!
#712168
0!
#712282
1!
#712314
0!
#712416
1!
#712488
0!
#712488
1!
#712550
0!
#712602
1!
#713172
0!
#713266
1!
#713308
0!
#713372
1!
#713550
0!
#713604
1!
#713700
0!
#713922
1!
#713952
0!
#714016
1!
#715113
0!
#715477
1!
#716589
0!
#716949
1!
#717333
0!
#718437
1!
#718805
0!
#719925
1!
#720297
0!
#721397
1!
#721781
0!
#722887
1!
#724001
0!
#724365
1!
#724733
0!
#725841
1!
#726961
0!
#727321
1!
#727697
0!
#728809
1!
#729179
0!
#730285
1!
#731403
0!
#731763
1!
#732883
0!
#733253
1!
#733625
0!
#734731
1!
#735107
0!
#736215
1!
#736585
0!
#737689
1!
#738063
0!
#739177
1!
#740289
0!
#740659
1!
#741773
0!
#742139
1!
#742507
0!
#743617
1!
#744731
0!
#745099
1!
#746215
0!
#746587
1!
#746959
0!
#748059
1!
#749183
0!
#749543
1!
#749923
0!
#756687
1!
#756707
0!
#757067
1!
#757089
0!
#757465
1!
#757517
0!
#757665
1!
#757675
0!
#757761
1!
#757781
0!
#758087
1!
#758129
0!
#758259
1!
#758291
0!
#758385
1!
#758395
0!
#758459
1!
#758469
0!
#758761
1!
#758801
0!
#758863
1!
#758903
0!
#759029
1!
#759073
0!
#759115
1!
#759167
0!
#759199
1!
#759283
0!
#759347
1!
#759357
0!
#759421
1!
#759431
0!
#759557
1!
#759567
0!
#759567
1!
#759957
0!
#759979
1!
#760085
0!
#760181
1!
#760213
0!
#760307
1!
#760307
0!
#760645
1!
#760749
0!
#760813
1!
#760899
0!
#760921
1!
#761123
0!
#761175
1!
#762408
0!
#762780
1!
#763896
0!
#764260
1!
#764634
0!
#765744
1!
#766108
0!
#767222
1!
#767592
0!
#768700
1!
#769078
0!
#770180
1!
#771294
0!
#771668
1!
#772038
0!
#773138
1!
#774266
0!
#774630
1!
#775004
0!
#776102
1!
#776486
0!
#777582
1!
#778700
0!
#779070
1!
#780186
0!
#780556
1!
#780928
0!
#782032
1!
#782406
0!
#782804
1!
#798844
0!
#804712
1!
#804744
0!
#804990
1!
#805002
0!
#805266
1!
#805328
0!
#805360
1!
#805380
0!
#805442
1!
#806150
0!
#806224
1!
#807321
0!
#807691
1!
#808805
0!
#809169
1!
#809545
0!
#810655
1!
#811027
0!
#812127
1!
#812509
0!
#813613
1!
#813991
0!
#815091
1!
#816215
0!
#816573
1!
#816945
0!
#818057
1!
#819175
0!
#819541
1!
#819915
0!
#821019
1!
#821397
0!
#822501
1!
#823615
0!
#823987
1!
#825095
0!
#825467
1!
#825841
0!
#826947
1!
#827319
0!
#828429
1!
#828799
0!
#829907
1!
#830281
0!
#831393
1!
#832509
0!
#832873
1!
#833985
0!
#834357
1!
#834731
0!
#835833
1!
#836945
0!
#837309
1!
#838433
0!
#838793
1!
#839177
0!
#840271
1!
#841397
0!
#841751
1!
#842133
0!
#849419
1!
#849439
0!
#849793
1!
#849875
0!
#849947
1!
#849977
0!
#850185
1!
#850185
0!
#850247
1!
#850319
0!
#850351
1!
#850393
0!
#851273
1!
#851283
0!
#851369
1!
#851401
0!
#851505
1!
#851527
0!
#851559
1!
#851601
0!
#851673
1!
#851673
0!
#851715
1!
#851725
0!
#851727
1!
#852433
0!
#852433
1!
#852475
0!
#852579
1!
#852653
0!
#852705
1!
#853021
0!
#853053
1!
#853095
0!
#853149
1!
#853193
0!
#853259
1!
#854488
0!
#854880
1!
#855980
0!
#856348
1!
#856722
0!
#857826
1!
#858204
0!
#859308
1!
#859678
0!
#860792
1!
#861160
0!
#862262
1!
#863384
0!
#863746
1!
#864130
0!
#865238
1!
#866346
0!
#866716
1!
#867088
0!
#868194
1!
#868566
0!
#869672
1!
#870788
0!
#871158
1!
#872270
0!
#872640
1!
#873010
0!
#874116
1!
#874496
0!
#875600
1!
#875980
0!
#877078
1!
#877458
0!
#878562
1!
#879680
0!
#880042
1!
#881156
0!
#881524
1!
#881896
0!
#883012
1!
#884124
0!
#884486
1!
#885604
0!
#885974
1!
#886346
0!
#887454
1!
#888564
0!
#888938
1!
#889312
0!
#894058
1!
#894110
0!
#896386
1!
#896396
0!
#896512
1!
#896534
0!
#896630
1!
#896662
0!
#896948
1!
#896990
0!
#897160
1!
#897170
0!
#897264
1!
#897296
0!
#897340
1!
#897350
0!
#897668
1!
#897700
0!
#897752
1!
#897752
0!
#898324
1!
#898324
0!
#898366
1!
#898388
0!
#898430
1!
#898430
0!
#898460
1!
#898674
0!
#898706
1!
#899010
0!
#899116
1!
#899234
0!
#899328
1!
#899350
0!
#899434
1!
#899454
0!
#899550
1!
#900026
0!
#900088
1!
#900222
0!
#900402
1!
#901652
0!
#902028
1!
#903136
0!
#903506
1!
#903876
0!
#904990
1!
#905362
0!
#906472
1!
#906836
0!
#907944
1!
#908328
0!
#909428
1!
#910540
0!
#910900
1!
#911284
0!
#912384
1!
#913506
0!
#913872
1!
#914256
0!
#915352
1!
#915742
0!
#916828
1!
#917954
0!
#918320
1!
#919430
0!
#919796
1!
#920178
0!
#921274
1!
#921656
0!
#922762
1!
#923130
0!
#924246
1!
#924618
0!
#925716
1!
#926842
0!
#927206
1!
#928322
0!
#928692
1!
#929054
0!
#930168
1!
#946972
0!
#947942
1!
#949054
0!
#949430
1!
#950536
0!
#950904
1!
#951284
0!
#952382
1!
#952764
0!
#953872
1!
#954242
0!
#955344
1!
#955726
0!
#956828
1!
#957948
0!
#958308
1!
#958686
0!
#959792
1!
#960906
0!
#961270
1!
#961654
0!
#962760
1!
#963136
0!
#964236
1!
#965352
0!
#965718
1!
#966840
0!
#967204
1!
#967576
0!
#968678
1!
#969060
0!
#970164
1!
#970540
0!
#971638
1!
#972024
0!
#973122
1!
#974248
0!
#974604
1!
#975724
0!
#976084
1!
#976462
0!
#977572
1!
#978684
0!
#979056
1!
#980172
0!
#980532
1!
#980914
0!
#982010
1!
#983132
0!
#983498
1!
#983872
0!
#991466
1!
#991508
0!
#991618
1!
#991648
0!
#991660
1!
#991690
0!
#991934
1!
#991944
0!
#992256
1!
#992296
0!
#992484
1!
#992556
0!
#992598
1!
#993022
0!
#993086
1!
#993086
0!
#993138
1!
#993406
0!
#993426
1!
#993710
0!
#993754
1!
#993808
0!
#993840
1!
#993860
0!
#993956
1!
#994010
0!
#994030
1!
#994158
0!
#994168
1!
#994240
0!
#994260
1!
#994322
0!
#994438
1!
#994448
0!
#994490
1!
#994582
0!
#994592
1!
#994706
0!
#994798
1!
#994870
0!
#994992
1!
#995074
0!
#995104
1!
#996348
0!
#996720
1!
#997832
0!
#998202
1!
#998576
0!
#999688
1!
#1000048
0!
#1001164
1!
#1001532
0!
#1002646
1!
#1003020
0!
#1004120
1!
#1005242
0!
#1005606
1!
#1005986
0!
#1007086
1!
#1008200
0!
#1008568
1!
#1008948
0!
#1010046
1!
#1010428
0!
#1011528
1!
#1012644
0!
#1013014
1!
#1014128
0!
#1014496
1!
#1014874
0!
#1015980
1!
#1016350
0!
#1017456
1!
#1017838
0!
#1018942
1!
#1019312
0!
#1020414
1!
#1021536
0!
#1021900
1!
#1023016
0!
#1023382
1!
#1023760
0!
#1024866
1!
#1025984
0!
#1026346
1!
#1027468
0!
#1027822
1!
#1028206
0!
#1029310
1!
#1030428
0!
#1030784
1!
#1030794
0!
#1030794
1!
#1031166
0!
#1037802
1!
#1037812
0!
#1038034
1!
#1038056
0!
#1038566
1!
#1038586
0!
#1038740
1!
#1038760
0!
#1038918
1!
#1038992
0!
#1039172
1!
#1039204
0!
#1039374
1!
#1039428
0!
#1039660
1!
#1039734
0!
#1040230
1!
#1040252
0!
#1040452
1!
#1040494
0!
#1040504
1!
#1040536
0!
#1040598
1!
#1040610
0!
#1041450
1!
#1041534
0!
#1041682
1!
#1041712
0!
#1041912
1!
#1041976
0!
#1042398
1!
#1042430
0!
#1042514
1!
#1042526
0!
#1042568
1!
#1042610
0!
#1042620
1!
#1043705
0!
#1044087
1!
#1045193
0!
#1045563
1!
#1045939
0!
#1047043
1!
#1047417
0!
#1048529
1!
#1048903
0!
#1050001
1!
#1050385
0!
#1051481
1!
#1052609
0!
#1052971
1!
#1053345
0!
#1054451
1!
#1055563
0!
#1055939
1!
#1056311
0!
#1057413
1!
#1057795
0!
#1058897
1!
#1060009
0!
#1060381
1!
#1061495
0!
#1061861
1!
#1062237
0!
#1063341
1!
#1063721
0!
#1064817
1!
#1065201
0!
#1066297
1!
#1066683
0!
#1067785
1!
#1068897
0!
#1069261
1!
#1070377
0!
#1070749
1!
#1071125
0!
#1072231
1!
#1073349
0!
#1073715
1!
#1074827
0!
#1075189
1!
#1075573
0!
#1076673
1!
#1077789
0!
#1078159
1!
#1078533
0!
#1081977
1!
#1097899
0!
#1098895
1!
#1100007
0!
#1100377
1!
#1100749
0!
#1101857
1!
#1102973
0!
#1103341
1!
#1103709
0!
#1104825
1!
#1105197
0!
#1106305
1!
#1107417
0!
#1107787
1!
#1108899
0!
#1109263
1!
#1109637
0!
#1110741
1!
#1111129
0!
#1112225
1!
#1112601
0!
#1113705
1!
#1114093
0!
#1115189
1!
#1116303
0!
#1116667
1!
#1117793
0!
#1118145
1!
#1118533
0!
#1119639
1!
#1120751
0!
#1121121
1!
#1122227
0!
#1122597
1!
#1122977
0!
#1124077
1!
#1125193
0!
#1125557
1!
#1125933
0!
#1133005
1!
#1133057
0!
#1133159
1!
#1133169
0!
#1133211
1!
#1133241
0!
#1133293
1!
#1133293
0!
#1133335
1!
#1133365
0!
#1133407
1!
#1133429
0!
#1133609
1!
#1133651
0!
#1133841
1!
#1133873
0!
#1134145
1!
#1134155
0!
#1134261
1!
#1134281
0!
#1134365
1!
#1134375
0!
#1134375
1!
#1134407
0!
#1134489
1!
#1134519
0!
#1134529
1!
#1134539
0!
#1134539
1!
#1134561
0!
#1134687
1!
#1134697
0!
#1134697
1!
#1134717
0!
#1135005
1!
#1135047
0!
#1135275
1!
#1135295
0!
#1135559
1!
#1135589
0!
#1135631
1!
#1135663
0!
#1136003
1!
#1136013
0!
#1136269
1!
#1136281
0!
#1136343
1!
#1136387
0!
#1136597
1!
#1136639
0!
#1136827
1!
#1136847
0!
#1137215
1!
#1138304
0!
#1138676
1!
#1139786
0!
#1140156
1!
#1140530
0!
#1141634
1!
#1142006
0!
#1143112
1!
#1143494
0!
#1144594
1!
#1144974
0!
#1146074
1!
#1147198
0!
#1147564
1!
#1147940
0!
#1149046
1!
#1150164
0!
#1150526
1!
#1150900
0!
#1152002
1!
#1152386
0!
#1153488
1!
#1154604
0!
#1154970
1!
#1156086
0!
#1156446
1!
#1156830
0!
#1157930
1!
#1158306
0!
#1159410
1!
#1159792
0!
#1160886
1!
#1161266
0!
#1162380
1!
#1163490
0!
#1163860
1!
#1164976
0!
#1165344
1!
#1165712
0!
#1166824
1!
#1167940
0!
#1168300
1!
#1169424
0!
#1169784
1!
#1170164
0!
#1171270
1!
#1172386
0!
#1172746
1!
#1173128
0!
#1179392
1!
#1179424
0!
#1180522
1!
#1180584
0!
#1180606
1!
#1180616
0!
#1180616
1!
#1180616
0!
#1180650
1!
#1180714
0!
#1180840
1!
#1180872
0!
#1181042
1!
#1181052
0!
#1181190
1!
#1181254
0!
#1181264
1!
#1181286
0!
#1181548
1!
#1181580
0!
#1181624
1!
#1181666
0!
#1181728
1!
#1181760
0!
#1181992
1!
#1182024
0!
#1182088
1!
#1182108
0!
#1182140
1!
#1182688
0!
#1182710
1!
#1182762
0!
#1182784
1!
#1182986
0!
#1183006
1!
#1183050
0!
#1183092
1!
#1183114
0!
#1183282
1!
#1183314
0!
#1183336
1!
#1183346
0!
#1183346
1!
#1183432
0!
#1183558
1!
#1183612
0!
#1183664
1!
#1184070
0!
#1184080
1!
#1184142
0!
#1184362
1!
#1185576
0!
#1185950
1!
#1187052
0!
#1187422
1!
#1187796
0!
#1188908
1!
#1189280
0!
#1190384
1!
#1190764
0!
#1191866
1!
#1192244
0!
#1193350
1!
#1194466
0!
#1194836
1!
#1195204
0!
#1196310
1!
#1197426
0!
#1197796
1!
#1198166
0!
#1199272
1!
#1199654
0!
#1200756
1!
#1201870
0!
#1202240
1!
#1203356
0!
#1203720
1!
#1204096
0!
#1205204
1!
#1205578
0!
#1206684
1!
#1207056
0!
#1208166
1!
#1208538
0!
#1209642
1!
#1210760
0!
#1211118
1!
#1212246
0!
#1212608
1!
#1212988
0!
#1214094
1!
#1215206
0!
#1215574
1!
#1216686
0!
#1217058
1!
#1217428
0!
#1218538
1!
#1219650
0!
#1220022
1!
#1220398
0!
#1226766
1!
#1226766
0!
#1226912
1!
#1226954
0!
#1226994
1!
#1227004
0!
#1227016
1!
#1227026
0!
#1227078
1!
#1227150
0!
#1227242
1!
#1227580
0!
#1227580
1!
#1227874
0!
#1227998
1!
#1227998
0!
#1228124
1!
#1228124
0!
#1228228
1!
#1228554
0!
#1228596
1!
#1228596
0!
#1228670
1!
#1228680
0!
#1228872
1!
#1228904
0!
#1228978
1!
#1229032
0!
#1229232
1!
#1229264
0!
#1229600
1!
#1229652
0!
#1229652
1!
#1229682
0!
#1229744
1!
#1247105
0!
#1247473
1!
#1248583
0!
#1248949
1!
#1249331
0!
#1250435
1!
#1250807
0!
#1251911
1!
#1252295
0!
#1253399
1!
#1253773
0!
#1254879
1!
#1255997
0!
#1256359
1!
#1257471
0!
#1257845
1!
#1258215
0!
#1259323
1!
#1260445
0!
#1260807
1!
#1261925
0!
#1262285
1!
#1262663
0!
#1263769
1!
#1264893
0!
#1265253
1!
#1265627
0!
#1271787
1!
#1271809
0!
#1272075
1!
#1272105
0!
#1272245
1!
#1272255
0!
#1272637
1!
#1273716
0!
#1274096
1!
#1275202
0!
#1275574
1!
#1275940
0!
#1277046
1!
#1277418
0!
#1278528
1!
#1278910
0!
#1280016
1!
#1280388
0!
#1281492
1!
#1282606
0!
#1282980
1!
#1283354
0!
#1284452
1!
#1285576
0!
